
<svg xmlns="http://www.w3.org/2000/svg" version="1.1" xmlns:xlink="http://www.w3.org/1999/xlink" preserveAspectRatio="none" x="0px" y="0px" width="300px" height="250px" viewBox="0 0 300 250">
<defs>
<g id="Layer0_0_FILL">
<path fill="#FFFFFF" stroke="none" d="
M 63.15 38.2
L 65.55 38.2 63.05 49.25 66.3 49.25 68.9 38.2 71.1 38.2 71.65 35.85 63.7 35.85 63.15 38.2
M 76.35 35.85
L 73.1 35.85 70 49.25 73.3 49.25 74.6 43.65 76.8 43.65 75.5 49.25 78.75 49.25 81.85 35.85 78.6 35.85 77.3 41.3 75.1 41.3 76.35 35.85
M 156.25 55.75
L 149.15 55.75 142.45 84.95 149.5 84.95 156.25 55.75
M 117 55.75
L 110.2 84.95 116.8 84.95 121.3 63.3 121.1 84.95 127 84.95 136.7 63.3 131.2 84.95 137.8 84.95 144.5 55.75 134.85 55.75
Q 132.55 60.95 130.3 66.05 128.1 71.2 125.9 76.3 126.2 71.2 126.4 66.05 126.55 60.95 126.65 55.75
L 117 55.75
M 107.4 41.25
L 108.1 38.1 111.6 38.1 112.15 35.85 105.4 35.85 102.3 49.25 105.5 49.25 106.9 43.5 110.25 43.5 110.8 41.25 107.4 41.25
M 87.5 35.85
L 84.25 35.85 81.15 49.25 84.4 49.25 87.5 35.85
M 93.25 35.65
Q 92.35 35.6 91.5 35.8 90.65 35.95 90 36.7 89.75 37.1 89.45 37.8 89.2 38.45 89 39.2 88.8 39.95 88.8 40.45 88.8 40.75 88.85 41.05 88.9 41.35 89.05 41.6 89.25 41.95 89.75 42.4 90.2 42.8 90.8 43.15 91.3 43.65 91.7 43.9 92.1 44.15 92.35 44.45 92.7 44.75 92.7 45.25 92.7 45.45 92.6 45.75 92.55 46.15 92.4 46.4 92.35 46.75 92.15 46.95 92.05 47.15 91.75 47.2 91.5 47.25 91.25 47.25 90.85 47.25 90.6 47.05 90.35 46.8 90.35 46.35 90.35 46.05 90.45 45.5 90.6 45 90.65 44.65
L 87.45 44.65
Q 87.3 45.2 87.15 45.75 87.05 46.3 87.05 46.85 87.05 47.7 87.45 48.25 87.8 48.75 88.45 49 89.05 49.35 89.85 49.4 90.55 49.55 91.2 49.45 91.85 49.55 92.55 49.4 93.25 49.35 93.85 49 94.5 48.75 94.95 48.25 95.25 47.85 95.55 47.25 95.75 46.6 95.9 45.95 96.05 45.3 96.05 44.8 96.05 44.55 96 44.3 96 43.95 95.85 43.7 95.6 43.3 95.25 43 94.9 42.65 94.55 42.4 94.35 42.25 94.05 42 93.65 41.75 93.25 41.4 92.85 41.15 92.55 40.9 92.3 40.65 92.15 40.5 92.1 40.3 92.05 40.2 91.95 40.05 91.95 39.85 91.95 39.65 92.05 39.4 92.1 39.15 92.15 38.9 92.25 38.65 92.3 38.5 92.5 38.2 92.7 38.05 92.95 37.9 93.25 37.9 93.65 37.9 93.85 38.1 94.1 38.3 94.1 38.65 94.1 39 94.05 39.4 93.9 39.8 93.85 40.1
L 96.95 40.1
Q 97.05 39.6 97.15 39.15 97.3 38.65 97.3 38.1 97.3 37.25 96.9 36.8 96.5 36.3 95.9 36.05 95.25 35.8 94.65 35.7 93.9 35.65 93.25 35.65
M 160.6 35.85
L 156.95 35.85 154.25 41.35 153.8 35.85 150.6 35.85 151.85 44.6 150.8 49.25 153.95 49.25
Q 154.15 48.5 154.35 47.65 154.55 46.85 154.7 46.1 154.75 45.95 154.8 45.7 154.8 45.5 154.9 45.25 154.95 45 155 44.9 155.4 44.1 155.85 43.35 156.35 42.65 156.85 41.9
L 160.6 35.85
M 137.1 49.25
L 140.6 49.25 141.7 46.3 144.25 46.3 143.9 49.25 147.15 49.25 148.15 35.85 142.9 35.85 137.1 49.25
M 144.45 44
L 142.6 44 145 37.1 144.45 44
M 121.5 38.75
Q 121.55 38.25 121.55 37.85 121.55 36.8 120.75 36.35 120 35.85 118.35 35.85
L 113.75 35.85 110.65 49.25 113.95 49.25 115.25 43.65 115.7 43.65 116.6 49.25 119.9 49.25 118.7 43.35
Q 119.35 43.15 119.8 42.85 120.25 42.5 120.5 42.05 120.7 41.75 120.9 41.15 121.1 40.6 121.3 39.85 121.4 39.3 121.5 38.75
M 118.45 39.15
Q 118.35 39.4 118.3 39.8 118.25 40.1 118.15 40.3 118.1 40.5 118.05 40.7 117.85 40.95 117.6 41.15 117.35 41.3 116.8 41.3
L 115.75 41.3 116.5 38.2 117.5 38.2
Q 118.05 38.2 118.25 38.3 118.45 38.45 118.45 38.75 118.45 38.9 118.45 39.15
M 127.75 35.85
L 124.55 35.85 121.4 49.25 124.65 49.25 127.75 35.85
M 137.65 36.6
Q 137.1 36.1 136.35 35.95 135.5 35.85 134.65 35.85
L 130.1 35.85 127 49.25 132.75 49.25
Q 134.05 49.25 134.75 48.95 135.5 48.7 135.9 47.95 136.2 47.25 136.45 45.95
L 137.95 39.4
Q 138 39.1 138.1 38.75 138.15 38.45 138.15 38.1 138.15 37.1 137.65 36.6
M 131.6 47
L 130.8 47 132.85 38.1 133.95 38.1
Q 134.3 38.1 134.6 38.3 134.75 38.45 134.85 38.85 134.85 38.95 134.75 39 134.75 39.15 134.75 39.2
L 133.3 45.7
Q 133.15 46.55 132.75 46.8 132.45 47.05 131.6 47
M 242.85 91.9
L 241.6 91.9 241.35 93.1 242.55 93.1 242.85 91.9
M 238.3 88.75
Q 238.35 88.5 238.35 88.3 238.3 88 238.15 87.75 237.95 87.55 237.7 87.4 237.45 87.35 237.2 87.3 236.85 87.2 236.6 87.3 236.2 87.2 235.85 87.35 235.5 87.4 235.25 87.75 235.1 87.85 235 88.2 234.85 88.45 234.8 88.75 234.65 89.1 234.65 89.35 234.65 89.5 234.7 89.6 234.7 89.7 234.8 89.8 234.85 89.95 235.1 90.15 235.3 90.35 235.55 90.5 235.75 90.65 235.95 90.8 236.1 90.9 236.2 91.05 236.35 91.15 236.35 91.35 236.35 91.5 236.35 91.6 236.3 91.75 236.3 91.9 236.2 92 236.15 92.1 236.1 92.2 235.95 92.2 235.9 92.25 235.75 92.25 235.55 92.25 235.45 92.15 235.35 92.1 235.3 91.9 235.35 91.7 235.35 91.5 235.45 91.3 235.5 91.1
L 234.05 91.1
Q 234 91.35 234 91.6 233.95 91.8 233.95 92.1 233.95 92.45 234.05 92.65 234.25 92.9 234.55 93 234.8 93.1 235.1 93.2 235.45 93.25 235.7 93.2 236 93.25 236.3 93.2 236.6 93.1 236.85 93 237.1 92.9 237.3 92.65 237.45 92.55 237.6 92.25 237.7 91.95 237.75 91.7 237.75 91.45 237.75 91.15 237.85 91.1 237.75 90.95 237.75 90.85 237.7 90.7 237.65 90.6 237.45 90.4 237.3 90.25 237.2 90.2 237.05 90.15 236.95 90 236.8 89.85 236.6 89.75 236.4 89.6 236.3 89.5 236.15 89.4 236.15 89.35 236.1 89.3 236.1 89.2 236.1 89.15 236.1 89.1 236.1 89.05 236.1 88.9 236.1 88.75 236.15 88.65 236.15 88.5 236.2 88.5 236.3 88.4 236.35 88.3 236.45 88.25 236.6 88.25 236.75 88.25 236.85 88.3 237 88.4 237 88.55 237 88.7 236.95 88.9 236.85 89.05 236.85 89.15
L 238.15 89.15
Q 238.2 88.95 238.3 88.75
M 241.2 88.3
L 242.2 88.3 242.4 87.35 238.95 87.35 238.75 88.3 239.8 88.3 238.7 93.1 240.1 93.1 241.2 88.3
M 232.25 89.7
L 232.5 88.3 234 88.3 234.25 87.35 231.35 87.35 230.05 93.1 233.1 93.1 233.3 92.1 231.65 92.1 232 90.65 233.45 90.65 233.6 89.7 232.25 89.7
M 235.7 55.75
L 228.8 55.75 222.05 84.95 228.65 84.95 232.2 67
Q 232.6 71.45 233.15 76 233.7 80.45 234.25 84.95
L 241.1 84.95 247.8 55.75 241.35 55.75
Q 240.35 60.3 239.45 64.85 238.5 69.3 237.75 73.85 237.3 69.4 236.8 64.85 236.3 60.3 235.7 55.75
M 185.45 84.95
L 186.6 79.95 179.15 79.95 184.7 55.75 177.65 55.75 170.9 84.95 185.45 84.95
M 200.75 79
Q 200.8 81.55 202.05 83 203.25 84.4 205.3 84.95 207.2 85.55 209.5 85.55 211.2 85.55 212.85 85.25 214.55 85 215.9 84.25 217.35 83.45 218.25 81.85 218.75 80.85 219.1 79.9 219.4 78.85 219.7 77.8
L 222.05 68
Q 222.4 66.4 222.8 64.85 223.1 63.2 223.1 61.6 223.05 59.05 221.75 57.65 220.5 56.25 218.45 55.75 216.45 55.25 214.3 55.3 212.4 55.25 210.65 55.65 208.9 56 207.5 57 206.1 57.95 205.2 59.8 204.7 60.8 204.45 61.9 204.1 63 203.9 64.05
L 201.25 75.35
Q 201 76.25 200.85 77.15 200.75 78.05 200.75 79
M 214.25 60.55
Q 215.15 60.55 215.65 61 216.15 61.45 216.25 62.35 216.15 63.2 216 64.1 215.7 65.05 215.5 65.85 215.15 67.3 214.8 68.65 214.5 70 214.15 71.45 213.9 72.4 213.65 73.45 213.4 74.5 213.1 75.55 212.95 76.5 212.6 77.55 212.35 78.65 211.75 79.45 211.1 80.2 209.9 80.25 209.05 80.25 208.4 79.9 207.75 79.5 207.7 78.6 207.75 77.85 207.85 77.1 208.15 76.4 208.25 75.65 208.8 73.65 209.3 71.65 209.8 69.65 210.35 67.65 210.65 66.25 211 64.9 211.3 63.6 211.75 62.3 212.1 61.25 212.6 60.95 213.2 60.5 214.25 60.55
M 169.8 79.95
L 162.35 79.95 167.9 55.75 160.85 55.75 154.1 84.95 168.65 84.95 169.8 79.95
M 201.45 55.75
L 194.4 55.75 187.65 84.95 194.7 84.95 201.45 55.75
M 190.1 49.25
L 191.2 46.3 193.75 46.3 193.4 49.25 196.65 49.25 197.6 35.85 192.35 35.85 186.6 49.25 190.1 49.25
M 194.5 37.1
L 193.95 44 192.1 44 194.5 37.1
M 181.85 46.75
Q 181.55 46.85 180.9 46.85 180.7 46.85 180.5 46.85 180.35 46.85 180.1 46.85
L 179.6 49.25 181.6 49.25
Q 182.45 49.25 183.15 49.15 183.85 49 184.45 48.55 185 48.15 185.35 47.25 185.5 46.85 185.6 46.5 185.7 46.05 185.8 45.65
L 188.1 35.85 184.8 35.85 182.7 45.25
Q 182.6 45.9 182.4 46.2 182.2 46.6 181.85 46.75
M 164.95 35.85
L 162.1 35.85 161.35 38.75 162.4 38.75 160.7 41.7 161.95 41.7 164.2 38.75 164.95 35.85
M 174.25 36.8
Q 173.9 36.3 173.3 36.05 172.65 35.8 172 35.7 171.3 35.65 170.65 35.65 169.75 35.6 168.9 35.8 168.05 35.95 167.4 36.7 167.15 37.1 166.8 37.8 166.55 38.45 166.35 39.2 166.15 39.95 166.15 40.45 166.15 40.75 166.25 41.05 166.3 41.35 166.45 41.6 166.6 41.95 167.15 42.4 167.6 42.8 168.2 43.15 168.7 43.65 169.1 43.9 169.45 44.15 169.75 44.45 170.05 44.75 170.05 45.25 170.05 45.45 170 45.75 169.95 46.15 169.8 46.4 169.75 46.75 169.55 46.95 169.4 47.15 169.15 47.2 168.9 47.25 168.65 47.25 168.25 47.25 168 47.05 167.7 46.8 167.7 46.35 167.7 46.05 167.85 45.5 168 45 168.05 44.65
L 164.8 44.65
Q 164.65 45.2 164.55 45.75 164.4 46.3 164.4 46.85 164.4 47.7 164.8 48.25 165.2 48.75 165.85 49 166.45 49.35 167.2 49.4 167.9 49.55 168.55 49.45 169.2 49.55 169.95 49.4 170.65 49.35 171.2 49 171.85 48.75 172.35 48.25 172.65 47.85 172.9 47.25 173.1 46.6 173.3 45.95 173.45 45.3 173.45 44.8 173.45 44.55 173.35 44.3 173.35 43.95 173.25 43.7 173 43.3 172.65 43 172.25 42.65 171.95 42.4 171.75 42.25 171.4 42 171.05 41.75 170.65 41.4 170.25 41.15 169.95 40.9 169.65 40.65 169.55 40.5 169.45 40.3 169.4 40.2 169.35 40.05 169.35 39.85 169.35 39.65 169.4 39.4 169.45 39.15 169.55 38.9 169.6 38.65 169.65 38.5 169.85 38.2 170.05 38.05 170.3 37.9 170.65 37.9 171.05 37.9 171.2 38.1 171.5 38.3 171.5 38.65 171.5 39 171.4 39.4 171.3 39.8 171.2 40.1
L 174.35 40.1
Q 174.4 39.6 174.55 39.15 174.65 38.65 174.65 38.1 174.65 37.25 174.25 36.8
M 234.8 35.8
Q 233.95 35.95 233.35 36.45 232.7 36.9 232.25 37.7 232.05 38.2 231.95 38.7 231.8 39.15 231.65 39.65
L 230.45 44.85
Q 230.3 45.25 230.3 45.7 230.25 46.1 230.25 46.55 230.25 47.7 230.85 48.35 231.4 49 232.3 49.25 233.25 49.55 234.25 49.55 235.05 49.55 235.75 49.4 236.55 49.25 237.2 48.95 237.85 48.55 238.3 47.85 238.55 47.4 238.7 46.95 238.8 46.5 238.95 45.95
L 240.05 41.5
Q 240.15 40.75 240.35 40 240.5 39.3 240.5 38.5 240.5 37.35 239.9 36.7 239.35 36.1 238.35 35.85 237.45 35.65 236.45 35.65 235.55 35.65 234.8 35.8
M 235.7 38.25
Q 235.95 38.05 236.4 38.05 236.85 38.05 237.05 38.25 237.3 38.45 237.3 38.9 237.3 39.3 237.25 39.65 237.1 40.1 237 40.5 236.85 41.15 236.65 41.8 236.55 42.4 236.4 43.05 236.3 43.5 236.15 44 236 44.45 235.9 44.9 235.85 45.4 235.7 45.9 235.55 46.4 235.3 46.75 235 47.15 234.45 47.15 234 47.15 233.75 46.95 233.45 46.8 233.45 46.35 233.45 46.05 233.5 45.65 233.6 45.3 233.7 45 233.95 44.1 234.15 43.15 234.4 42.2 234.65 41.3 234.8 40.7 234.9 40.05 235.1 39.5 235.3 38.85 235.45 38.35 235.7 38.25
M 219.15 49.25
L 222.4 49.25 223.7 43.9 226.15 43.9
Q 227.25 43.9 228 43.65 228.65 43.35 229 42.7 229.35 42.15 229.6 41.05 229.75 40.6 229.85 40.05 230 39.55 230.05 38.95 230.2 38.45 230.2 38 230.2 37.1 229.8 36.6 229.35 36.15 228.7 35.95 228.05 35.85 227.35 35.85
L 222.25 35.85 219.15 49.25
M 226.85 39.5
Q 226.8 39.8 226.75 40.1 226.7 40.5 226.55 40.85 226.4 41.15 226.15 41.3 225.95 41.5 225.45 41.5
L 224.2 41.5 225 38.2 226.15 38.2
Q 226.5 38.1 226.75 38.3 227 38.45 227 38.85 227 39.15 226.85 39.5
M 208.25 36.6
Q 207.7 36.05 206.75 35.85 205.85 35.6 204.9 35.65 204 35.65 203.2 35.8 202.4 35.9 201.75 36.3 201.15 36.7 200.75 37.55 200.5 38 200.35 38.45 200.2 38.9 200.15 39.35
L 198.85 45
Q 198.75 45.45 198.65 45.9 198.55 46.4 198.55 46.85 198.55 47.3 198.75 47.7 198.85 48.05 199.1 48.35 199.55 48.9 200.15 49.15 200.65 49.4 201.3 49.45 201.95 49.55 202.6 49.55 204.15 49.55 205.1 49.2 206.05 48.9 206.5 48.25 206.95 47.6 207.2 46.55 207.5 45.55 207.75 44.2
L 204.45 44.2
Q 204.45 44.4 204.3 44.8 204.25 45.2 204.1 45.55 204.05 46.05 203.9 46.35 203.8 46.7 203.65 46.8 203.45 47 203.25 47.15 203 47.2 202.75 47.2 202.35 47.2 202.1 47 201.85 46.8 201.85 46.35 201.85 46.2 201.9 46.1 201.9 45.9 201.95 45.75
L 203.55 38.9
Q 203.65 38.45 203.9 38.25 204.15 38.05 204.65 38.05 205.1 38.05 205.35 38.25 205.6 38.45 205.6 38.9 205.6 39.4 205.45 39.95 205.35 40.45 205.2 40.95
L 208.3 40.95
Q 208.5 40.3 208.65 39.65 208.85 39 208.85 38.35 208.85 37.2 208.25 36.6
M 220.6 35.85
L 217.1 35.85 213.3 41.8 214.7 35.85 211.5 35.85 208.4 49.25 211.65 49.25 213.25 42.05 214.55 49.25 217.85 49.25 216.25 42.05 220.6 35.85
M 244.95 49.25
L 247.55 38.2 249.75 38.2 250.35 35.85 242.4 35.85 241.85 38.2 244.25 38.2 241.75 49.25 244.95 49.25 Z"/>
</g>

<g id="K65668_LottoMax_SubtleJackpot_MM_300x250_V2_psd_Asset_1_Screen_3_type__60_0_Layer0_0_MEMBER_0_FILL">
<path fill="#FFFFFF" stroke="none" d="
M -16.8 -26.7
L -16.35 -28.75 -18.15 -28.75 -18.65 -26.75
Q -20.45 -26.6 -21.3 -25.7 -22.4 -24.5 -22.4 -22.9 -22.4 -21.6 -21.5 -20.85
L -19.45 -19.05
Q -19.05 -18.7 -19.05 -18.25 -19.05 -17.65 -19.3 -17.25 -19.5 -16.9 -20 -16.9 -20.7 -16.9 -20.7 -17.5 -20.7 -17.8 -20.6 -18.05
L -20.45 -18.65 -23.75 -18.65 -23.9 -18.15 -24.05 -16.9
Q -24.05 -15 -21.45 -14.7
L -21.95 -12.3 -20.15 -12.3 -19.6 -14.7 -18.65 -14.85
Q -17.75 -15 -17.05 -15.55 -16.15 -16.25 -15.8 -17.6 -15.65 -18.2 -15.65 -18.8 -15.65 -19.75 -16.35 -20.6 -17.3 -21.55 -18.6 -22.6 -19.15 -23.05 -19.15 -23.5 -19.15 -24.55 -18.3 -24.55 -17.6 -24.55 -17.6 -24
L -17.85 -22.9 -14.75 -22.9 -14.6 -23.5
Q -14.45 -24 -14.45 -24.55 -14.45 -26.4 -16.8 -26.7 Z"/>
</g>

<g id="K65668_LottoMax_SubtleJackpot_MM_300x250_V2_psd_Asset_1_Screen_3_type__60_0_Layer0_0_MEMBER_1_FILL">
<path fill="#FFFFFF" stroke="none" d="
M 5.05 -20.75
Q 5.35 -22 5.35 -22.8 5.35 -25.3 3.25 -26.65 1.1 -28 -2.8 -28 -6.9 -28 -9.2 -26.5 -10.6 -25.5 -11.5 -24 -12.35 -22.5 -12.95 -19.9
L -15.45 -9.2
Q -16 -6.75 -16 -5.55 -16 -2.75 -13.85 -1.25 -11.75 0.2 -7.65 0.2 -1.4 0.2 0.75 -3.45 1.7 -5.1 2.3 -7.65
L 2.9 -10.3
Q 3.2 -11.4 3.2 -12.85 3.2 -14.95 1.95 -16.05 0.65 -17.2 -1.75 -17.2 -5.2 -17.2 -6.95 -15
L -5.45 -21.3
Q -5.05 -23.2 -3.3 -23.2 -1.65 -23.2 -1.65 -21.95
L -2.15 -19.3 4.75 -19.3 5.05 -20.75
M -8.9 -6.55
L -7.9 -10.95
Q -7.4 -13 -5.55 -13 -4 -13 -4 -11.7
L -4.15 -10.7 -5.2 -6.25
Q -5.5 -5.05 -6 -4.55 -6.45 -4.05 -7.4 -4.05 -9.05 -4.05 -9.05 -5.4
L -8.9 -6.55 Z"/>
</g>

<g id="K65668_LottoMax_SubtleJackpot_MM_300x250_V2_psd_Asset_1_Screen_3_type__60_0_Layer0_0_MEMBER_2_FILL">
<path fill="#FFFFFF" stroke="none" d="
M 18.2 -28
Q 13.75 -28 11.4 -26.1 9.35 -24.4 8.5 -20.65
L 5.8 -8.9
Q 5.2 -6.15 5.2 -5.1 5.2 -2.45 7.45 -1 9.7 0.45 13.8 0.45 18.2 0.45 20.3 -1.25 22.45 -2.95 23.4 -7.3
L 26.15 -19.35
Q 26.6 -21.15 26.6 -22.45 26.6 -25.05 24.4 -26.55 22.2 -28 18.2 -28
M 17.95 -23.6
Q 19.75 -23.6 19.75 -22.3 19.75 -21.8 19.55 -21
L 16.1 -6.15
Q 15.85 -4.85 15.35 -4.35 14.85 -3.85 13.8 -3.85 12.05 -3.85 12.05 -5.2
L 12.25 -6.45 15.7 -21.3
Q 16 -22.6 16.5 -23.1 16.95 -23.6 17.95 -23.6 Z"/>
</g>
</defs>

<g transform="matrix( 1, 0, 0, 1, 0,0) ">
<use xlink:href="#Layer0_0_FILL"/>
</g>

<g transform="matrix( 1, 0, 0, 1, -99.25,-24.2) ">
<g transform="matrix( 1, 0, 0, 1, 147,56) ">
<g transform="matrix( 1, 0, 0, 1, 0,22) ">
<g transform="matrix( 1.0779571533203125, 0, 0, 1.0779571533203125, 25.9,31.25) ">
<use xlink:href="#K65668_LottoMax_SubtleJackpot_MM_300x250_V2_psd_Asset_1_Screen_3_type__60_0_Layer0_0_MEMBER_0_FILL"/>
</g>

<g transform="matrix( 1.0779571533203125, 0, 0, 1.0779571533203125, 25.9,31.25) ">
<use xlink:href="#K65668_LottoMax_SubtleJackpot_MM_300x250_V2_psd_Asset_1_Screen_3_type__60_0_Layer0_0_MEMBER_1_FILL"/>
</g>

<g transform="matrix( 1.0779571533203125, 0, 0, 1.0779571533203125, 25.9,31.25) ">
<use xlink:href="#K65668_LottoMax_SubtleJackpot_MM_300x250_V2_psd_Asset_1_Screen_3_type__60_0_Layer0_0_MEMBER_2_FILL"/>
</g>
</g>
</g>
</g>
</svg>
