
<svg xmlns="http://www.w3.org/2000/svg" version="1.1" xmlns:xlink="http://www.w3.org/1999/xlink" preserveAspectRatio="none" x="0px" y="0px" width="160px" height="600px" viewBox="0 0 160 600">
<defs>
<filter id="Filter_1" x="-20%" y="-20%" width="140%" height="140%" color-interpolation-filters="sRGB">
<feColorMatrix in="SourceGraphic" type="matrix" values="0 0 0 0 0.3137254901960784 0 0 0 0 0.37254901960784315 0 0 0 0 0.40784313725490196 0 0 0 1 0" result="result1"/>
</filter>

<g id="flash0_ai_1_Layer_1__Clip_Group__0_0_Layer2_0_FILL">
<path fill="#505F68" stroke="none" d="
M 52.6 160.45
L 52.9 158.55 48.65 158.55
Q 45.6 158.55 45.15 161.2
L 45.1 161.8
Q 45.1 162.6 45.5 163.15 46.3 163.95 47.8 163.95
L 49.3 163.95
Q 49.9 163.95 50.2 164.25 50.35 164.4 50.35 164.75
L 50.35 164.95
Q 50.25 165.85 49 165.85
L 44.9 165.85 44.65 167.55 49.05 167.55
Q 51.9 167.55 52.35 165.05
L 52.4 164.8 52.45 164.25
Q 52.45 163.35 52 162.9 51.3 162.05 49.75 162.05
L 48.25 162.05
Q 47.55 162.05 47.35 161.8 47.25 161.7 47.25 161.3 47.25 160.45 48.6 160.45
L 52.6 160.45
M 66.95 163.5
Q 67.25 162.15 66.55 161.25 65.85 160.45 64.45 160.45 63.05 160.45 62.1 161.3 61.1 162.15 60.85 163.5
L 60.25 167.55 62.2 167.55 62.85 163.5
Q 63.05 162.35 64.1 162.35 65.25 162.35 65.05 163.5
L 64.45 167.55 66.35 167.55 66.95 163.5
M 73.9 160.45
L 70.9 160.45
Q 68.3 160.45 67.95 162.6 67.8 163.45 68.35 164.2 68.85 164.85 70.1 164.85
L 71.25 164.85
Q 71.6 164.85 71.65 165
L 71.75 165.4 71.7 165.4 71.7 165.45
Q 71.6 165.9 71.05 165.9
L 67.6 165.9 67.35 167.55 70.8 167.55
Q 73.2 167.55 73.5 165.4 73.7 164.35 73.2 163.75 72.7 163.1 71.45 163.1
L 70.15 163.1 69.85 162.9 69.8 162.6 69.8 162.45
Q 70 162.1 70.4 162.1
L 73.65 162.1 73.9 160.45 Z"/>

<path fill="#91C84B" stroke="none" d="
M 14.7 160.45
L 18.75 160.45 19.05 158.55 15.4 158.55
Q 13.25 158.55 11.85 159.7 10.45 160.95 10.1 163 9.75 165.1 10.8 166.3 11.85 167.55 13.95 167.55
L 17.65 167.55 18.5 162.05 14.5 162.05 14.15 163.95 16.2 163.95 15.95 165.55 13.95 165.55
Q 12.85 165.55 12.35 164.75 11.9 164.05 12.1 163.25
L 12.15 162.85
Q 12.3 161.7 13.2 161 13.95 160.45 14.7 160.45
M 23.3 162.05
Q 23.7 162.05 23.75 162.25 23.75 162.35 23.65 163.1
L 21.5 163.1
Q 18.9 163.1 18.55 165.3 18.25 167.55 20.75 167.55
L 24.85 167.55 25.45 163.5
Q 25.95 160.45 23.3 160.45
L 20.1 160.45 19.85 162.05 23.3 162.05
M 23.4 164.55
L 23.2 165.9 21.1 165.9
Q 20.2 165.9 20.4 165.2 20.45 164.55 21.4 164.55
L 23.4 164.55
M 28.45 163.45
Q 28.65 162.35 29.8 162.35 30.9 162.35 30.75 163.45
L 30.05 167.55 32 167.55 32.65 163.45
Q 32.8 162.35 33.95 162.35 35.05 162.35 34.9 163.45
L 34.25 167.55 36.15 167.55 36.85 163.5
Q 37.05 162.1 36.35 161.25 35.6 160.45 34.25 160.45 33.05 160.45 32.05 161.3 31.35 160.45 30.1 160.45 28.75 160.45 27.75 161.3 26.75 162.15 26.55 163.5
L 25.9 167.55 27.8 167.55 28.45 163.45 Z"/>
</g>

<g id="bclc_bar_assets_bclc_bar_font_e_0_Layer0_0_FILL">
<path fill="#91C84B" stroke="none" d="
M 6.3 2.5
Q 6.3 1.35 5.8 0.8 5.1 0 3.7 0 2.25 0 1.3 0.9 0.35 1.75 0.1 3.3 -0.2 4.8 0.55 5.7 1.25 6.5 2.55 6.5
L 5.2 6.5 5.4 5 2.8 5
Q 2.2 5 1.95 4.7 1.75 4.55 1.75 4.05
L 6.1 4.05 6.25 3.3 6.3 2.5
M 4.6 2.5
L 4.6 2.55 2 2.55
Q 2.45 1.55 3.55 1.55 4.2 1.55 4.4 1.8 4.6 2 4.6 2.5 Z"/>
</g>

<g id="flash0_ai_1_Layer_1__Clip_Group__0_0_Layer1_1_MEMBER_0_FILL">
<path fill="#505F68" stroke="none" d="
M 52.3 60.85
L 53.2 60.85 52.6 64.25 52.55 64.95
Q 52.55 67.05 54.75 67.05 55.85 67.05 56.55 66.7
L 56.65 64.9
Q 56.05 65.15 55.4 65.15 54.55 65.15 54.55 64.55
L 54.6 64.4 55.15 60.85 57.15 60.85
Q 57.5 59.85 57.55 59.05
L 55.5 59.05 55.85 57.15
Q 54.8 57.15 53.85 57.45
L 53.55 59.05 52.6 59.05 52.3 60.85
M 66.65 62.95
L 66.6 64
Q 66.6 67.05 69.85 67.05 71.45 67.05 72.5 66.6
L 72.35 64.6
Q 71.4 65.15 70.25 65.15 69.4 65.15 69.05 64.85 68.75 64.6 68.75 64.1
L 68.75 63.65 73.1 63.65
Q 73.4 62.45 73.4 61.6 73.4 58.9 70.65 58.9 67.45 58.9 66.65 62.95
M 71.35 62.25
L 69 62.25
Q 69.35 60.45 70.45 60.45 71.4 60.45 71.4 61.4
L 71.35 62.25
M 61.15 59.8
L 61.85 55.75
Q 60.95 55.75 59.85 55.9
L 57.85 66.9 59.85 66.9 60.9 61.15
Q 61.65 60.65 62.3 60.65 63.3 60.65 63.3 61.35
L 63.3 61.6 62.3 66.9 64.4 66.9 65.4 60.8
Q 65.4 58.9 63.4 58.9 62.1 58.9 61.25 59.8
L 61.15 59.8
M 18 56.7
L 16.6 58.2
Q 15.05 59.65 14.05 61.2
L 13.95 61.2 14.7 56.8 12.55 56.8 10.75 66.9 12.95 66.9 13.55 63.85 14.75 62.6 16.5 67
Q 17.8 67 18.8 66.8 17.7 63.7 16.4 60.95
L 20.35 56.95
Q 19.25 56.7 18 56.7
M 28.9 62.8
L 28.8 64
Q 28.8 65.45 29.7 66.3 30.55 67.05 32 67.05 35.5 67.05 36.1 63.2
L 36.2 62.05
Q 36.2 58.9 32.9 58.9 29.5 58.9 28.9 62.8
M 30.95 64
L 31.05 63
Q 31.45 60.6 32.8 60.6 33.95 60.6 33.95 62
L 33.9 63
Q 33.7 64.35 33.25 64.8 32.85 65.3 32.15 65.3 30.95 65.3 30.95 64
M 23.4 59.8
L 23.3 59.8 23.45 59.05
Q 22 59.05 21.35 59.15
L 20 66.9 22.05 66.9 23.05 61.15
Q 23.8 60.65 24.45 60.65 25.4 60.65 25.4 61.35
L 25.4 61.6 24.5 66.9 26.5 66.9 27.5 61.35 27.55 60.8
Q 27.55 58.9 25.5 58.9 24.3 58.9 23.4 59.8
M 39.95 59.05
Q 38.6 59.05 38 59.15
L 37.95 61.55
Q 37.95 64.75 38.25 66.9
L 40.3 66.9 42.5 62.5 42.8 61.35 42.9 61.35 42.9 62.6 43.55 66.9 45.6 66.9
Q 47.45 62.95 48.65 59.15 48.15 59.05 46.8 59.05
L 44.95 64.5 44.85 64.5 44.3 59.05 42.4 59.05 40.3 63.5
Q 40.05 64.05 39.95 64.5
L 39.8 64.5 39.95 59.05
M 84.55 63.2
L 84.65 62.05
Q 84.65 58.9 81.45 58.9 77.95 58.9 77.35 62.8
L 77.25 64
Q 77.25 65.45 78.15 66.3 79 67.05 80.5 67.05 83.95 67.05 84.55 63.2
M 82.5 62
L 82.45 63
Q 82.2 64.35 81.8 64.8 81.4 65.3 80.7 65.3 79.45 65.3 79.45 64
L 79.6 63
Q 80 60.6 81.35 60.6 82.5 60.6 82.5 62
M 93.95 55.75
Q 93 55.75 91.85 55.9
L 91.25 59.1
Q 90.75 58.9 89.85 58.9 86.4 58.9 85.75 63
L 85.7 64.1
Q 85.7 67.05 88.1 67.05 89.05 67.05 89.85 66.25
L 89.95 66.25 89.85 66.9 91.95 66.9 93.95 55.75
M 89.85 60.65
Q 90.4 60.65 90.95 60.9
L 90.2 64.95
Q 89.75 65.25 89 65.25 87.85 65.25 87.85 64.05
L 88 62.95
Q 88.45 60.65 89.85 60.65
M 99.9 59.1
Q 99.35 58.9 98.45 58.9 95 58.9 94.4 63
L 94.3 64.1
Q 94.3 67.05 96.7 67.05 97.55 67.05 98.5 66.25
L 98.6 66.25 98.5 66.9 100.5 66.9 102.45 55.75
Q 101.6 55.75 100.4 55.9
L 99.9 59.1
M 98.45 60.65
Q 99.1 60.65 99.55 60.9
L 98.85 64.95
Q 98.25 65.25 97.55 65.25 96.45 65.25 96.45 64.05
L 96.55 62.95
Q 97 60.65 98.45 60.65
M 108.65 59.15
Q 107.8 58.9 106.6 58.9 104.95 58.9 104 59.75 103.1 60.45 103.1 61.65 103.1 63.05 104.6 63.65 106.05 64.25 106.05 64.5 106.05 65.2 105.2 65.2 103.85 65.2 103 64.6 102.5 65.4 102.35 66.5 103.35 67.05 104.8 67.05 106.3 67.05 107.25 66.3 108.15 65.55 108.15 64.35 108.15 63 106.65 62.35 105.25 61.7 105.25 61.35 105.25 60.65 106.15 60.65 107.25 60.65 108.25 60.95
L 108.65 59.15 Z"/>
</g>

<g id="flash0_ai_1_Layer_1__Clip_Group__0_0_Layer1_1_MEMBER_1_FILL">
<path fill="#505F68" stroke="none" d="
M 47.85 78.25
Q 48.2 76.85 48.2 76.2 48.2 73.5 45.35 73.5 42.1 73.5 41.5 77.55
L 41.35 78.6
Q 41.35 81.65 44.55 81.65 46.2 81.65 47.25 81.2 47.25 80.1 47.1 79.2 46.15 79.75 44.9 79.75 43.5 79.75 43.5 78.7
L 43.6 78.25 47.85 78.25
M 46.2 76
Q 46.2 76.5 46.05 76.85
L 43.8 76.85
Q 44.15 75.05 45.2 75.05 46.2 75.05 46.2 76
M 59.6 73.65
L 55.65 73.5
Q 54.2 73.5 53.35 74.35 52.45 75.15 52.45 76.6 52.45 77.7 53.05 78.15 52.05 79.55 51.85 79.85 51.95 80.35 52.3 81.05 51.15 81.7 51.15 82.7 51.15 84.75 54.25 84.75 58.25 84.75 58.25 81.9 58.25 79.8 55.85 79.8
L 54.15 79.8
Q 53.9 79.8 53.9 79.55 53.9 79.3 54.3 78.8 54.8 79 55.45 79 56.7 79 57.55 78.3 58.45 77.55 58.45 76.2 58.45 75.6 58.3 75.3
L 58.3 75.2 59.25 75.15
Q 59.45 74.5 59.6 73.65
M 55.3 77.45
Q 54.45 77.45 54.45 76.55 54.45 75.05 55.65 75.05 56.55 75.05 56.55 75.95 56.55 77.45 55.3 77.45
M 54.55 83.1
Q 53.15 83.1 53.15 82.25 53.15 81.95 53.35 81.6
L 55.85 81.6
Q 56.3 81.6 56.3 82.15 56.3 83.1 54.55 83.1
M 71.1 73.65
Q 69.6 73.65 69 73.75
L 67.65 81.5 69.7 81.5 70.65 75.75
Q 71.45 75.25 71.95 75.25 72.75 75.25 72.75 75.9
L 72.75 76.2 71.85 81.5 73.8 81.5 74.8 75.75
Q 75.4 75.25 76.05 75.25 76.9 75.25 76.9 75.95
L 76.9 76.2 76 81.5 78.05 81.5 79 75.4
Q 79 73.5 77.05 73.5 75.75 73.5 74.7 74.55 74.45 73.5 73.2 73.5 71.9 73.5 71 74.4
L 70.9 74.4 71.1 73.65
M 63.15 73.5
Q 61.95 73.5 61.1 73.75
L 61 74.85 61.05 75.65
Q 61.8 75.3 62.75 75.3 63.65 75.3 64.25 75.6
L 64 76.95 62.75 77
Q 61.2 77.05 60.5 77.45 59.65 77.95 59.4 79.1
L 59.4 79.65
Q 59.4 81.65 61.55 81.65 62.8 81.65 63.65 80.75
L 63.7 80.75
Q 64.05 81.65 65.2 81.65 66.4 81.65 66.65 80.25
L 66.8 79.65 66 79.65
Q 65.6 79.65 65.6 79.3
L 65.6 79 66.4 74.45
Q 65.3 73.5 63.15 73.5
M 62.15 80.1
Q 61.45 80.1 61.45 79.4
L 61.5 79.1
Q 61.6 78.4 62.5 78.35
L 63.8 78.3 63.5 79.7
Q 63 80.1 62.15 80.1
M 17.5 77.8
L 17.55 76.65
Q 17.55 73.5 14.35 73.5 10.95 73.5 10.25 77.4
L 10.2 78.6
Q 10.2 80.05 11.1 80.9 11.95 81.65 13.45 81.65 16.8 81.65 17.5 77.8
M 15.45 76.6
L 15.3 77.6
Q 14.9 79.9 13.55 79.9 12.4 79.9 12.4 78.6
L 12.45 77.6
Q 12.85 75.2 14.2 75.2 15.45 75.2 15.45 76.6
M 36.65 70.35
Q 35.8 70.35 34.55 70.5
L 32.65 81.5 34.65 81.5 35.65 75.75
Q 36.4 75.25 37.05 75.25 38.05 75.25 38.05 75.95
L 38.05 76.2 37.1 81.5 39.1 81.5 40.1 75.95 40.15 75.4
Q 40.15 73.5 38.15 73.5 36.85 73.5 36 74.4
L 35.85 74.4 36.65 70.35
M 28.5 72.05
L 28.2 73.65 27.35 73.65 27 75.45 27.95 75.45 27.3 78.85 27.25 79.55
Q 27.25 81.65 29.55 81.65 30.6 81.65 31.3 81.3
L 31.45 80.25 31.4 79.5
Q 30.8 79.75 30.2 79.75 29.35 79.75 29.35 79.15
L 29.35 79 29.95 75.45 31.9 75.45
Q 32.2 74.75 32.3 73.65
L 30.25 73.65 30.6 71.75
Q 29.7 71.75 28.5 72.05
M 23.85 72.25
Q 24.1 71.65 24.2 70.45 24.1 70.35 23.2 70.35 20.65 70.35 20.1 73.15
L 20.05 73.65 19.1 73.65 18.8 75.45 19.7 75.45 18.65 81.5 20.7 81.5 21.7 75.45 23.25 75.45 23.75 73.65 22.05 73.65 22.15 73
Q 22.25 72.15 23.05 72.15
L 23.85 72.25
M 90.1 80.35
Q 90.1 79.35 89.2 79.35 87.8 79.35 87.8 80.75 87.8 81.65 88.85 81.65 90.1 81.65 90.1 80.35
M 86.75 78.25
Q 87 77.05 87 76.2 87 73.5 84.3 73.5 81 73.5 80.35 77.55
L 80.25 78.6
Q 80.25 81.65 83.5 81.65 85.1 81.65 86.15 81.2 86.15 80.1 85.95 79.2 85.05 79.75 83.85 79.75 82.4 79.75 82.4 78.7
L 82.45 78.25 86.75 78.25
M 85.1 76
Q 85.1 76.5 84.9 76.85
L 82.7 76.85
Q 83.05 75.05 84.1 75.05 85.1 75.05 85.1 76 Z"/>
</g>

<g id="flash0_ai_1_Layer_1__Clip_Group__0_0_Layer0_0_FILL">
<path fill="#505F68" stroke="none" d="
M 24.75 69.4
Q 26.95 67.2 26.95 64.1 26.95 61 24.75 58.75 22.55 56.55 19.45 56.55 17.5 56.55 15.85 57.5
L 15.85 50.55 11.9 50.55 11.9 64.1
Q 11.9 67.2 14.1 69.4 16.35 71.6 19.45 71.6 22.55 71.6 24.75 69.4
M 23.4 64.1
Q 23.4 65.7 22.25 66.9 21.05 68.05 19.45 68.05 17.8 68.05 16.65 66.9 15.45 65.7 15.45 64.1 15.45 62.45 16.65 61.3 17.8 60.1 19.45 60.1 21.05 60.1 22.25 61.3 23.4 62.45 23.4 64.1 Z"/>
</g>

<g id="flash0_ai_1_Layer_1__Clip_Group__0_0_Layer0_1_FILL">
<path fill="#505F68" stroke="none" d="
M 42.8 50.55
L 42.8 67.65
Q 42.8 69.3 43.95 70.45 45.1 71.6 46.7 71.6
L 46.7 50.55 42.8 50.55 Z"/>
</g>

<g id="flash0_ai_1_Layer_1__Clip_Group__0_0_Layer0_2_FILL">
<path fill="#C62E40" stroke="none" d="
M 21.9 64.1
Q 21.9 63.1 21.2 62.35 20.45 61.65 19.45 61.65 18.45 61.65 17.7 62.35 17 63.1 17 64.1 17 65.1 17.7 65.85 18.45 66.55 19.45 66.55 20.45 66.55 21.2 65.85 21.9 65.1 21.9 64.1 Z"/>
</g>

<g id="flash0_ai_1_Layer_1__Clip_Group__0_0_Layer0_3_FILL">
<path fill="#F47C36" stroke="none" d="
M 37.7 64.1
Q 37.7 63.1 37 62.35 36.25 61.65 35.25 61.65 34.25 61.65 33.5 62.35 32.8 63.1 32.8 64.1 32.8 65.1 33.5 65.85 34.25 66.55 35.25 66.55 36.25 66.55 37 65.85 37.7 65.1 37.7 64.1 Z"/>
</g>

<g id="flash0_ai_1_Layer_1__Clip_Group__0_0_Layer0_4_FILL">
<path fill="#91C84B" stroke="none" d="
M 57.4 64.1
Q 57.4 63.1 56.7 62.35 56 61.65 55 61.65 53.95 61.65 53.25 62.35 52.55 63.1 52.55 64.1 52.55 65.1 53.25 65.85 53.95 66.55 55 66.55 56 66.55 56.7 65.85 57.4 65.1 57.4 64.1 Z"/>
</g>

<g id="bclc_bar_assets_bclc_bar_font_c_0_Layer0_0_FILL">
<path fill="#505F68" stroke="none" d="
M 39.15 57.65
Q 37.35 56.55 35.25 56.55 32.15 56.55 29.95 58.75 27.75 61 27.75 64.1 27.75 67.2 29.95 69.4 32.15 71.6 35.25 71.6 37.45 71.6 39.25 70.45 41.05 69.3 41.95 67.45
L 38.9 65.7
Q 38.4 66.75 37.45 67.4 36.4 68.05 35.25 68.05 33.6 68.05 32.45 66.9 31.3 65.7 31.3 64.1 31.3 62.45 32.45 61.3 33.6 60.1 35.25 60.1 36.4 60.1 37.35 60.7 38.3 61.3 38.8 62.3
L 41.85 60.5
Q 40.9 58.7 39.15 57.65 Z"/>
</g>

<g id="flash0_ai_1_Layer_1__Clip_Group__0_0_Layer0_7_FILL">
<path fill="#505F68" stroke="none" d="
M 244.65 67.75
Q 245.1 66.65 245.3 65.1
L 242.95 65.1 244.45 56.55 241.9 56.55 238.5 57.25
Q 238.3 58.05 238.3 58.7
L 238.4 59.6 241.35 59.25 240.3 65.1 237 65.1 236.55 67.75 244.65 67.75 Z"/>
</g>

<g id="flash0_ai_1_Layer_1__Clip_Group__0_0_Layer0_8_FILL">
<path fill="#505F68" stroke="none" d="
M 251.35 56.35
Q 249.15 56.35 247.85 57.95 246.6 59.5 246.6 62.15 246.6 63.8 247.45 64.7 248.25 65.55 249.55 65.55 250.8 65.55 251.75 64.6
L 251.9 64.6
Q 251.5 66.55 250.7 67.35 250 67.95 248.85 67.95 247.5 67.95 246.65 67.7 246.15 68.9 246.15 70.25 247.1 70.6 248.7 70.6 253.95 70.6 255 62.9
L 255.15 60.75
Q 255.15 56.35 251.35 56.35
M 251.25 58.75
Q 252.55 58.75 252.55 60.4 252.55 63.3 250.8 63.3 249.3 63.3 249.3 61.8 249.3 58.75 251.25 58.75 Z"/>
</g>

<g id="flash0_ai_1_Layer_1__Clip_Group__0_0_Layer0_9_FILL">
<path fill="#505F68" stroke="none" d="
M 264.75 63.15
L 265.1 61.15 261.9 61.15 262.55 57.5 260.55 57.5 259.9 61.15 256.65 61.15 256.3 63.15 259.55 63.15 258.9 66.85 260.9 66.85 261.55 63.15 264.75 63.15 Z"/>
</g>

<g id="t2_dollar_0_Layer0_0_FILL">
<path fill="#FFFFFF" stroke="none" d="
M -15.75 13.15
L -15.75 7.8 -21.2 7.8 -21.2 13.15
Q -23.85 13.55 -25.95 14.85 -28.05 16.1 -29.25 18.1 -30.5 20.1 -30.5 22.8 -30.5 25.95 -29.25 27.85 -28.05 29.75 -25.5 31 -23 32.25 -19.1 33.35 -16.1 34.2 -14.3 35.05 -12.5 35.85 -11.75 36.85 -11 37.85 -11 39.25 -11 41.7 -12.8 42.95 -14.6 44.2 -18.5 44.2 -21.05 44.2 -23.4 43.15 -25.7 42.15 -27.7 40
L -31.85 43.55
Q -30.05 45.85 -27.25 47.35 -24.45 48.85 -21.2 49.3
L -21.2 54.6 -15.75 54.6 -15.75 49.3
Q -10.6 48.6 -8 45.9 -5.45 43.2 -5.45 38.7 -5.45 35.45 -6.85 33.45 -8.2 31.45 -10.8 30.25 -13.4 29 -17.1 27.9 -20.25 27 -21.95 26.2 -23.7 25.4 -24.3 24.5 -25 23.6 -24.95 22.35 -24.95 20.5 -23.5 19.35 -22.05 18.2 -18.9 18.2 -16.15 18.2 -14.2 19.15 -12.25 20.1 -10.4 21.8
L -6.55 17.95
Q -8.5 16 -10.75 14.8 -13 13.6 -15.75 13.15 Z"/>
</g>

<g id="t2_million_0_Layer0_0_FILL">
<path fill="#FFFFFF" stroke="none" d="
M -45.8 22.55
Q -45.85 23.05 -45.85 24.1 -45.9 25.1 -45.9 26.3 -45.95 27.5 -45.95 28.55
L -45.95 46.7 -40.9 46.7 -40.9 12.4 -46.35 12.4 -53.9 30.65
Q -54.55 32.2 -55.2 33.85 -55.8 35.45 -56.2 36.55 -56.55 35.45 -57.25 33.85 -57.9 32.2 -58.55 30.65
L -66.25 12.4 -71.55 12.4 -71.55 46.7 -66.7 46.7 -66.7 28.55
Q -66.7 27.5 -66.7 26.3 -66.7 25.1 -66.75 24.1 -66.75 23.05 -66.8 22.55 -66.55 23.05 -66.25 23.95 -65.9 24.85 -65.45 25.9 -65 26.95 -64.6 27.95
L -56.35 47.25 -48.05 27.95
Q -47.6 26.95 -47.15 25.9 -46.75 24.85 -46.4 23.95 -46 23.05 -45.8 22.55
M -24.45 46.7
L -19.4 46.7 -19.4 11 -24.45 13.65 -24.45 46.7
M -29.9 21
L -34.95 21 -34.95 46.7 -29.9 46.7 -29.9 21
M -32.4 11.1
Q -33.8 11.15 -34.7 12.1 -35.6 13 -35.65 14.4 -35.6 15.75 -34.7 16.7 -33.8 17.6 -32.4 17.65 -31.05 17.6 -30.1 16.7 -29.2 15.75 -29.15 14.4 -29.2 13 -30.1 12.1 -31.05 11.15 -32.4 11.1
M -8.9 11
L -13.95 13.65 -13.95 46.7 -8.9 46.7 -8.9 11
M 1.6 46.7
L 1.6 21 -3.45 21 -3.45 46.7 1.6 46.7
M 17.05 20.45
Q 13.8 20.45 11.2 22.05 8.65 23.65 7.15 26.65 5.65 29.65 5.6 33.85 5.65 37.9 7.1 40.9 8.55 43.9 11.1 45.55 13.65 47.25 16.95 47.25 20.25 47.25 22.85 45.6 25.45 44 27 41 28.5 38 28.55 33.7 28.5 29.65 27.05 26.7 25.55 23.75 22.95 22.1 20.35 20.45 17.05 20.45
M 12.35 27.55
Q 14 25.3 16.85 25.25 19.95 25.3 21.65 27.6 23.4 29.9 23.45 33.85 23.4 36.25 22.65 38.2 21.85 40.1 20.45 41.21 19.05 42.4 17.1 42.45 14.2 42.4 12.5 40.2 10.75 37.95 10.7 33.7 10.75 29.85 12.35 27.55
M 1.4 16.7
Q 2.3 15.75 2.35 14.4 2.3 13 1.4 12.1 0.45 11.15 -0.9 11.1 -2.3 11.15 -3.2 12.1 -4.1 13 -4.15 14.4 -4.1 15.75 -3.2 16.7 -2.3 17.6 -0.9 17.65 0.45 17.6 1.4 16.7
M 61.7 38.25
L 61.7 45.05 72.9 45.05 72.9 38 71.75 38 71.75 43.8 67.5 43.8 67.5 40.6 66.35 40.6 66.35 43.8 62.85 43.8 62.85 38.25 61.7 38.25
M 72.65 30.45
Q 72.25 29.65 71.55 29.2 70.85 28.75 69.95 28.75 69.15 28.75 68.55 29.05 67.95 29.35 67.45 30.05 67 30.75 66.55 32 66.15 33.1 65.8 33.7 65.5 34.25 65.1 34.45 64.75 34.65 64.3 34.65 63.85 34.65 63.5 34.45 63.1 34.2 62.9 33.75 62.65 33.25 62.65 32.5 62.65 31.65 62.9 31 63.2 30.4 63.7 29.8
L 62.7 29
Q 62.15 29.7 61.85 30.5 61.55 31.3 61.5 32.4 61.5 33.45 61.85 34.25 62.2 35 62.85 35.45 63.5 35.9 64.4 35.9 65.2 35.9 65.75 35.6 66.35 35.3 66.8 34.6 67.25 33.85 67.65 32.65 68 31.65 68.35 31.05 68.7 30.5 69.1 30.25 69.5 30 70.05 30 70.9 30 71.45 30.65 71.95 31.3 71.95 32.4 71.95 33.3 71.6 34 71.2 34.75 70.6 35.4
L 71.55 36.25
Q 72.2 35.55 72.65 34.6 73.05 33.6 73.1 32.45 73.05 31.3 72.65 30.45
M 50.6 23.35
Q 48.3 20.45 43.8 20.45 41.75 20.45 40.05 21.25 38.3 22 37.35 23.4
L 37.35 21 32.3 21 32.3 46.7 37.35 46.7 37.35 31.65
Q 37.35 28.5 38.7 26.8 40.05 25.1 42.6 25.1 45.15 25.05 46.5 26.65 47.9 28.3 47.9 32.15
L 47.9 46.7 52.95 46.7 52.95 31.95
Q 52.95 26.25 50.6 23.35
M 71.3 17.05
Q 71.65 17.35 72.05 17.35 72.5 17.35 72.8 17.05 73.05 16.75 73.1 16.35 73.05 15.9 72.8 15.6 72.5 15.3 72.05 15.3 71.65 15.3 71.3 15.6 71 15.9 71 16.35 71 16.75 71.3 17.05
M 62.85 22.3
L 62.85 19.05 61.7 19.05 61.7 26.85 62.85 26.85 62.85 23.55 72.9 23.55 72.9 22.3 62.85 22.3 Z"/>
</g>

<path id="flash0_ai_1_Layer_1__Clip_Group__0_0_Layer1_0_1_STROKES" stroke="#505F68" stroke-width="1" stroke-linejoin="round" stroke-linecap="round" fill="none" d="
M 10.95 91.6
L 147.95 91.6"/>
</defs>

<g transform="matrix( 1, 0, 0, 1.000396728515625, 0.65,422.8) ">
<g transform="matrix( 1, 0, 0, 1, 0,0) ">
<use xlink:href="#flash0_ai_1_Layer_1__Clip_Group__0_0_Layer2_0_FILL"/>
</g>

<g transform="matrix( 1.0999755859375, 0, 0, 1.0999755859375, 37.45,160.4) ">
<g transform="matrix( 1, 0, 0, 1, 0,0) ">
<use xlink:href="#bclc_bar_assets_bclc_bar_font_e_0_Layer0_0_FILL"/>
</g>
</g>

<g transform="matrix( 1.0999755859375, 0, 0, 1.0999755859375, 53.15,160.4) ">
<g transform="matrix( 1, 0, 0, 1, 0,0) ">
<use filter="url(#Filter_1)" xlink:href="#bclc_bar_assets_bclc_bar_font_e_0_Layer0_0_FILL"/>
</g>
</g>

<g transform="matrix( 1.0999755859375, 0, 0, 1.0999755859375, 74.3,160.4) ">
<g transform="matrix( 1, 0, 0, 1, 0,0) ">
<use filter="url(#Filter_1)" xlink:href="#bclc_bar_assets_bclc_bar_font_e_0_Layer0_0_FILL"/>
</g>
</g>

<g transform="matrix( 1, 0, 0, 1, 0,0) ">
<use xlink:href="#flash0_ai_1_Layer_1__Clip_Group__0_0_Layer1_0_1_STROKES"/>
</g>

<g transform="matrix( 1, 0, 0, 1, 0,0) ">
<use xlink:href="#flash0_ai_1_Layer_1__Clip_Group__0_0_Layer1_1_MEMBER_0_FILL"/>
</g>

<g transform="matrix( 1, 0, 0, 1, 0,0) ">
<use xlink:href="#flash0_ai_1_Layer_1__Clip_Group__0_0_Layer1_1_MEMBER_1_FILL"/>
</g>

<g transform="matrix( 0.899993896484375, 0, 0, 0.899993896484375, -0.7,55.1) ">
<use xlink:href="#flash0_ai_1_Layer_1__Clip_Group__0_0_Layer0_0_FILL"/>
</g>

<g transform="matrix( 0.899993896484375, 0, 0, 0.899993896484375, -0.7,55.1) ">
<use xlink:href="#flash0_ai_1_Layer_1__Clip_Group__0_0_Layer0_1_FILL"/>
</g>

<g transform="matrix( 0.899993896484375, 0, 0, 0.899993896484375, -0.7,55.1) ">
<use xlink:href="#flash0_ai_1_Layer_1__Clip_Group__0_0_Layer0_2_FILL"/>
</g>

<g transform="matrix( 0.899993896484375, 0, 0, 0.899993896484375, -0.7,55.1) ">
<use xlink:href="#flash0_ai_1_Layer_1__Clip_Group__0_0_Layer0_3_FILL"/>
</g>

<g transform="matrix( 0.899993896484375, 0, 0, 0.899993896484375, -0.7,55.1) ">
<use xlink:href="#flash0_ai_1_Layer_1__Clip_Group__0_0_Layer0_4_FILL"/>
</g>

<g transform="matrix( 0.899993896484375, 0, 0, 0.899993896484375, 24.25,106) ">
<g transform="matrix( 1, 0, 0, 1, -27.75,-56.55) ">
<use xlink:href="#bclc_bar_assets_bclc_bar_font_c_0_Layer0_0_FILL"/>
</g>
</g>

<g transform="matrix( 0.899993896484375, 0, 0, 0.899993896484375, 42.05,106) ">
<g transform="matrix( 1, 0, 0, 1, -27.75,-56.55) ">
<use xlink:href="#bclc_bar_assets_bclc_bar_font_c_0_Layer0_0_FILL"/>
</g>
</g>

<g transform="matrix( 0.899993896484375, 0, 0, 0.899993896484375, -88.9,56.2) ">
<use xlink:href="#flash0_ai_1_Layer_1__Clip_Group__0_0_Layer0_7_FILL"/>
</g>

<g transform="matrix( 0.899993896484375, 0, 0, 0.899993896484375, -88.9,56.2) ">
<use xlink:href="#flash0_ai_1_Layer_1__Clip_Group__0_0_Layer0_8_FILL"/>
</g>

<g transform="matrix( 0.899993896484375, 0, 0, 0.899993896484375, -88.9,56.2) ">
<use xlink:href="#flash0_ai_1_Layer_1__Clip_Group__0_0_Layer0_9_FILL"/>
</g>
</g>

<g transform="matrix( 1, 0, 0, 1, 42.5,93.95) ">
<g transform="matrix( 1, 0, 0, 1, 0,0) ">
<use xlink:href="#t2_dollar_0_Layer0_0_FILL"/>
</g>
</g>

<g transform="matrix( 1, 0, 0, 1, 80.2,153.95) ">
<g transform="matrix( 1, 0, 0, 1, 0,0) ">
<use xlink:href="#t2_million_0_Layer0_0_FILL"/>
</g>
</g>
</svg>
