<?xml version="1.0" encoding="utf-8"?>
<!-- Generator: Adobe Illustrator 19.2.1, SVG Export Plug-In . SVG Version: 6.00 Build 0)  -->
<svg version="1.1" id="Layer_1" xmlns="http://www.w3.org/2000/svg" xmlns:xlink="http://www.w3.org/1999/xlink" x="0px" y="0px"
	 viewBox="0 0 300 250" style="enable-background:new 0 0 300 250;" xml:space="preserve">
<style type="text/css">
	.st0{fill:#FFFFFF;}
</style>
<g transform="matrix( 1, 0, 0, 1, 0,0) ">
	<g>
		<g id="Layer1_0_FILL">
			<path class="st0" d="M142.1,168.4v-2h-2.8v-4.3l-2.2,1.1v3.2h-1.6v2h1.6v6.4c0,1,0.2,1.7,0.7,2.3c0.4,0.5,1.1,0.7,1.9,0.7
				c0.4,0,0.8,0,1.2-0.1c0.3-0.1,0.6-0.3,0.9-0.4l0.3-2c-0.2,0.1-0.5,0.2-0.8,0.4c-0.3,0.1-0.6,0.1-0.9,0.1c-0.4,0-0.6-0.1-0.8-0.3
				c-0.2-0.2-0.3-0.5-0.3-1v-6.1H142.1 M146.6,166.9c-0.7,0.4-1.3,1.1-1.8,2c-0.4,0.8-0.7,1.9-0.7,3.1c0,1.2,0.2,2.2,0.7,3.1
				c0.4,0.9,1,1.5,1.7,2c0.8,0.5,1.6,0.7,2.6,0.7c1,0,1.8-0.2,2.6-0.7c0.8-0.4,1.4-1.1,1.8-2c0.4-0.9,0.7-1.9,0.7-3.1
				c0-1.2-0.2-2.2-0.7-3.1c-0.4-0.9-1-1.5-1.8-2c-0.8-0.5-1.6-0.8-2.6-0.8C148.2,166.2,147.3,166.4,146.6,166.9 M146.4,172
				c0-1.1,0.3-2,0.7-2.6c0.5-0.7,1.2-1.1,2-1.1c0.9,0,1.6,0.4,2.1,1.1c0.5,0.6,0.8,1.5,0.8,2.7c0,0.7-0.1,1.3-0.4,1.9
				c-0.2,0.6-0.5,1-0.9,1.3c-0.4,0.3-0.9,0.5-1.5,0.5c-0.8,0-1.5-0.3-2-0.9C146.6,174.1,146.4,173.2,146.4,172 M88.7,168.9
				c-0.5,0.8-0.7,1.9-0.7,3.1c0,1.2,0.2,2.2,0.7,3.1c0.4,0.9,0.9,1.5,1.7,2c0.8,0.5,1.6,0.7,2.5,0.7c1,0,1.8-0.2,2.6-0.7
				c0.8-0.4,1.4-1.1,1.8-2c0.5-0.9,0.7-1.9,0.7-3.1c0-1.2-0.2-2.2-0.7-3.1c-0.4-0.9-1-1.5-1.8-2c-0.8-0.5-1.6-0.8-2.6-0.8
				c-0.9,0-1.7,0.3-2.5,0.8C89.7,167.4,89.1,168.1,88.7,168.9 M90.2,172c0-1.1,0.3-2,0.7-2.6c0.5-0.7,1.2-1.1,2-1.1
				c0.9,0,1.6,0.4,2.1,1.1c0.5,0.6,0.7,1.5,0.8,2.7c0,0.7-0.1,1.3-0.3,1.9c-0.2,0.6-0.5,1-0.9,1.3c-0.5,0.3-0.9,0.5-1.4,0.5
				c-0.9,0-1.6-0.3-2.1-0.9C90.4,174.1,90.2,173.2,90.2,172 M120.8,166.9c-0.7,0.5-1.3,1.1-1.8,2c-0.4,0.9-0.6,1.9-0.6,3.2
				c0,1.2,0.2,2.3,0.7,3.1c0.4,0.9,1,1.5,1.8,2c0.7,0.4,1.5,0.7,2.4,0.7c0.8,0,1.5-0.1,2.2-0.4c0.7-0.3,1.2-0.6,1.7-1.1l-1.3-1.4
				c-0.4,0.3-0.8,0.5-1.2,0.7c-0.4,0.2-0.8,0.2-1.3,0.3c-0.7,0-1.3-0.3-1.8-0.8c-0.5-0.5-0.9-1.2-1-2.3h7.4c0-0.1,0-0.3,0-0.4
				c0-0.1,0.1-0.3,0.1-0.5c0-1.1-0.2-2-0.5-2.8c-0.3-0.8-0.9-1.5-1.6-2.1c-0.7-0.5-1.5-0.8-2.6-0.8
				C122.3,166.2,121.5,166.4,120.8,166.9 M120.6,171.1c0.1-0.9,0.4-1.6,0.8-2.1c0.4-0.5,1-0.8,1.8-0.8c0.6,0,1.1,0.1,1.5,0.4
				c0.4,0.3,0.6,0.6,0.8,1.1c0.2,0.4,0.3,0.9,0.3,1.4H120.6 M105.5,166.2c-0.6,0-1.1,0.1-1.6,0.4c-0.4,0.3-0.8,0.6-1.1,1v-1.1h-2.2
				v11.2h2.2v-6.5c0-0.9,0.2-1.6,0.5-2.1c0.3-0.5,0.9-0.8,1.6-0.8c0.8,0,1.3,0.2,1.6,0.7c0.4,0.5,0.5,1.3,0.5,2.4v6.3h2.2v-6.5
				c0-0.9,0.2-1.6,0.5-2.1c0.4-0.5,0.9-0.8,1.6-0.8c0.7,0,1.3,0.2,1.7,0.7c0.3,0.5,0.5,1.3,0.5,2.4v6.3h2.2v-6.4
				c0-1.6-0.3-2.9-1-3.7c-0.6-0.9-1.6-1.3-2.9-1.3c-0.8,0-1.5,0.2-2,0.5c-0.5,0.3-1,0.7-1.3,1.2c-0.3-0.5-0.7-0.9-1.2-1.2
				C106.9,166.3,106.3,166.2,105.5,166.2 M48,173.2c-0.1-0.4-0.2-0.9-0.3-1.3l-1.3-5.4h-2.2l3.1,11.2h1.8l1.5-5.6
				c0.1-0.4,0.3-0.9,0.4-1.3c0.1-0.5,0.2-0.8,0.2-1.1c0.1,0.3,0.1,0.6,0.3,1.1c0.1,0.4,0.2,0.9,0.3,1.3l1.5,5.6h1.8l3.2-11.2H56
				l-1.3,5.4c-0.1,0.4-0.2,0.9-0.3,1.3c-0.1,0.5-0.2,0.9-0.3,1.2c-0.1-0.3-0.2-0.7-0.3-1.2c-0.1-0.4-0.3-0.9-0.4-1.3l-1.5-5.4h-1.8
				l-1.5,5.4c-0.1,0.4-0.2,0.9-0.3,1.3c-0.1,0.5-0.2,0.9-0.3,1.2C48.2,174.1,48.1,173.7,48,173.2 M74.4,162.1l-2.2,1.1v14.4h2.2
				V162.1 M79.3,172c0-1.2,0.3-2.1,0.7-2.7c0.5-0.7,1.2-1,1.9-1c0.5,0,0.9,0.1,1.3,0.3c0.5,0.2,0.9,0.6,1.3,1l1.3-1.5
				c-0.5-0.6-1.1-1.1-1.8-1.4c-0.6-0.3-1.3-0.5-2.1-0.5c-0.9,0-1.8,0.3-2.5,0.8c-0.7,0.4-1.3,1.1-1.8,2c-0.4,0.8-0.7,1.9-0.7,3.1
				c0,1.2,0.2,2.2,0.7,3.1c0.4,0.8,1,1.5,1.7,2c0.7,0.5,1.6,0.7,2.5,0.7c0.6,0,1.2-0.1,1.8-0.3c0.5-0.2,0.9-0.5,1.3-0.8
				c0.4-0.3,0.7-0.6,0.9-1.1l-1.3-1.3c-0.5,0.4-0.9,0.8-1.3,1c-0.4,0.2-0.8,0.3-1.3,0.3c-0.6,0-1.1-0.2-1.5-0.5
				c-0.4-0.3-0.7-0.7-0.9-1.3C79.5,173.4,79.3,172.7,79.3,172 M64.7,166.2c-1,0-1.8,0.2-2.5,0.7c-0.7,0.5-1.3,1.1-1.8,2
				c-0.4,0.9-0.6,1.9-0.6,3.2c0,1.2,0.2,2.3,0.7,3.1c0.4,0.9,1,1.5,1.8,2c0.7,0.4,1.5,0.7,2.4,0.7c0.8,0,1.6-0.1,2.2-0.4
				c0.7-0.3,1.2-0.6,1.7-1.1l-1.3-1.4c-0.4,0.3-0.7,0.5-1.1,0.7c-0.4,0.2-0.8,0.2-1.3,0.3c-0.7,0-1.3-0.3-1.8-0.8
				c-0.5-0.5-0.9-1.2-1-2.3h7.4c0-0.1,0-0.3,0-0.4c0-0.1,0.1-0.3,0.1-0.5c0-1.1-0.2-2-0.6-2.8c-0.3-0.8-0.8-1.5-1.5-2.1
				C66.6,166.5,65.8,166.2,64.7,166.2 M62,171.1c0.1-0.9,0.4-1.6,0.8-2.1c0.5-0.5,1-0.8,1.8-0.8c0.6,0,1.2,0.1,1.6,0.4
				c0.4,0.3,0.7,0.6,0.8,1.1c0.1,0.4,0.2,0.9,0.3,1.4H62 M138,188.4c-0.9,0.4-1.6,0.9-2.1,1.6c-0.5,0.8-0.7,1.7-0.8,2.8
				c0.1,1,0.3,1.9,0.8,2.6c0.4,0.7,1,1.2,1.8,1.5c0.8,0.4,1.6,0.5,2.5,0.5c0.9,0,1.6-0.1,2.2-0.3c0.6-0.2,1.2-0.5,1.7-1
				c-0.5,1.6-1.3,2.8-2.4,3.6c-1.2,0.8-2.6,1.2-4.3,1.3v2.1c1.7-0.1,3.2-0.4,4.4-1c1.2-0.6,2.2-1.4,2.9-2.3c0.7-1,1.2-2,1.5-3
				c0.3-1.1,0.5-2.1,0.5-3.1c0-1.4-0.3-2.5-0.8-3.4c-0.5-0.8-1.1-1.4-2-1.9c-0.8-0.5-1.8-0.7-2.8-0.6C140,187.8,139,188,138,188.4
				 M138.4,194.7c-0.6-0.4-0.9-1.1-0.9-2c0-0.8,0.3-1.5,0.9-2c0.6-0.5,1.5-0.7,2.6-0.7c0.7,0,1.4,0.1,1.9,0.4c0.5,0.2,0.9,0.6,1.1,1
				c0.2,0.4,0.4,0.9,0.4,1.3c0,0.9-0.3,1.5-1,2c-0.6,0.4-1.4,0.6-2.5,0.6S138.9,195.1,138.4,194.7 M99.8,187.4l-2.2,1.1v4.3
				c-0.3-0.3-0.7-0.6-1.2-0.9c-0.5-0.3-1-0.4-1.6-0.4c-0.8,0-1.5,0.2-2.1,0.6c-0.7,0.5-1.3,1.1-1.7,1.9c-0.4,0.8-0.6,1.9-0.6,3.2
				c0,1.4,0.2,2.6,0.6,3.5c0.4,0.9,0.9,1.5,1.6,1.9c0.6,0.4,1.4,0.6,2.2,0.6c0.6,0,1.1-0.1,1.5-0.4c0.5-0.2,0.9-0.6,1.4-0.9v1.1h2.2
				V187.4 M92.7,197.2c0-1.2,0.2-2.1,0.6-2.7c0.4-0.6,1-0.9,1.8-0.9c0.4,0,0.7,0.1,1.1,0.3c0.3,0.1,0.6,0.3,0.9,0.6
				c0.2,0.2,0.4,0.4,0.6,0.6v4.8c-0.3,0.3-0.6,0.6-1.1,0.9c-0.4,0.3-0.9,0.4-1.4,0.4c-0.8,0.1-1.4-0.3-1.9-0.9
				C92.9,199.5,92.7,198.5,92.7,197.2 M129.3,188.1l-7.7,9.5v2.1h8v3.3h2.2v-3.3h1.9v-2h-1.9v-9.6H129.3 M129.8,191.4
				c-0.1,0.3-0.1,0.6-0.1,0.9c0,0.4,0,0.7,0,0.9v4.4h-3.1c-0.3,0-0.6,0-0.8,0c-0.3,0-0.6,0-0.9,0c-0.3,0-0.5,0-0.7,0
				c0.2-0.2,0.4-0.4,0.7-0.7c0.2-0.3,0.5-0.6,0.7-0.9l2.9-3.7c0.2-0.3,0.5-0.7,0.8-0.9c0.2-0.3,0.4-0.6,0.6-0.8
				C129.8,190.8,129.8,191,129.8,191.4 M117.6,189.9v-2.1c-1.8,0.1-3.2,0.4-4.4,1c-1.2,0.6-2.2,1.4-2.9,2.4c-0.7,0.9-1.2,1.9-1.5,3
				c-0.3,1.1-0.5,2.1-0.5,3.1c0,1.4,0.3,2.5,0.8,3.4c0.5,0.9,1.1,1.5,1.9,1.9c0.9,0.4,1.8,0.6,2.9,0.6c1.1,0,2.1-0.2,2.9-0.5
				c0.9-0.4,1.6-1,2.1-1.7c0.5-0.7,0.8-1.6,0.8-2.8c0-1-0.2-1.9-0.7-2.6c-0.4-0.7-1-1.2-1.8-1.6c-0.8-0.3-1.6-0.5-2.5-0.5
				c-0.9,0-1.6,0.1-2.3,0.3c-0.6,0.2-1.1,0.5-1.6,0.9c0.5-1.6,1.3-2.8,2.4-3.6S115.9,190,117.6,189.9 M111.6,196.4
				c0.6-0.4,1.5-0.7,2.6-0.7s1.9,0.2,2.4,0.6c0.6,0.4,0.9,1.1,0.9,2c0,0.8-0.3,1.5-0.9,1.9c-0.6,0.5-1.5,0.8-2.6,0.8
				c-0.7,0-1.3-0.1-1.9-0.3c-0.5-0.3-0.8-0.7-1.1-1.1c-0.2-0.4-0.4-0.8-0.4-1.3C110.7,197.4,111,196.8,111.6,196.4 M63.4,187.4
				l-2.2,1.1v14.4h2.2V187.4 M54.3,191.5c-0.9,0-1.8,0.3-2.5,0.8c-0.7,0.4-1.3,1.1-1.8,2c-0.4,0.8-0.6,1.9-0.6,3.1
				c0,1.2,0.2,2.2,0.6,3.1c0.4,0.8,1,1.5,1.7,2c0.7,0.5,1.6,0.7,2.5,0.7c0.7,0,1.3-0.1,1.8-0.3c0.5-0.2,0.9-0.5,1.3-0.8
				c0.4-0.3,0.7-0.6,1-1.1l-1.4-1.3c-0.4,0.4-0.8,0.8-1.2,1c-0.4,0.2-0.8,0.3-1.3,0.3c-0.6,0-1.1-0.2-1.6-0.5
				c-0.3-0.3-0.6-0.7-0.8-1.3c-0.2-0.6-0.4-1.2-0.4-1.9c0-1.2,0.3-2.1,0.8-2.7c0.5-0.7,1.1-1,1.9-1c0.5,0,1,0.1,1.4,0.3
				c0.4,0.2,0.9,0.6,1.4,1l1.3-1.5c-0.5-0.6-1.1-1.1-1.8-1.4C55.9,191.7,55.2,191.5,54.3,191.5 M78.7,191.8v6.4c0,1.7,0.3,2.9,1,3.8
				c0.7,0.8,1.7,1.3,2.9,1.3c0.6,0,1.1-0.1,1.6-0.4c0.5-0.2,0.9-0.5,1.2-0.9v1.1h2.2v-11.2h-2.2v6.6c0,0.9-0.2,1.6-0.6,2.1
				c-0.4,0.5-1,0.7-1.7,0.7c-0.8,0.1-1.3-0.2-1.7-0.7c-0.4-0.5-0.6-1.2-0.6-2.3v-6.4H78.7 M75.4,194.3c-0.4-0.9-1-1.5-1.8-2
				c-0.8-0.5-1.6-0.8-2.6-0.8c-0.9,0-1.7,0.3-2.5,0.8c-0.7,0.4-1.3,1.1-1.8,2c-0.5,0.8-0.7,1.9-0.7,3.1c0,1.2,0.2,2.2,0.7,3.1
				c0.4,0.9,0.9,1.5,1.7,2c0.8,0.5,1.6,0.7,2.6,0.7c1,0,1.8-0.2,2.6-0.7c0.8-0.4,1.4-1.1,1.8-2c0.5-0.9,0.7-1.9,0.7-3.1
				C76.1,196.1,75.9,195.1,75.4,194.3 M71,193.6c0.9,0,1.6,0.4,2.1,1.1c0.5,0.6,0.8,1.5,0.8,2.7c0,0.7-0.1,1.3-0.3,1.9
				c-0.2,0.6-0.5,1-0.9,1.3c-0.5,0.3-0.9,0.5-1.4,0.5c-0.9,0-1.6-0.3-2.1-0.9c-0.5-0.7-0.7-1.6-0.8-2.8c0-1.1,0.3-2,0.7-2.6
				C69.5,194,70.2,193.6,71,193.6z"/>
		</g>
	</g>
</g>
</svg>
