
<svg xmlns="http://www.w3.org/2000/svg" version="1.1" xmlns:xlink="http://www.w3.org/1999/xlink" preserveAspectRatio="none" x="0px" y="0px" width="300px" height="250px" viewBox="0 0 300 250">
<defs>
<g id="Layer1_0_FILL">
<path fill="#505F68" stroke="none" d="
M 189.15 227.5
L 189.05 227.5 188.65 223.1
Q 188.05 223.1 187.1 223.2 187.25 226.4 188.05 229.3
L 187.75 229.75
Q 187.4 230.3 186.9 230.3 186.25 230.3 185.9 230.2
L 185.45 231.6
Q 185.85 231.9 186.65 231.9 187.55 231.9 188.2 231.35 189 230.75 189.75 229.2
L 192.8 223.2
Q 191.9 223.1 191.25 223.1
L 189.15 227.5
M 166.95 228.6
L 167.05 228 165.6 228 165.5 228.35
Q 165.4 229 165 229.55 164.65 230.1 163.75 230.95
L 165.15 231.35
Q 166.7 229.95 166.95 228.6
M 172.95 223.65
L 173.05 223.1
Q 172.4 223.1 171.45 223.2
L 169.95 231.75 171.55 231.75 172 229.3
Q 172.45 229.4 173.05 229.4 175.85 229.4 176.25 226.25 176.35 225.85 176.35 225.4 176.35 223 174.45 223 173.7 223 173.05 223.65
L 172.95 223.65
M 173.75 224.4
Q 174.6 224.4 174.6 225.45
L 174.55 226.25
Q 174.25 228.05 173.05 228.05 172.5 228.05 172.2 227.85
L 172.8 224.65
Q 173.15 224.4 173.75 224.4
M 181.45 223.2
L 181.35 224.1 181.4 224.7
Q 182 224.45 182.8 224.45 183.55 224.45 183.95 224.65
L 183.8 225.75 182.8 225.8
Q 181.6 225.8 181 226.1 180.35 226.5 180.15 227.4
L 180.1 227.85
Q 180.1 229.4 181.85 229.4 182.8 229.4 183.55 228.7 183.85 229.4 184.7 229.4 185.65 229.4 185.8 228.35
L 185.95 227.8 185.35 227.8
Q 185 227.8 185 227.55
L 185 227.4 185.65 223.75
Q 184.7 223 183.05 223 182.15 223 181.45 223.2
M 181.75 227.7
L 181.75 227.45
Q 181.9 226.8 182.6 226.8
L 183.55 226.75 183.4 227.9
Q 182.95 228.2 182.35 228.2 181.75 228.2 181.75 227.7
M 180.15 220.5
L 178.55 220.65 177.05 229.3 178.65 229.3 180.15 220.5
M 225.85 224.4
Q 226.6 224.4 226.6 224.9
L 226.6 225.15 225.9 229.3 227.5 229.3 228.3 224.45
Q 228.3 223 226.7 223 225.7 223 225 223.7
L 224.95 223.7 225.05 223.1
Q 224.35 223.1 223.4 223.2
L 222.4 229.3 224 229.3 224.75 224.75
Q 225.35 224.4 225.85 224.4
M 233 229.3
L 234.05 223.15 232.45 223.15 231.4 229.3 233 229.3
M 240.65 227.65
Q 239.55 227.65 239.55 228.65 239.55 229.4 240.35 229.4 241.35 229.4 241.35 228.35 241.35 227.65 240.65 227.65
M 206.95 223.15
L 205.35 223.15 204.25 229.3 205.85 229.3 206.95 223.15
M 204 223.2
Q 203.15 223.1 202.5 223.1
L 201.1 227.4 201 227.4 200.6 223.15 199.05 223.15 197.1 227.4 197.05 227.4 197.1 223.1
Q 196.65 223.1 195.6 223.2
L 195.6 225.1
Q 195.6 227.6 195.8 229.3
L 197.4 229.3 199.1 225.8
Q 199.2 225.7 199.4 224.95
L 199.5 224.95 199.95 229.3 201.6 229.3
Q 203 226.35 204 223.2
M 221.75 223.15
L 220.15 223.15 219.05 229.3 220.65 229.3 221.75 223.15
M 215.4 220.5
Q 214.45 220.5 213.8 220.65
L 212.25 229.3 213.85 229.3 214.7 224.75
Q 215.15 224.4 215.75 224.4 216.5 224.4 216.5 224.95
L 216.5 225.15 215.75 229.3 217.35 229.3 218.15 224.9 218.2 224.45
Q 218.2 223 216.6 223 215.6 223 214.95 223.7
L 214.85 223.7 215.4 220.5
M 220.25 221.65
Q 220.25 222.45 221.05 222.45 222.1 222.45 222.1 221.35 222.1 220.6 221.4 220.6 220.85 220.6 220.55 220.95 220.25 221.25 220.25 221.65
M 210.7 221.6
Q 209.75 221.65 209.05 221.85
L 208.85 223.15 208.15 223.15 207.9 224.5 208.6 224.5 208.05 227.8
Q 208.05 229.4 209.9 229.4 210.7 229.4 211.25 229.2
L 211.3 227.75
Q 210.85 227.95 210.4 227.95 209.7 227.95 209.7 227.5
L 209.7 227.3 210.2 224.5 211.7 224.5
Q 211.95 223.85 212.05 223.15
L 210.45 223.15 210.7 221.6
M 206.55 220.6
Q 206.05 220.6 205.75 220.95 205.45 221.25 205.45 221.65 205.45 222.45 206.25 222.45 207.35 222.45 207.35 221.35 207.35 220.6 206.55 220.6
M 237.85 221.6
Q 236.9 221.65 236.25 221.85
L 236 223.15 235.3 223.15 235.05 224.5 235.75 224.5 235.25 227.2 235.25 227.8
Q 235.25 229.4 237.05 229.4 237.85 229.4 238.45 229.2
L 238.5 227.75
Q 238.05 227.95 237.5 227.95 236.9 227.95 236.9 227.5
L 236.9 227.3 237.35 224.5 238.85 224.5
Q 239 224.2 239.2 223.15
L 237.6 223.15 237.85 221.6
M 234.45 221.35
Q 234.45 220.6 233.7 220.6 233.25 220.6 232.95 220.95 232.65 221.25 232.65 221.65 232.65 222.45 233.4 222.45 234.45 222.45 234.45 221.35
M 110.45 223.1
L 109.2 226.6 109.05 227.4 108.95 227.4 108.5 223.15 106.95 223.15 105.3 226.65 105.05 227.4 104.95 227.4 105.05 223.1
Q 104.5 223.1 103.55 223.2
L 103.5 225.1
Q 103.5 227.25 103.75 229.3
L 105.35 229.3 107.05 225.8
Q 107.2 225.45 107.3 224.95
L 107.4 224.95 107.9 229.3 109.5 229.3
Q 111 226.05 111.95 223.2
L 110.45 223.1
M 116.85 227.5
L 116.45 223.1
Q 115.85 223.1 114.9 223.2 115.05 226.4 115.85 229.3
L 115.55 229.75
Q 115.2 230.3 114.7 230.3 114.05 230.3 113.7 230.2 113.45 230.8 113.25 231.6 113.65 231.9 114.45 231.9 115.35 231.9 116 231.35 116.75 230.75 117.55 229.2
L 120.6 223.2 119 223.1 116.95 227.5 116.85 227.5
M 92.05 223.7
L 92 223.7 92.1 223.1
Q 91.45 223.1 90.5 223.2
L 89.45 229.3 91.05 229.3 91.8 224.75
Q 92.4 224.4 92.95 224.4 93.65 224.4 93.65 224.9
L 93.65 225.15 92.95 229.3 94.55 229.3 95.35 224.45
Q 95.35 223 93.75 223 92.75 223 92.05 223.7
M 99.55 223
Q 96.85 223 96.4 226.05
L 96.3 226.95
Q 96.3 229.4 98.85 229.4 101.6 229.4 102 226.4
L 102.1 225.45
Q 102.1 224.25 101.35 223.6 100.7 223 99.55 223
M 98.1 226.2
Q 98.45 224.35 99.45 224.35 100.4 224.35 100.4 225.45
L 100.35 226.2
Q 100 228.05 98.95 228.05 98.05 228.05 98.05 227
L 98.1 226.2
M 85.3 221.3
L 83.55 221.3 82.15 229.3 83.9 229.3 84.35 226.9 85.3 225.85 86.7 229.35 88.5 229.25
Q 87.55 226.75 86.6 224.6
L 89.75 221.4 87.85 221.3 86.7 222.4
Q 85.6 223.6 84.75 224.8
L 84.65 224.8 85.3 221.3
M 149.85 238.95
L 150.1 237.3
Q 150.1 236.1 149.55 235.5 148.85 234.7 147.3 234.7 145.75 234.7 144.75 235.6 143.75 236.5 143.45 238.15 143.2 239.8 144 240.7 144.7 241.5 146.1 241.5
L 148.9 241.5 149.15 239.9 146.35 239.9
Q 145.7 239.9 145.45 239.65 145.25 239.35 145.25 238.95
L 149.85 238.95
M 147.2 236.3
Q 147.85 236.3 148.1 236.55 148.3 236.85 148.3 237.35
L 145.55 237.35
Q 146 236.3 147.2 236.3
M 146.6 223.15
L 145.05 223.15 143.9 229.3 145.5 229.3 146.6 223.15
M 156.25 224.45
Q 156.25 223 154.65 223 153.65 223 152.8 223.85 152.65 223 151.55 223 150.55 223 149.9 223.7
L 149.85 223.7 149.9 223.1
Q 149.25 223.1 148.3 223.2
L 147.25 229.3 148.85 229.3 149.65 224.75
Q 150.15 224.4 150.65 224.4 151.3 224.4 151.3 224.9
L 150.5 229.3 152.1 229.3 152.95 224.75
Q 153.4 224.4 153.85 224.4 154.55 224.4 154.55 224.95
L 154.55 225.15 153.8 229.3 155.4 229.3 156.25 224.45
M 159.75 223.15
L 158.15 223.15 157.05 229.3 158.65 229.3 159.75 223.15
M 160.95 227.2
L 160.9 227.8
Q 160.9 229.4 162.7 229.4 163.55 229.4 164.1 229.2
L 164.15 227.75
Q 163.7 227.95 163.2 227.95 162.55 227.95 162.55 227.5
L 162.55 227.3 163 224.5 164.55 224.5
Q 164.65 224.2 164.9 223.15
L 163.3 223.15 163.55 221.6
Q 162.6 221.65 161.9 221.85
L 161.7 223.15 161 223.15 160.75 224.5 161.4 224.5 160.95 227.2
M 140.6 237.25
L 139.45 237.25
Q 139.25 237.25 139.15 237.1 139 237 139.05 236.75
L 139.05 236.7
Q 139.25 236.3 139.65 236.3
L 142.8 236.3 143.05 234.7 140.1 234.7
Q 138.95 234.7 138.2 235.25 137.45 235.8 137.3 236.75 137.2 237.7 137.65 238.3 138.2 238.95 139.35 238.95
L 140.5 238.95
Q 140.75 238.95 140.85 239.1 140.95 239.25 140.9 239.45
L 140.9 239.55
Q 140.8 239.9 140.3 239.9
L 136.95 239.9 136.7 241.55 140.05 241.55
Q 142.35 241.55 142.7 239.45 142.8 238.35 142.35 237.9 141.8 237.25 140.6 237.25
M 130.5 237.65
L 129.9 241.5 131.75 241.5 132.35 237.65
Q 132.45 237.2 132.8 236.85 133.15 236.55 133.6 236.55 134.65 236.55 134.5 237.65
L 133.9 241.5 135.75 241.5 136.35 237.65
Q 136.6 236.35 135.95 235.5 135.25 234.7 133.9 234.7 132.6 234.7 131.65 235.55 130.7 236.4 130.5 237.65
M 129.7 237.3
Q 129.7 236.1 129.15 235.5 128.5 234.7 126.95 234.7 125.45 234.7 124.4 235.6 123.4 236.5 123.15 238.15 122.85 239.75 123.6 240.7 124.35 241.5 125.75 241.5
L 128.55 241.5 128.75 239.9 126 239.9
Q 125.4 239.9 125.1 239.65 124.95 239.5 124.85 238.95
L 129.55 238.95 129.7 237.3
M 126.8 236.3
Q 127.45 236.3 127.7 236.55 127.95 236.85 127.95 237.35
L 125.15 237.35
Q 125.6 236.3 126.8 236.3
M 122.55 234.7
L 122.8 232.85 118.7 232.85
Q 117.3 232.85 116.45 233.55 115.55 234.25 115.35 235.45
L 115.3 236
Q 115.3 236.85 115.75 237.35 116.45 238.1 117.85 238.1
L 119.35 238.1
Q 120 238.1 120.2 238.35 120.35 238.5 120.35 238.85
L 120.35 239.05
Q 120.25 239.9 119 239.9
L 115.15 239.9 114.85 241.5 115.15 241.5 114.95 241.55 119.1 241.55
Q 121.8 241.55 122.25 239.15
L 122.4 238.35
Q 122.4 237.65 121.95 237.05 121.25 236.25 119.75 236.25
L 118.35 236.25
Q 117.65 236.25 117.45 236.05 117.3 235.85 117.3 235.5 117.3 234.7 118.65 234.7
L 122.55 234.7
M 126.35 225.45
Q 126.35 223 123.8 223 121.15 223 120.6 226.05
L 120.55 226.95
Q 120.55 229.4 123.1 229.4 125.75 229.4 126.3 226.4
L 126.35 225.45
M 123.2 228.05
Q 122.25 228.05 122.25 227 122.25 226.5 122.35 226.2 122.65 224.35 123.7 224.35 124.65 224.35 124.65 225.45
L 124.55 226.2
Q 124.2 228.05 123.2 228.05
M 132.1 229.3
L 133.2 223.1
Q 132.6 223.1 131.55 223.2
L 130.8 227.8
Q 130.25 228.05 129.8 228.05 128.95 228.05 128.95 227.45
L 128.95 227.3 129.7 223.1
Q 129 223.1 128.05 223.2
L 127.3 227.95
Q 127.3 228.65 127.75 229.05 128.2 229.4 128.9 229.4 129.9 229.4 130.5 228.75
L 130.6 228.75 130.5 229.3 132.1 229.3
M 137.95 224.75
Q 138.3 223.8 138.4 223.05
L 137.95 223
Q 137.2 223 136.45 223.85
L 136.35 223.85 136.5 223.1
Q 135.85 223.1 134.9 223.2
L 133.8 229.3 135.4 229.3 136.2 224.95
Q 136.7 224.65 137.35 224.65
L 137.95 224.75
M 158.3 221.65
Q 158.3 222.45 159.1 222.45 160.1 222.45 160.1 221.35 160.1 220.6 159.4 220.6 158.9 220.6 158.6 220.95 158.3 221.25 158.3 221.65
M 143.75 220.5
L 142.15 220.65 140.55 229.3 142.15 229.3 143.75 220.5
M 145.95 222.45
Q 147 222.45 147 221.35 147 220.6 146.25 220.6 145.75 220.6 145.45 220.95 145.15 221.25 145.15 221.65 145.15 222.45 145.95 222.45 Z"/>

<path fill="#91C84B" stroke="none" d="
M 109.25 235.6
Q 108.25 236.5 108 238.15 107.75 239.8 108.5 240.7 109.25 241.5 110.65 241.5
L 113.4 241.5 113.65 239.9 110.85 239.9
Q 110.25 239.9 110 239.65 109.75 239.45 109.75 238.95
L 114.4 238.95 114.55 237.3
Q 114.55 236.15 114.05 235.5 113.35 234.7 111.8 234.7 110.3 234.7 109.25 235.6
M 111.7 236.3
Q 112.3 236.3 112.6 236.55 112.8 236.85 112.8 237.35
L 110.05 237.35
Q 110.45 236.3 111.7 236.3
M 99.3 237.6
Q 99.4 237.15 99.75 236.85 100.05 236.55 100.55 236.55 101.65 236.55 101.4 237.6
L 100.8 241.5 102.65 241.5 103.3 237.6
Q 103.4 237.15 103.75 236.85 104.1 236.55 104.55 236.55 105.55 236.55 105.45 237.6
L 104.8 241.5 106.7 241.5 107.3 237.65
Q 107.5 236.3 106.85 235.5 106.15 234.7 104.85 234.7 103.65 234.7 102.7 235.55 102.05 234.7 100.85 234.7 99.5 234.7 98.55 235.5 97.65 236.35 97.45 237.65
L 96.8 241.5 98.65 241.5 99.3 237.6
M 90.2 232.85
L 86.65 232.9
Q 84.65 232.9 83.25 234.05 81.9 235.2 81.55 237.2 81.25 239.2 82.25 240.35 83.25 241.5 85.3 241.5
L 88.85 241.5 89.7 236.25 85.8 236.25 85.55 238.1 87.45 238.1 87.2 239.65 85.3 239.65
Q 84.2 239.65 83.7 238.9 83.35 238.25 83.45 237.4
L 83.55 237
Q 83.7 235.9 84.55 235.25 85.3 234.7 86.05 234.7
L 89.9 234.7 90.2 232.85
M 94.3 234.7
L 91.2 234.7 90.95 236.25 94.3 236.25
Q 94.65 236.25 94.7 236.45 94.75 236.6 94.6 237.25
L 92.55 237.25
Q 90.1 237.25 89.75 239.35 89.4 241.5 91.85 241.5
L 95.75 241.5 96.4 237.65
Q 96.85 234.7 94.3 234.7
M 94.35 238.7
L 94.2 239.9 92.2 239.9
Q 91.4 239.9 91.45 239.3 91.55 238.7 92.4 238.7
L 94.35 238.7 Z"/>
</g>

<g id="Layer1_1_FILL">
<path fill="#505F68" stroke="none" d="
M 274.65 231.95
Q 274.85 230.05 274.85 229.4 274.85 224.3 270.3 224.3 267.8 224.3 266.25 226.15 264.75 228 264.75 231.1 264.75 233.05 265.75 234.15 266.7 235.1 268.2 235.1 269.75 235.1 270.8 234
L 270.95 234
Q 270.45 236.3 269.55 237.2 268.8 237.9 267.4 237.9 265.95 237.9 264.8 237.65 264.25 238.95 264.25 240.65 265.55 241.05 267.2 241.05 270.2 241.05 271.95 239.05 273.95 236.85 274.65 231.95
M 271.75 229.05
Q 271.75 232.45 269.7 232.45 267.95 232.45 267.95 230.65 267.95 227.1 270.2 227.1 271.75 227.1 271.75 229.05
M 262.25 224.55
L 259.25 224.55 255.2 225.35
Q 255 226.3 255 227
L 255.1 228.1 258.55 227.7 257.35 234.55 253.5 234.55 252.95 237.7 262.45 237.7
Q 263.05 236.15 263.25 234.55
L 260.5 234.55 262.25 224.55
M 286.1 232.25
L 286.5 229.95 282.7 229.95 283.45 225.65 281.15 225.65 280.4 229.95 276.55 229.95 276.2 232.25 279.95 232.25 279.2 236.55 281.55 236.55 282.3 232.25 286.1 232.25 Z"/>
</g>

<g id="Layer1_2_FILL">
<path fill="#F47C36" stroke="none" d="
M 40.45 230.75
Q 39.6 229.85 38.35 229.85 37.1 229.85 36.25 230.75 35.35 231.6 35.35 232.85 35.35 234.1 36.25 234.95 37.1 235.85 38.35 235.85 39.6 235.85 40.45 234.95 41.35 234.1 41.35 232.85 41.35 231.6 40.45 230.75 Z"/>

<path fill="#505F68" stroke="none" d="
M 14.6 216.3
L 9.75 216.3 9.75 232.85
Q 9.75 236.65 12.45 239.35 15.15 242.05 19 242.05 22.8 242.05 25.5 239.35 28.2 236.65 28.2 232.85 28.2 229.05 25.5 226.35 22.8 223.65 19 223.65 16.65 223.65 14.6 224.75
L 14.6 216.3
M 15.55 229.4
Q 16.95 228 19 228 21 228 22.4 229.4 23.85 230.85 23.85 232.85 23.85 234.85 22.4 236.3 21 237.7 19 237.7 16.95 237.7 15.55 236.3 14.1 234.85 14.1 232.85 14.1 230.85 15.55 229.4
M 40.95 228.75
Q 42.1 229.45 42.7 230.65
L 46.45 228.45
Q 45.25 226.3 43.15 225 40.95 223.65 38.35 223.65 34.55 223.65 31.85 226.35 29.15 229.05 29.15 232.85 29.15 236.65 31.85 239.35 34.55 242.05 38.35 242.05 41 242.05 43.25 240.65 45.4 239.3 46.6 237
L 42.8 234.8
Q 42.25 236.1 41.05 236.9 39.85 237.7 38.35 237.7 36.35 237.7 34.95 236.3 33.5 234.85 33.5 232.85 33.5 230.85 34.95 229.4 36.35 228 38.35 228 39.75 228 40.95 228.75
M 57.65 232.85
Q 57.65 230.85 59.05 229.4 60.5 228 62.5 228 65.45 228 66.85 230.65
L 70.6 228.45
Q 69.4 226.3 67.3 225 65.1 223.65 62.5 223.65 58.7 223.65 56 226.35 53.3 229.05 53.3 232.85 53.3 236.7 56 239.35 58.7 242.05 62.5 242.05 65.15 242.05 67.4 240.65 69.55 239.3 70.7 237
L 66.95 234.8
Q 66.4 236.1 65.2 236.9 64 237.7 62.5 237.7 60.5 237.7 59.05 236.3 57.65 234.9 57.65 232.85
M 52.4 216.3
L 47.6 216.3 47.6 237.25
Q 47.6 239.25 49 240.65 50.4 242.05 52.4 242.05
L 52.4 216.3 Z"/>

<path fill="#C62E40" stroke="none" d="
M 19.05 229.85
Q 17.8 229.85 16.95 230.75 16.05 231.6 16.05 232.85 16.05 234.1 16.95 234.95 17.8 235.85 19.05 235.85 20.3 235.85 21.15 234.95 22.05 234.1 22.05 232.85 22.05 231.6 21.15 230.75 20.3 229.85 19.05 229.85 Z"/>

<path fill="#91C84B" stroke="none" d="
M 60.4 230.75
Q 59.5 231.6 59.5 232.85 59.5 234.1 60.4 234.95 61.25 235.85 62.5 235.85 63.75 235.85 64.6 234.95 65.5 234.1 65.5 232.85 65.5 231.6 64.6 230.75 63.75 229.85 62.5 229.85 61.25 229.85 60.4 230.75 Z"/>
</g>

<g id="Layer1_3_FILL">
<path fill="#FFFFFF" stroke="none" d="
M 135.25 159.8
Q 131.85 159.8 130.5 161.9
L 130.5 160.25 126.9 160.25 126.9 178.85 130.5 178.85 130.5 168
Q 130.5 163.25 134.35 163.25 138.25 163.25 138.25 168.3
L 138.25 178.85 141.85 178.85 141.85 168.15
Q 141.85 159.8 135.25 159.8
M 148.05 172.75
L 147.2 172.75 147.2 178.05 155.8 178.05 155.8 172.6 154.9 172.6 154.9 177.05 151.65 177.05 151.65 174.55 150.75 174.55 150.75 177.05 148.05 177.05 148.05 172.75
M 148.7 166.05
L 148 165.45
Q 147.05 166.65 147.05 168.1 147.05 169.35 147.6 170.1 148.25 170.85 149.25 170.85 150.2 170.85 150.7 170.3 151.25 169.75 151.75 168.3 152.2 167.15 152.6 166.65 153 166.25 153.6 166.25 155.05 166.25 155.05 168.1 155.05 169.3 154 170.45
L 154.75 171.1
Q 155.95 169.85 155.95 168.15 155.95 166.75 155.3 165.95 154.6 165.25 153.55 165.25 152.55 165.25 152 165.75 151.45 166.3 150.9 167.8 150.45 169.05 150.1 169.5 149.75 169.85 149.2 169.85 147.95 169.85 147.95 168.15 147.95 167 148.7 166.05
M 148.05 157.65
L 147.2 157.65 147.2 163.8 148.05 163.8 148.05 161.25 155.8 161.25 155.8 160.25 148.05 160.25 148.05 157.65
M 155.15 155.65
Q 154.8 155.65 154.6 155.85 154.35 156.1 154.35 156.45 154.35 157.25 155.15 157.25 155.95 157.25 155.95 156.45 155.95 156.1 155.75 155.85 155.5 155.65 155.15 155.65
M 100.75 160.25
L 100.75 178.85 104.35 178.85 104.35 160.25 100.75 160.25
M 89.1 153
L 85.4 154.9 85.4 178.85 89.1 178.85 89.1 153
M 96.75 153
L 93 154.9 93 178.85 96.75 178.85 96.75 153
M 109.6 162.35
Q 107.2 165 107.2 169.5 107.2 173.95 109.6 176.6 111.95 179.3 115.55 179.3 119.3 179.3 121.55 176.6 123.9 173.95 123.9 169.5 123.9 165.15 121.55 162.5 119.15 159.8 115.55 159.8 111.95 159.8 109.6 162.35
M 112.1 165
Q 113.45 163.25 115.4 163.25 117.65 163.25 119 165 120.2 166.65 120.2 169.5 120.2 172.15 119 173.95 117.65 175.75 115.7 175.75 110.9 175.75 110.9 169.5 110.9 166.65 112.1 165
M 104.95 155.5
Q 104.95 153.15 102.55 153.15 100.15 153.15 100.15 155.5 100.15 157.75 102.55 157.75 103.6 157.75 104.2 157.15 104.95 156.4 104.95 155.5
M 77.75 160.25
L 77.75 178.85 81.5 178.85 81.5 160.25 77.75 160.25
M 69.4 154
L 62.25 171.55 54.9 154 51.05 154 51.05 178.85 54.45 178.85 54.45 161.3 62.1 179.3 68.05 165.15
Q 68.35 164.6 69.7 161.3
L 69.7 178.85 73.3 178.85 73.3 154 69.4 154
M 78.05 157.15
Q 78.65 157.75 79.7 157.75 80.6 157.75 81.35 157.15 82.1 156.4 82.1 155.5 82.1 154.45 81.35 153.85 80.6 153.15 79.7 153.15 77.3 153.15 77.3 155.5 77.3 156.4 78.05 157.15
M 29.55 69.85
L 24.1 69.85 24.1 75.3
Q 19.95 75.75 17.55 78.35 14.9 80.95 14.9 84.9 14.9 89.45 17.75 91.65 19.95 93.6 26.3 95.35 31.1 96.85 32.65 97.95 34.4 99.25 34.4 101.2 34.4 106.25 26.95 106.25 21.7 106.25 17.55 102.1
L 13.4 105.55
Q 17.3 110.35 24.1 111.45
L 24.1 116.7 29.55 116.7 29.55 111.45
Q 40.05 110.15 40.05 100.8 40.05 96.2 37 93.8 34.6 91.85 28.25 89.9 23.65 88.6 21.9 87.5 20.4 86.4 20.4 84.45 20.4 80.3 26.5 80.3 30.9 80.3 35.05 83.8
L 38.75 80.1
Q 35.05 75.95 29.55 75.3
L 29.55 69.85
M 96.75 86.65
Q 96.75 76.35 89.75 71.1 82.9 65.85 70.8 65.85 56.1 65.85 44.85 76.15
L 52.05 84.9
Q 59.95 77.4 70.45 77.4 85.2 77.4 85.2 87.35 85.2 91.35 82.55 94.35 79.95 97.45 72.2 102 58.35 110.2 52.2 117.55 43.45 128.05 42.95 143.05
L 97.45 143.05 97.45 132.05 57.15 132.05
Q 58.55 126.45 62.55 122.1 66.95 117.55 77.65 111.25 88.35 105 92.2 100.45 96.75 95.05 96.75 86.65
M 119.9 97.1
L 121.3 77.9 157.95 77.9 157.95 67.1 111.15 67.1 108.5 104.3 120.8 109
Q 126.9 104.3 135.5 104.3 142.7 104.3 146.75 107.6 150.95 111.1 150.95 117.75 150.95 125.05 146.4 129.1 141.65 133.1 132.9 133.1 122.2 133.1 111.5 127.35
L 105.9 136.75
Q 117.6 144.25 132.55 144.25 146.2 144.25 154.1 137.65 162.5 130.65 162.5 117.2 162.5 106.4 156 100.1 149 93.3 136.2 93.3 127.1 93.3 119.9 97.1 Z"/>
</g>

<g id="Layer1_4_FILL">
<path fill="#FFFFFF" stroke="none" d="
M 74.9 34.7
Q 73.6 33.95 71.85 33.95 69.85 33.95 68.55 34.9 67.05 35.9 67.05 37.85 67.05 41.9 71.05 41.9 73.1 41.9 74.9 40.15
L 74.9 41.6 76.7 41.6 76.7 33.05
Q 76.7 29 72.35 29 69.95 29 68.15 30
L 68.75 31.5
Q 70.55 30.5 72.25 30.5 74.9 30.5 74.9 33.25
L 74.9 34.7
M 71.75 35.4
Q 73.8 35.4 74.9 36.1
L 74.9 38.55
Q 73.5 40.4 71.35 40.4 68.75 40.4 68.75 37.75 68.75 35.4 71.75 35.4
M 54.95 26
Q 53.45 27.15 53.45 29.1 53.45 30.9 54.55 31.95 55.55 32.95 58.25 33.95 60.55 34.7 61.45 35.5 62.25 36.2 62.25 37.4 62.25 40.2 58.65 40.2 56.45 40.2 54.25 38.25
L 52.95 39.55
Q 55.35 41.9 58.65 41.9 61.15 41.9 62.65 40.5 64.15 39.25 64.15 37.3 64.15 35.4 63.15 34.35 62.15 33.25 59.35 32.25 56.85 31.4 56.05 30.7 55.35 30.1 55.35 29 55.35 26.55 58.55 26.55 60.55 26.55 62.65 28.15
L 63.75 26.65
Q 61.45 24.9 58.75 24.9 56.35 24.9 54.95 26
M 109.1 29.3
Q 108.5 29 107.1 29 105.1 29 104 30.8
L 104 29.3 102.3 29.3 102.3 41.6 104 41.6 104 34.35
Q 104 30.6 106.8 30.6 107.9 30.6 108.7 31.1
L 109.1 29.3
M 119.1 30.7
Q 117.6 29 115.6 29 113.5 29 112.2 30.7 110.8 32.45 110.8 35.6 110.8 41.9 115.3 41.9 117.3 41.9 119.1 40.15
L 119.1 41.6 120.9 41.6 120.9 24.5 119.1 25.5 119.1 30.7
M 112.6 35.6
Q 112.6 30.5 115.7 30.5 117.8 30.5 119.1 32.35
L 119.1 38.55
Q 117.6 40.3 115.8 40.3 112.6 40.3 112.6 35.6
M 85.7 30.8
L 85.7 29.3 82.6 29.3 82.6 24.5 80.8 25.5 80.8 29.3 79.3 29.3 79.3 30.8 80.8 30.8 80.8 39.05
Q 80.8 41.9 83.2 41.9 84.3 41.9 85.5 41.4
L 85.6 39.95
Q 84.9 40.2 83.9 40.2 82.6 40.2 82.6 38.75
L 82.6 30.8 85.7 30.8
M 98.4 29.3
L 96.6 29.3 96.6 36.5
Q 96.6 40.3 93.5 40.3 90.5 40.3 90.5 36.5
L 90.5 29.3 88.7 29.3 88.7 36.8
Q 88.7 41.9 93.1 41.9 95.3 41.9 96.6 40.15
L 96.6 41.6 98.4 41.6 98.4 29.3
M 149.55 30.4
L 150.75 30.4 152.35 25.2 149.85 25.2 149.55 30.4
M 156.85 33.25
Q 156.25 32.85 156.25 32.05 156.25 30.5 158.35 30.5 159.85 30.5 161.45 31.6
L 162.45 30.3
Q 160.85 29 158.45 29 156.75 29 155.65 29.9 154.55 30.8 154.55 32.15 154.55 33.55 155.35 34.45 156.05 35.1 158.05 35.9 161.05 37.3 161.05 38.45 161.05 40.3 158.55 40.3 156.65 40.3 155.05 38.95
L 154.05 40.3
Q 156.15 41.9 158.45 41.9 160.25 41.9 161.45 41 162.75 40.15 162.75 38.35 162.75 36.9 161.75 36 161.15 35.4 159.05 34.45 157.35 33.75 156.85 33.25
M 137.85 29.3
L 135.95 29.3 140.45 41.5 138.75 45.9 140.55 45.9 146.75 29.3 144.85 29.3 141.35 39.45 137.85 29.3
M 131.85 33.25
L 131.85 34.7
Q 130.75 33.95 128.75 33.95 126.75 33.95 125.45 34.9 124 35.9 124 37.85 124 41.9 127.95 41.9 130.05 41.9 131.85 40.15
L 131.85 41.6 133.65 41.6 133.65 33.05
Q 133.65 29 129.25 29 126.85 29 125.05 30
L 125.75 31.5
Q 127.45 30.5 129.15 30.5 131.85 30.5 131.85 33.25
M 128.25 40.4
Q 125.65 40.4 125.65 37.75 125.65 35.4 128.65 35.4 130.75 35.4 131.85 36.1
L 131.85 38.55
Q 130.45 40.4 128.25 40.4
M 199.6 30.5
Q 197.9 29 195.6 29 193.4 29 191.9 30.6 190.2 32.35 190.2 35.5 190.2 38.55 191.8 40.3 193.3 41.9 195.5 41.9 197.9 41.9 199.5 40.15
L 198.4 39.05
Q 197.1 40.3 195.5 40.3 193.9 40.3 192.9 38.95 192 37.55 192 35.3 192 33.05 193 31.75 194 30.5 195.5 30.5 197 30.5 198.5 31.75
L 199.6 30.5
M 178.4 30
L 179.1 31.5
Q 180.8 30.5 182.5 30.5 185.2 30.5 185.2 33.25
L 185.2 34.7
Q 184.1 33.95 182.1 33.95 180.1 33.95 178.8 34.9 177.3 35.9 177.3 37.85 177.3 41.9 181.3 41.9 183.4 41.9 185.2 40.15
L 185.2 41.6 187 41.6 187 33.05
Q 187 29 182.6 29 180.2 29 178.4 30
M 181.6 40.4
Q 179 40.4 179 37.75 179 35.4 182 35.4 184.1 35.4 185.2 36.1
L 185.2 38.55
Q 183.8 40.4 181.6 40.4
M 174.25 29.3
L 172.45 29.3 172.45 41.3
Q 172.45 43.05 172.05 43.65 171.65 44.35 169.95 44.85
L 170.55 46.1
Q 172.85 45.55 173.65 44.45 174.25 43.55 174.25 41.3
L 174.25 29.3
M 173.45 27.05
Q 173.95 27.05 174.25 26.65 174.65 26.25 174.65 25.8 174.65 24.6 173.45 24.6 172.05 24.6 172.05 25.8 172.05 27.05 173.45 27.05
M 237.95 35.3
Q 237.95 32.35 236.35 30.6 234.95 29 232.55 29 230.15 29 228.65 30.7 227.05 32.35 227.05 35.4 227.05 38.45 228.55 40.2 230.05 41.9 232.45 41.9 234.85 41.9 236.35 40.2 237.95 38.35 237.95 35.3
M 228.85 35.4
Q 228.85 30.5 232.45 30.5 236.15 30.5 236.15 35.4 236.15 40.3 232.45 40.3 228.85 40.3 228.85 35.4
M 207.6 33.65
L 210.9 29.3 208.8 29.3 204.2 35.8 204.2 24.5 202.4 25.5 202.4 41.6 204.2 41.6 204.2 38.05 206.4 35.1 209.6 41.6 211.5 41.6 207.6 33.65
M 216.1 29.3
L 214.3 29.3 214.3 46.1 216.1 45.15 216.1 40.2
Q 217.6 41.9 219.7 41.9 221.7 41.9 223 40.2 224.4 38.45 224.4 35.2 224.4 32.15 223.1 30.5 221.9 29 219.9 29 217.7 29 216.1 30.8
L 216.1 29.3
M 216.1 32.35
Q 217.7 30.5 219.4 30.5 222.6 30.5 222.6 35.2 222.6 40.3 219.5 40.3 217.3 40.3 216.1 38.45
L 216.1 32.35
M 243.85 41.9
Q 244.95 41.9 246.15 41.4
L 246.25 39.95
Q 245.35 40.2 244.45 40.2 243.25 40.2 243.25 38.75
L 243.25 30.8 246.35 30.8 246.35 29.3 243.25 29.3 243.25 24.5 241.45 25.5 241.45 29.3 239.85 29.3 239.85 30.8 241.45 30.8 241.45 39.05
Q 241.45 41.9 243.85 41.9 Z"/>
</g>

<g id="Layer1_5_FILL">
<path fill="#FFFFFF" stroke="none" d="
M 249.5 169.9
L 249.5 168.3 252.2 168.3 252.2 166.25 249.5 166.25 249.5 165 254 165 254 162.9 247 162.9 247 172 254.1 172 254.1 169.9 249.5 169.9
M 211.3 163.3
Q 210.35 162.75 209.1 162.75 207.9 162.75 206.95 163.3 206 163.85 205.45 164.9 204.9 165.95 204.9 167.45 204.9 169 205.45 170.05 205.95 171.05 206.9 171.6 207.85 172.15 209.1 172.15 210.35 172.15 211.3 171.6 212.25 171.05 212.75 170 213.3 168.95 213.3 167.45 213.3 165.9 212.8 164.85 212.25 163.85 211.3 163.3
M 209.1 164.95
Q 209.85 164.95 210.3 165.6 210.7 166.25 210.7 167.45 210.7 168.7 210.3 169.3 209.9 169.95 209.1 169.95 208.35 169.95 207.95 169.3 207.5 168.65 207.5 167.45 207.5 166.2 207.9 165.6 208.35 164.95 209.1 164.95
M 242.75 162.9
L 242.75 165.4
Q 242.75 165.75 242.75 166.25 242.75 166.7 242.75 167.1 242.8 167.5 242.8 167.75 242.7 167.55 242.45 167.15 242.2 166.75 241.9 166.3 241.6 165.9 241.4 165.6
L 239.4 162.9 237.15 162.9 237.15 172 239.6 172 239.6 169.2
Q 239.6 168.85 239.6 168.35 239.6 167.9 239.55 167.5 239.55 167.05 239.5 166.85 239.65 167.1 239.9 167.45 240.15 167.85 240.45 168.3 240.7 168.7 240.95 169
L 243.1 172 245.15 172 245.15 162.9 242.75 162.9
M 222.75 172
L 222.75 162.9 220.35 162.9 220.35 165.4
Q 220.35 165.75 220.35 166.25 220.35 166.7 220.35 167.1 220.4 167.5 220.4 167.75 220.3 167.55 220.05 167.15 219.8 166.75 219.5 166.3 219.2 165.9 219 165.6
L 217 162.9 214.75 162.9 214.75 172 217.2 172 217.2 169.2
Q 217.2 168.85 217.2 168.35 217.2 167.9 217.15 167.5 217.15 167.05 217.1 166.85 217.25 167.1 217.5 167.45 217.75 167.85 218.05 168.3 218.3 168.7 218.55 169
L 220.7 172 222.75 172
M 224.6 172
L 231.2 172 231.2 169.8 227.15 169.8 227.15 162.9 224.6 162.9 224.6 172
M 232.7 162.9
L 232.7 172 235.25 172 235.25 162.9 232.7 162.9
M 222.95 154.1
Q 223.45 153.85 223.75 153.45 224.05 153.05 224.05 152.3 224.05 151.15 223.3 150.55 222.55 149.95 220.85 149.95
L 216.45 149.95 216.45 159.05 220.85 159.05
Q 222.55 159.05 223.4 158.3 224.25 157.5 224.25 156.1 224.25 155.35 223.9 154.85 223.55 154.35 222.95 154.1
M 218.9 151.95
L 220.8 151.95
Q 221.25 151.95 221.4 152.15 221.6 152.35 221.6 152.65 221.6 153 221.4 153.15 221.2 153.35 220.8 153.35
L 218.9 153.35 218.9 151.95
M 221.55 155.55
Q 221.8 155.75 221.8 156.15 221.8 156.55 221.55 156.8 221.35 157.05 220.9 157.05
L 218.9 157.05 218.9 155.3 220.9 155.3
Q 221.35 155.3 221.55 155.55
M 233.15 157.5
Q 233.7 156.6 233.7 155.15
L 233.7 149.95 231.15 149.95 231.15 155.15
Q 231.15 156 230.8 156.5 230.45 156.95 229.75 156.95 229 156.95 228.65 156.5 228.3 156 228.3 155.15
L 228.3 149.95 225.7 149.95 225.7 155.15
Q 225.75 156.6 226.25 157.5 226.75 158.4 227.65 158.8 228.55 159.2 229.7 159.2 230.85 159.2 231.75 158.8 232.65 158.4 233.15 157.5
M 241.15 149.95
L 240.45 151.3
Q 240.1 152.05 239.8 152.65 239.55 153.25 239.4 153.7 239.3 153.25 239 152.65 238.75 152.05 238.35 151.3
L 237.65 149.95 234.75 149.95 238.1 155.7 238.1 159.05 240.7 159.05 240.7 155.65 244.05 149.95 241.15 149.95 Z"/>
</g>
</defs>

<g transform="matrix( 1.04998779296875, 0, 0, 1.04998779296875, -4.3,-11.25) ">
<use xlink:href="#Layer1_0_FILL"/>
</g>

<g transform="matrix( 1, 0, 0, 1, 7,0) ">
<use xlink:href="#Layer1_1_FILL"/>
</g>

<g transform="matrix( 0.9261016845703125, 0, 0, 0.9261016845703125, 2.45,17.7) ">
<use xlink:href="#Layer1_2_FILL"/>
</g>

<g transform="matrix( 1, 0, 0, 1, 0,0) ">
<use xlink:href="#Layer1_3_FILL"/>
</g>

<g transform="matrix( 1, 0, 0, 1, 0,0) ">
<use xlink:href="#Layer1_4_FILL"/>
</g>

<g transform="matrix( 1, 0, 0, 1, 0,0) ">
<use xlink:href="#Layer1_5_FILL"/>
</g>
</svg>
