
<svg xmlns="http://www.w3.org/2000/svg" version="1.1" xmlns:xlink="http://www.w3.org/1999/xlink" preserveAspectRatio="none" x="0px" y="0px" width="300px" height="250px" viewBox="0 0 300 250">
<defs>
<g id="Layer1_0_FILL">
<path fill="#FFFFFF" stroke="none" d="
M 142.05 168.45
L 142.05 166.45 139.3 166.45 139.3 162.1 137.15 163.25 137.15 166.45 135.55 166.45 135.55 168.45 137.15 168.45 137.15 174.9
Q 137.15 176.4 137.8 177.15 138.45 177.85 139.7 177.85 140.3 177.85 140.85 177.75 141.35 177.55 141.8 177.4
L 142.05 175.4
Q 141.75 175.55 141.3 175.75 140.9 175.9 140.4 175.9 139.85 175.9 139.55 175.55 139.25 175.25 139.3 174.55
L 139.3 168.45 142.05 168.45
M 146.55 166.95
Q 145.5 167.6 144.8 168.95 144.15 170.2 144.15 172.05 144.15 173.8 144.8 175.1 145.4 176.4 146.5 177.15 147.65 177.85 149.05 177.85 150.5 177.85 151.65 177.15 152.8 176.5 153.45 175.15 154.1 173.8 154.1 172 154.1 170.25 153.45 168.95 152.8 167.65 151.7 166.95 150.55 166.2 149.1 166.2 147.7 166.2 146.55 166.95
M 146.35 172
Q 146.4 170.3 147.05 169.35 147.8 168.3 149.05 168.3 150.4 168.3 151.15 169.35 151.9 170.3 151.9 172.05 151.9 173.1 151.5 173.95 151.2 174.8 150.6 175.25 149.95 175.75 149.15 175.75 147.9 175.75 147.1 174.8 146.4 173.8 146.35 172
M 88.65 168.95
Q 87.95 170.2 87.95 172.05 87.95 173.8 88.65 175.1 89.25 176.4 90.3 177.15 91.45 177.85 92.85 177.85 94.3 177.85 95.45 177.15 96.6 176.5 97.25 175.15 97.95 173.8 97.95 172 97.95 170.25 97.25 168.95 96.6 167.65 95.5 166.95 94.35 166.2 92.9 166.2 91.55 166.2 90.4 166.95 89.3 167.6 88.65 168.95
M 90.15 172
Q 90.2 170.3 90.85 169.35 91.6 168.3 92.85 168.3 94.2 168.3 94.95 169.35 95.7 170.3 95.7 172.05 95.7 173.1 95.35 173.95 95.05 174.8 94.45 175.25 93.75 175.75 93 175.75 91.7 175.75 90.95 174.8 90.2 173.8 90.15 172
M 120.75 166.85
Q 119.7 167.55 119 168.85 118.4 170.15 118.4 172.05 118.4 173.9 119.1 175.2 119.75 176.5 120.85 177.2 121.9 177.85 123.25 177.85 124.5 177.85 125.4 177.5 126.4 177.1 127.1 176.4
L 125.8 174.95
Q 125.25 175.4 124.65 175.65 124.1 175.9 123.35 175.9 122.35 175.9 121.55 175.15 120.75 174.45 120.55 172.8
L 127.95 172.8
Q 127.95 172.65 127.95 172.35 128 172.15 128 171.85 128 170.25 127.5 169.05 127 167.8 125.9 167 124.9 166.25 123.3 166.2 121.85 166.2 120.75 166.85
M 120.6 171.05
Q 120.75 169.65 121.4 168.95 122.05 168.2 123.15 168.2 124.05 168.2 124.65 168.55 125.2 169 125.5 169.6 125.75 170.25 125.8 171.05
L 120.6 171.05
M 105.5 166.2
Q 104.65 166.2 103.9 166.55 103.25 166.95 102.85 167.55
L 102.85 166.45 100.65 166.45 100.65 177.65 102.85 177.65 102.85 171.1
Q 102.85 169.7 103.35 169 103.85 168.25 104.95 168.25 106.1 168.2 106.55 168.95 107.1 169.65 107.1 171.35
L 107.1 177.65 109.3 177.65 109.3 171.1
Q 109.3 169.7 109.85 169 110.4 168.25 111.45 168.25 112.55 168.2 113.1 168.95 113.6 169.65 113.6 171.35
L 113.6 177.65 115.8 177.65 115.8 171.2
Q 115.8 168.75 114.85 167.5 113.9 166.2 111.95 166.2 110.7 166.2 109.9 166.7 109.1 167.1 108.55 167.85 108.1 167.05 107.35 166.65 106.65 166.2 105.5 166.2
M 47.95 173.2
Q 47.85 172.55 47.65 171.9
L 46.35 166.45 44.15 166.45 47.25 177.65 49.1 177.65 50.55 172
Q 50.75 171.35 50.95 170.7 51.1 170 51.15 169.6 51.25 170 51.4 170.7 51.55 171.35 51.7 172
L 53.25 177.65 55.1 177.65 58.25 166.45 56.05 166.45 54.75 171.9
Q 54.55 172.55 54.45 173.2 54.3 173.9 54.2 174.35 54.05 173.9 53.95 173.2 53.75 172.55 53.6 171.9
L 52.1 166.45 50.35 166.45 48.8 171.9
Q 48.65 172.55 48.45 173.2 48.35 173.9 48.2 174.35 48.15 173.9 47.95 173.2
M 74.45 162.1
L 72.25 163.25 72.25 177.65 74.45 177.65 74.45 162.1
M 79.35 172
Q 79.4 170.25 80.05 169.3 80.8 168.3 82 168.3 82.7 168.3 83.35 168.65 84.05 169 84.7 169.65
L 85.95 168.15
Q 85.2 167.2 84.2 166.7 83.25 166.2 82.05 166.2 80.65 166.2 79.55 166.95 78.5 167.6 77.8 168.95 77.15 170.2 77.15 172.05 77.15 173.8 77.8 175.15 78.4 176.4 79.5 177.15 80.6 177.85 82 177.85 82.95 177.85 83.75 177.55 84.45 177.25 85 176.8 85.55 176.35 85.95 175.75
L 84.6 174.45
Q 83.9 175.1 83.35 175.45 82.75 175.75 82.05 175.75 81.15 175.75 80.55 175.25 80 174.8 79.7 173.95 79.35 173.1 79.35 172
M 64.7 166.2
Q 63.25 166.2 62.15 166.85 61.1 167.55 60.4 168.85 59.8 170.15 59.8 172.05 59.8 173.9 60.5 175.2 61.15 176.5 62.25 177.2 63.3 177.85 64.65 177.85 65.9 177.85 66.8 177.5 67.8 177.1 68.5 176.4
L 67.2 174.95
Q 66.65 175.4 66.05 175.65 65.5 175.9 64.75 175.9 63.75 175.9 62.95 175.15 62.15 174.45 61.95 172.8
L 69.35 172.8
Q 69.35 172.65 69.35 172.35 69.4 172.15 69.4 171.85 69.4 170.25 68.85 169.05 68.4 167.8 67.3 167 66.3 166.25 64.7 166.2
M 62 171.05
Q 62.15 169.65 62.75 168.95 63.45 168.2 64.5 168.2 65.45 168.2 66.05 168.55 66.6 169 66.9 169.6 67.1 170.25 67.2 171.05
L 62 171.05
M 250.65 163.05
Q 249.35 163.6 248.55 164.7 247.85 165.85 247.75 167.5 247.85 169.05 248.5 170.1 249.15 171.1 250.3 171.6 251.45 172.15 252.8 172.15 254.1 172.15 255 171.85 255.95 171.55 256.7 170.9 256 173.3 254.3 174.45 252.55 175.65 250 175.75
L 250 177.85
Q 252.6 177.75 254.4 176.85 256.25 175.95 257.25 174.55 258.3 173.1 258.75 171.55 259.25 169.9 259.25 168.45 259.2 166.35 258.45 165 257.75 163.75 256.45 163.15 255.2 162.45 253.65 162.5 252 162.5 250.65 163.05
M 250.95 169.4
Q 250.05 168.75 250.05 167.4 250.05 166.15 250.95 165.4 251.9 164.7 253.55 164.7 254.65 164.7 255.45 165.05 256.15 165.4 256.6 166.05 256.95 166.7 256.95 167.4 256.95 168.7 256 169.35 255.1 170 253.45 170 251.8 170 250.95 169.4
M 212.45 162.1
L 210.25 163.25 210.25 167.5
Q 209.75 167 209.05 166.65 208.3 166.25 207.45 166.2 206.25 166.2 205.3 166.8 204.25 167.5 203.65 168.7 203.05 169.95 203.05 171.9 203.05 174 203.6 175.35 204.2 176.65 205.2 177.25 206.15 177.85 207.35 177.85 208.2 177.85 208.9 177.5 209.65 177.15 210.25 176.55
L 210.25 177.65 212.45 177.65 212.45 162.1
M 205.25 171.85
Q 205.25 170 205.85 169.15 206.45 168.25 207.65 168.25 208.2 168.25 208.75 168.5 209.2 168.7 209.65 169.05 210 169.4 210.25 169.7
L 210.25 174.45
Q 209.85 174.95 209.15 175.4 208.5 175.8 207.75 175.8 206.5 175.9 205.9 174.85 205.25 173.9 205.25 171.85
M 241.85 162.75
L 234.2 172.25 234.2 174.35 242.25 174.35 242.25 177.65 244.45 177.65 244.45 174.3 246.4 174.3 246.4 172.3 244.45 172.3 244.45 162.75 241.85 162.75
M 242.35 166.05
Q 242.25 166.5 242.25 167 242.25 167.55 242.25 167.95
L 242.25 172.3 239.15 172.3
Q 238.7 172.3 238.3 172.3 237.8 172.3 237.4 172.3 236.95 172.3 236.7 172.3 236.95 172.05 237.4 171.6 237.75 171.1 238.1 170.7
L 241 167
Q 241.35 166.5 241.75 166.05 242.1 165.55 242.35 165.25 242.35 165.55 242.35 166.05
M 230.2 164.6
L 230.2 162.5
Q 227.55 162.6 225.8 163.5 223.95 164.45 222.95 165.85 221.9 167.25 221.45 168.85 220.95 170.45 220.95 171.95 221 174.05 221.75 175.35 222.45 176.65 223.7 177.25 225 177.85 226.55 177.85 228.2 177.85 229.5 177.35 230.85 176.7 231.6 175.65 232.35 174.55 232.35 172.9 232.35 171.35 231.7 170.3 231.05 169.25 229.9 168.75 228.75 168.25 227.4 168.25 226.1 168.25 225.15 168.55 224.25 168.8 223.5 169.45 224.2 167.1 225.9 165.9 227.6 164.7 230.2 164.6
M 224.2 171.05
Q 225.1 170.4 226.75 170.4 228.4 170.4 229.2 171 230.15 171.6 230.15 173 230.15 174.25 229.2 174.95 228.3 175.7 226.6 175.7 225.55 175.7 224.75 175.35 224.05 174.9 223.6 174.3 223.25 173.7 223.25 173 223.25 171.65 224.2 171.05
M 176 162.1
L 173.8 163.25 173.8 177.65 176 177.65 176 162.1
M 166.95 166.2
Q 165.55 166.2 164.45 166.95 163.35 167.6 162.7 168.95 162.05 170.2 162.05 172.05 162.05 173.8 162.7 175.15 163.3 176.4 164.4 177.15 165.5 177.85 166.85 177.85 167.85 177.85 168.6 177.55 169.35 177.25 169.9 176.8 170.45 176.35 170.85 175.75
L 169.45 174.45
Q 168.8 175.1 168.25 175.45 167.65 175.75 166.95 175.75 166 175.75 165.4 175.25 164.9 174.8 164.55 173.95 164.2 173.1 164.2 172 164.25 170.25 164.95 169.3 165.65 168.3 166.85 168.3 167.6 168.3 168.25 168.65 168.9 169 169.6 169.65
L 170.85 168.15
Q 170.05 167.2 169.1 166.7 168.15 166.2 166.95 166.2
M 191.3 166.45
L 191.3 172.85
Q 191.3 175.35 192.3 176.6 193.35 177.85 195.25 177.85 196.15 177.85 196.9 177.5 197.7 177.2 198.1 176.55
L 198.1 177.65 200.3 177.65 200.3 166.45 198.1 166.45 198.1 173
Q 198.1 174.35 197.5 175.1 196.9 175.8 195.8 175.8 194.65 175.9 194.1 175.15 193.5 174.45 193.5 172.8
L 193.5 166.45 191.3 166.45
M 188 168.95
Q 187.35 167.65 186.25 166.95 185.1 166.2 183.65 166.2 182.3 166.2 181.15 166.95 180.05 167.6 179.4 168.95 178.7 170.2 178.7 172.05 178.7 173.8 179.4 175.1 180 176.4 181.05 177.15 182.2 177.85 183.6 177.85 185.05 177.85 186.2 177.15 187.35 176.5 188 175.15 188.7 173.8 188.7 172 188.7 170.25 188 168.95
M 183.6 168.3
Q 184.95 168.3 185.7 169.35 186.45 170.3 186.45 172.05 186.45 173.1 186.1 173.95 185.8 174.8 185.2 175.25 184.5 175.75 183.75 175.75 182.45 175.75 181.65 174.8 180.95 173.8 180.9 172 180.95 170.3 181.6 169.35 182.35 168.3 183.6 168.3 Z"/>
</g>
</defs>

<g transform="matrix( 1, 0, 0, 1, 0,0) ">
<use xlink:href="#Layer1_0_FILL"/>
</g>
</svg>
