<svg xmlns="http://www.w3.org/2000/svg" version="1.1" xmlns:xlink="http://www.w3.org/1999/xlink" preserveAspectRatio="none" x="0px" y="0px" width="300px" height="250px" viewBox="0 0 300 250" is="gwd-image" source="assets/buy online CTA.svg" id="cta_online" class="gwd-img-jfoi" src="assets/buy online CTA.svg" data-gwd-node="true" style="" gwd-svg-index="7">
<defs data-gwd-node="true">
<g id="Layer1_0_FILL" data-gwd-node="true">
<path fill="#FFFFFF" stroke="none" d="
M 250.45 171.55
L 250.45 169.9 253.35 169.9 253.35 167.65 250.45 167.65 250.45 166.35 255.25 166.35 255.25 164.05 247.75 164.05 247.75 173.85 255.35 173.85 255.35 171.55 250.45 171.55
M 242.2 166.95
L 240.05 164.05 237.65 164.05 237.65 173.85 240.25 173.85 240.25 170.85
Q 240.25 170.45 240.25 169.95 240.25 169.45 240.2 169 240.2 168.55 240.15 168.3 240.3 168.55 240.55 169 240.85 169.4 241.15 169.85 241.45 170.3 241.7 170.6
L 244.05 173.85 246.25 173.85 246.25 164.05 243.65 164.05 243.65 166.7
Q 243.65 167.15 243.65 167.65 243.65 168.15 243.65 168.6 243.7 169 243.75 169.25 243.6 169.05 243.35 168.6 243.05 168.2 242.75 167.75 242.45 167.25 242.2 166.95
M 236.1 164.05
L 233.3 164.05 233.3 173.85 236.1 173.85 236.1 164.05
M 227.9 164.05
L 225.15 164.05 225.15 173.85 232.25 173.85 232.25 171.5 227.9 171.5 227.9 164.05
M 221.05 164.05
L 221.05 166.7
Q 221.05 167.15 221.05 167.65 221.05 168.15 221.05 168.6 221.1 169 221.15 169.25 221 169.05 220.75 168.6 220.45 168.2 220.15 167.75 219.85 167.25 219.6 166.95
L 217.45 164.05 215.05 164.05 215.05 173.85 217.65 173.85 217.65 170.85
Q 217.65 170.45 217.65 169.95 217.65 169.45 217.6 169 217.6 168.55 217.55 168.3 217.7 168.55 217.95 169 218.25 169.4 218.55 169.85 218.85 170.3 219.1 170.6
L 221.45 173.85 223.65 173.85 223.65 164.05 221.05 164.05
M 211.8 164.45
Q 210.75 163.9 209.45 163.9 208.1 163.9 207.1 164.5 206.05 165.05 205.5 166.2 204.9 167.35 204.9 168.95 204.9 170.6 205.45 171.7 206.05 172.85 207.05 173.45 208.05 174 209.4 174 210.75 174 211.75 173.4 212.8 172.85 213.35 171.7 213.95 170.55 213.95 168.95 213.95 167.3 213.4 166.15 212.8 165.05 211.8 164.45
M 209.4 166.25
Q 210.25 166.25 210.7 166.95 211.15 167.65 211.15 168.95 211.15 170.3 210.7 170.95 210.25 171.65 209.45 171.65 208.6 171.65 208.15 170.95 207.7 170.25 207.7 168.95 207.7 167.6 208.15 166.95 208.6 166.25 209.4 166.25
M 241.8 149.35
L 241.05 150.85
Q 240.65 151.6 240.35 152.25 240.1 152.95 239.95 153.35 239.8 152.95 239.5 152.25 239.2 151.6 238.8 150.85
L 238.05 149.35 234.95 149.35 238.55 155.55 238.55 159.15 241.3 159.15 241.3 155.5 244.9 149.35 241.8 149.35
M 234.3 154.95
L 234.3 149.35 231.5 149.35 231.5 154.95
Q 231.5 155.9 231.15 156.4 230.8 156.9 230 156.9 229.2 156.9 228.85 156.4 228.45 155.9 228.45 154.95
L 228.45 149.35 225.7 149.35 225.7 154.95
Q 225.7 156.5 226.25 157.5 226.8 158.45 227.75 158.85 228.7 159.3 229.95 159.3 231.2 159.3 232.15 158.85 233.15 158.45 233.7 157.5 234.25 156.5 234.3 154.95
M 223.65 158.3
Q 224.6 157.5 224.6 156 224.55 155.15 224.2 154.6 223.85 154.1 223.2 153.8 223.7 153.55 224 153.1 224.35 152.7 224.35 151.9 224.35 150.65 223.55 150 222.75 149.35 220.9 149.35
L 216.2 149.35 216.2 159.15 220.9 159.15
Q 222.75 159.15 223.65 158.3
M 218.8 151.5
L 220.85 151.5
Q 221.3 151.5 221.5 151.7 221.7 151.9 221.7 152.25 221.7 152.6 221.5 152.8 221.3 153.05 220.85 153.05
L 218.8 153.05 218.8 151.5
M 221.65 155.35
Q 221.9 155.6 221.9 156.05 221.9 156.45 221.7 156.75 221.45 157 220.95 157
L 218.8 157 218.8 155.1 220.95 155.1
Q 221.45 155.1 221.65 155.35 Z" data-gwd-node="true"></path>
</g>
</defs>

<g transform="matrix( 1, 0, 0, 1, 0,0) " data-gwd-node="true" fill="rgba(0,0,0,1)">
<use xlink:href="#Layer1_0_FILL" data-gwd-node="true"></use>
</g>
</svg>