<svg xmlns="http://www.w3.org/2000/svg" version="1.1" xmlns:xlink="http://www.w3.org/1999/xlink" preserveAspectRatio="none" x="0px" y="0px" width="300px" height="250px" viewBox="0 0 300 250" is="gwd-image" source="assets/t2.svg" id="t2" class="gwd-img-1lq3" src="assets/t2.svg" data-gwd-node="true" style="" gwd-svg-index="28">
<defs data-gwd-node="true">
<g id="Layer1_0_FILL" data-gwd-node="true">
<path fill="#FFFFFF" stroke="none" d="
M 227.6 208
L 223.2 208 223.2 204.6 222 204.6 222 208 218.35 208 218.35 202.15 217.2 202.15 217.2 209.25 228.8 209.25 228.8 201.95 227.6 201.95 227.6 208
M 123.05 184.05
L 117.75 184.05 117.75 210.4 123.05 210.4 123.05 184.05
M 144.65 173.7
L 139.35 176.45 139.35 210.4 144.65 210.4 144.65 173.7
M 156.3 177.3
Q 156.3 173.9 152.9 173.9 149.5 173.9 149.5 177.3 149.5 180.45 152.9 180.45 154.4 180.45 155.25 179.6 156.3 178.55 156.3 177.3
M 155.45 184.05
L 150.35 184.05 150.35 210.4 155.45 210.4 155.45 184.05
M 133.85 173.7
L 128.55 176.45 128.55 210.4 133.85 210.4 133.85 173.7
M 111.4 175.2
L 105.85 175.2 95.7 200.05 85.3 175.2 79.8 175.2 79.8 210.4 84.7 210.4 84.7 185.5 95.5 211.05 103.95 191
Q 104.4 190.15 106.3 185.5
L 106.3 210.4 111.4 210.4 111.4 175.2
M 118.15 179.6
Q 119 180.45 120.5 180.45 121.75 180.45 122.8 179.6 123.9 178.55 123.9 177.3 123.9 175.8 122.8 174.95 121.75 173.9 120.5 173.9 117.1 173.9 117.1 177.3 117.1 178.55 118.15 179.6
M 63.55 70.45
L 63.55 64.85 57.9 64.85 57.9 70.45
Q 53.65 70.9 51.15 73.6 48.45 76.3 48.45 80.3 48.45 85.05 51.4 87.3 53.65 89.3 60.15 91.1 65.1 92.65 66.7 93.8 68.5 95.15 68.5 97.15 68.5 102.3 60.85 102.3 55.45 102.3 51.15 98.05
L 46.9 101.65
Q 50.95 106.55 57.9 107.7
L 57.9 113.05 63.55 113.05 63.55 107.7
Q 74.35 106.35 74.35 96.7 74.35 92 71.2 89.5 68.7 87.5 62.2 85.5 57.45 84.15 55.65 83 54.1 81.9 54.1 79.85 54.1 75.6 60.4 75.6 64.9 75.6 69.15 79.2
L 73 75.4
Q 69.15 71.15 63.55 70.45
M 91 86.6
Q 101.15 76.95 114.65 76.95 133.6 76.95 133.6 89.75 133.6 94.9 130.2 98.7 126.85 102.75 116.9 108.6 99.15 119.15 91.25 128.55 80 142 79.3 161.3
L 149.35 161.3 149.35 147.15 97.55 147.15
Q 99.35 140 104.55 134.4 110.15 128.55 123.9 120.45 137.65 112.4 142.6 106.55 148.45 99.6 148.45 88.85 148.45 75.6 139.45 68.9 130.65 62.15 115.1 62.15 96.2 62.15 81.8 75.4
L 91 86.6
M 120.5 39.35
Q 120 39.1 118.9 39.1 117.3 39.1 116.4 40.5
L 116.4 39.35 115.05 39.35 115.05 49.15 116.4 49.15 116.4 43.35
Q 116.4 40.35 118.65 40.35 119.5 40.35 120.15 40.75
L 120.5 39.35
M 105.6 39.35
L 104.2 39.35 104.2 45.3
Q 104.2 49.4 107.7 49.4 109.45 49.4 110.5 47.95
L 110.5 49.15 111.95 49.15 111.95 39.35 110.5 39.35 110.5 45.05
Q 110.5 48.15 108 48.15 105.6 48.15 105.6 45.05
L 105.6 39.35
M 83.35 38.4
L 84.2 37.2
Q 82.35 35.8 80.2 35.8 78.3 35.8 77.2 36.65 76 37.6 76 39.15 76 40.6 76.85 41.45 77.65 42.25 79.8 43 81.65 43.65 82.35 44.3 83 44.85 83 45.75 83 48.05 80.15 48.05 78.4 48.05 76.6 46.5
L 75.6 47.5
Q 77.5 49.4 80.15 49.4 82.15 49.4 83.35 48.3 84.55 47.25 84.55 45.7 84.55 44.2 83.75 43.35 82.95 42.45 80.7 41.7 78.7 41 78.05 40.45 77.5 39.95 77.5 39.1 77.5 37.15 80.05 37.15 81.65 37.15 83.35 38.4
M 87.75 39.9
L 88.2 41.05
Q 89.65 40.25 91 40.25 93.15 40.25 93.15 42.45
L 93.15 43.65
Q 92.1 43 90.7 43 89.1 43 88.05 43.8 86.85 44.6 86.85 46.15 86.85 49.4 90.05 49.4 91.7 49.4 93.15 47.95
L 93.15 49.15 94.6 49.15 94.6 42.3
Q 94.6 39.1 91.1 39.1 89.15 39.1 87.75 39.9
M 90.3 48.2
Q 88.2 48.2 88.2 46.1 88.2 44.2 90.6 44.2 92.3 44.2 93.15 44.75
L 93.15 46.7
Q 92.05 48.2 90.3 48.2
M 99.3 35.5
L 97.85 36.25 97.85 39.35 96.7 39.35 96.7 40.5 97.85 40.5 97.85 47.1
Q 97.85 49.4 99.8 49.4 100.65 49.4 101.65 49
L 101.7 47.8
Q 101.15 48.05 100.35 48.05 99.3 48.05 99.3 46.85
L 99.3 40.5 101.8 40.5 101.8 39.35 99.3 39.35 99.3 35.5
M 150.6 39.35
L 149.1 39.35 146.3 47.4 143.5 39.35 141.95 39.35 145.55 49.05 144.2 52.6 145.65 52.6 150.6 39.35
M 155.1 36.05
L 153.1 36.05 152.85 40.2 153.8 40.2 155.1 36.05
M 136.6 39.1
Q 134.7 39.1 133.25 39.9
L 133.85 41.05
Q 135.2 40.25 136.55 40.25 138.7 40.25 138.7 42.45
L 138.7 43.65
Q 137.8 43 136.2 43 134.6 43 133.6 43.8 132.4 44.6 132.4 46.15 132.4 49.4 135.6 49.4 137.25 49.4 138.7 47.95
L 138.7 49.15 140.15 49.15 140.15 42.3
Q 140.15 39.1 136.6 39.1
M 135.8 48.2
Q 133.75 48.2 133.75 46.1 133.75 44.2 136.15 44.2 137.8 44.2 138.7 44.75
L 138.7 46.7
Q 137.6 48.2 135.8 48.2
M 129.9 35.5
L 128.45 36.25 128.45 40.45
Q 127.25 39.1 125.7 39.1 124 39.1 122.95 40.45 121.85 41.85 121.85 44.35 121.85 49.4 125.45 49.4 127.05 49.4 128.45 47.95
L 128.45 49.15 129.9 49.15 129.9 35.5
M 125.85 48.15
Q 123.3 48.15 123.3 44.35 123.3 40.25 125.75 40.25 127.45 40.25 128.45 41.75
L 128.45 46.7
Q 127.25 48.15 125.85 48.15
M 229 180.25
Q 229 179.8 228.75 179.45 228.4 179.15 227.95 179.15 227.45 179.15 227.2 179.45 226.8 179.8 226.8 180.25 226.8 181.3 227.95 181.3 229 181.3 229 180.25
M 218.3 192.35
Q 217 194 217 195.95 217 197.6 217.8 198.6 218.65 199.6 220 199.6 221.25 199.6 221.95 198.85 222.65 198.15 223.35 196.2 223.95 194.65 224.5 194 225.05 193.4 225.85 193.4 227.8 193.4 227.8 195.95 227.8 197.5 226.4 199.1
L 227.4 199.95
Q 229 198.3 229 196 229 194.15 228.1 193.05 227.2 192.05 225.75 192.05 224.4 192.05 223.7 192.8 222.95 193.5 222.25 195.5 221.6 197.2 221.1 197.8 220.7 198.3 219.9 198.3 218.2 198.3 218.2 196 218.2 194.45 219.25 193.15
L 218.3 192.35
M 218.35 181.9
L 217.2 181.9 217.2 190.1 218.35 190.1 218.35 186.7 228.8 186.7 228.8 185.4 218.35 185.4 218.35 181.9
M 199.3 183.4
Q 194.45 183.4 192.5 186.35
L 192.5 184.05 187.45 184.05 187.45 210.4 192.5 210.4 192.5 195
Q 192.5 188.25 198.05 188.25 203.55 188.25 203.55 195.45
L 203.55 210.4 208.65 210.4 208.65 195.2
Q 208.65 183.4 199.3 183.4
M 171.35 183.4
Q 166.25 183.4 162.85 187 159.45 190.8 159.45 197.1 159.45 203.45 162.85 207.25 166.25 211.05 171.35 211.05 176.65 211.05 179.8 207.25 183.2 203.45 183.2 197.1 183.2 191 179.8 187.2 176.4 183.4 171.35 183.4
M 176.2 190.8
Q 177.9 193.1 177.9 197.1 177.9 200.9 176.2 203.45 174.3 205.95 171.55 205.95 164.75 205.95 164.75 197.1 164.75 193.1 166.45 190.8 168.35 188.25 171.15 188.25 174.3 188.25 176.2 190.8
M 227.05 77.65
L 227.05 63.7 166.9 63.7 163.55 111.5 179.3 117.55
Q 187.2 111.5 198.25 111.5 207.45 111.5 212.65 115.75 218.05 120.25 218.05 128.75 218.05 138.2 212.2 143.35 206.1 148.5 194.85 148.5 181.1 148.5 167.4 141.1
L 160.15 153.2
Q 175.25 162.85 194.4 162.85 211.95 162.85 222.1 154.35 232.9 145.35 232.9 128.1 232.9 114.2 224.6 106.1 215.55 97.35 199.15 97.35 187.4 97.35 178.2 102.3
L 180 77.65 227.05 77.65
M 189.6 40.25
Q 190.8 40.25 192 41.3
L 192.85 40.25
Q 191.5 39.1 189.65 39.1 187.9 39.1 186.7 40.35 185.35 41.75 185.35 44.3 185.35 46.7 186.65 48.15 187.85 49.4 189.6 49.4 191.5 49.4 192.8 47.95
L 191.9 47.1
Q 190.85 48.15 189.6 48.15 188.3 48.15 187.5 47.05 186.8 45.95 186.8 44.1 186.8 42.3 187.6 41.3 188.4 40.25 189.6 40.25
M 196.55 35.5
L 195.1 36.25 195.1 49.15 196.55 49.15 196.55 46.3 198.3 43.95 200.85 49.15 202.35 49.15 199.25 42.8 201.9 39.35 200.2 39.35 196.55 44.5 196.55 35.5
M 179.2 40.25
Q 181.35 40.25 181.35 42.45
L 181.35 43.65
Q 180.5 43 178.9 43 177.3 43 176.25 43.8 175.05 44.6 175.05 46.15 175.05 49.4 178.25 49.4 179.9 49.4 181.35 47.95
L 181.35 49.15 182.8 49.15 182.8 42.3
Q 182.8 39.1 179.3 39.1 177.35 39.1 175.95 39.9
L 176.5 41.05
Q 177.85 40.25 179.2 40.25
M 181.35 44.75
L 181.35 46.7
Q 180.25 48.2 178.5 48.2 176.4 48.2 176.4 46.1 176.4 44.2 178.8 44.2 180.5 44.2 181.35 44.75
M 162.35 41.15
L 163.15 40.1
Q 161.85 39.1 159.95 39.1 158.6 39.1 157.7 39.8 156.85 40.5 156.85 41.6 156.85 42.7 157.45 43.4 158.05 43.95 159.65 44.6 162.05 45.7 162.05 46.65 162.05 48.15 160.05 48.15 158.5 48.15 157.25 47.05
L 156.45 48.15
Q 158.1 49.4 159.95 49.4 161.4 49.4 162.35 48.7 163.4 47.95 163.4 46.55 163.4 45.4 162.6 44.65 162.1 44.2 160.45 43.4 159.05 42.85 158.65 42.45 158.2 42.15 158.2 41.55 158.2 40.25 159.85 40.25 161.05 40.25 162.35 41.15
M 171.15 39.35
L 171.15 48.9
Q 171.15 50.35 170.8 50.8 170.5 51.35 169.15 51.75
L 169.6 52.75
Q 171.45 52.3 172.1 51.45 172.55 50.7 172.55 48.9
L 172.55 39.35 171.15 39.35
M 171.95 35.55
Q 170.8 35.55 170.8 36.5 170.8 37.5 171.95 37.5 172.35 37.5 172.55 37.2 172.9 36.9 172.9 36.5 172.9 35.55 171.95 35.55
M 227.8 35.5
L 226.35 36.25 226.35 39.35 225.05 39.35 225.05 40.5 226.35 40.5 226.35 47.1
Q 226.35 49.4 228.25 49.4 229.15 49.4 230.1 49
L 230.2 47.8
Q 229.45 48.05 228.75 48.05 227.8 48.05 227.8 46.85
L 227.8 40.5 230.25 40.5 230.25 39.35 227.8 39.35 227.8 35.5
M 222.25 40.35
Q 221.15 39.1 219.25 39.1 217.3 39.1 216.1 40.45 214.85 41.75 214.85 44.2 214.85 46.65 216.05 48.05 217.25 49.4 219.15 49.4 221.05 49.4 222.25 48.05 223.55 46.55 223.55 44.1 223.55 41.75 222.25 40.35
M 222.1 44.2
Q 222.1 48.15 219.15 48.15 216.3 48.15 216.3 44.2 216.3 40.25 219.15 40.25 222.1 40.25 222.1 44.2
M 211.65 40.25
Q 210.7 39.1 209.1 39.1 207.35 39.1 206.05 40.5
L 206.05 39.35 204.6 39.35 204.6 52.75 206.05 52 206.05 48.05
Q 207.25 49.4 208.9 49.4 210.5 49.4 211.55 48.05 212.7 46.65 212.7 44.05 212.7 41.6 211.65 40.25
M 211.25 44.05
Q 211.25 48.15 208.75 48.15 207 48.15 206.05 46.65
L 206.05 41.75
Q 207.35 40.25 208.7 40.25 211.25 40.25 211.25 44.05 Z" data-gwd-node="true"></path>
</g>
</defs>

<g transform="matrix( 1, 0, 0, 1, 0,0) " data-gwd-node="true">
<use xlink:href="#Layer1_0_FILL" data-gwd-node="true"></use>
</g>
</svg>