
<svg xmlns="http://www.w3.org/2000/svg" version="1.1" xmlns:xlink="http://www.w3.org/1999/xlink" preserveAspectRatio="none" x="0px" y="0px" width="300px" height="250px" viewBox="0 0 300 250">
<defs>
<linearGradient id="Gradient_1" gradientUnits="userSpaceOnUse" x1="203.85" y1="91.525" x2="203.85" y2="46.574999999999996" spreadMethod="pad">
<stop  offset="0%" stop-color="#70A837"/>

<stop  offset="100%" stop-color="#9BC93A"/>
</linearGradient>

<linearGradient id="Gradient_2" gradientUnits="userSpaceOnUse" x1="271.97499999999997" y1="85.1" x2="273.425" y2="85.1" spreadMethod="pad">
<stop  offset="0%" stop-color="#70A837"/>

<stop  offset="100%" stop-color="#9BC93A"/>
</linearGradient>

<linearGradient id="Gradient_3" gradientUnits="userSpaceOnUse" x1="269.975" y1="85.1" x2="271.725" y2="85.1" spreadMethod="pad">
<stop  offset="0%" stop-color="#70A837"/>

<stop  offset="100%" stop-color="#9BC93A"/>
</linearGradient>

<linearGradient id="Gradient_4" gradientUnits="userSpaceOnUse" x1="268.34999999999997" y1="85.1" x2="270.05" y2="85.1" spreadMethod="pad">
<stop  offset="0%" stop-color="#70A837"/>

<stop  offset="100%" stop-color="#9BC93A"/>
</linearGradient>

<linearGradient id="Gradient_5" gradientUnits="userSpaceOnUse" x1="282" y1="85.1" x2="283.9" y2="85.1" spreadMethod="pad">
<stop  offset="0%" stop-color="#70A837"/>

<stop  offset="100%" stop-color="#9BC93A"/>
</linearGradient>

<linearGradient id="Gradient_6" gradientUnits="userSpaceOnUse" x1="280.34999999999997" y1="85.1" x2="282.05" y2="85.1" spreadMethod="pad">
<stop  offset="0%" stop-color="#70A837"/>

<stop  offset="100%" stop-color="#9BC93A"/>
</linearGradient>

<linearGradient id="Gradient_7" gradientUnits="userSpaceOnUse" x1="279.05" y1="85.1" x2="280.55" y2="85.1" spreadMethod="pad">
<stop  offset="0%" stop-color="#70A837"/>

<stop  offset="100%" stop-color="#9BC93A"/>
</linearGradient>

<linearGradient id="Gradient_8" gradientUnits="userSpaceOnUse" x1="276.90000000000003" y1="85.1" x2="278.8" y2="85.1" spreadMethod="pad">
<stop  offset="0%" stop-color="#70A837"/>

<stop  offset="100%" stop-color="#9BC93A"/>
</linearGradient>

<linearGradient id="Gradient_9" gradientUnits="userSpaceOnUse" x1="273.25" y1="85.1" x2="274.35" y2="85.1" spreadMethod="pad">
<stop  offset="0%" stop-color="#70A837"/>

<stop  offset="100%" stop-color="#9BC93A"/>
</linearGradient>

<linearGradient id="Gradient_10" gradientUnits="userSpaceOnUse" x1="274.325" y1="85.1" x2="277.075" y2="85.1" spreadMethod="pad">
<stop  offset="0%" stop-color="#70A837"/>

<stop  offset="100%" stop-color="#9BC93A"/>
</linearGradient>

<linearGradient id="Gradient_11" gradientUnits="userSpaceOnUse" x1="278.85" y1="80.80000000000001" x2="278.85" y2="60.1" spreadMethod="pad">
<stop  offset="0%" stop-color="#70A837"/>

<stop  offset="100%" stop-color="#9BC93A"/>
</linearGradient>

<linearGradient id="Gradient_12" gradientUnits="userSpaceOnUse" x1="246.4" y1="91.35" x2="246.4" y2="46.65" spreadMethod="pad">
<stop  offset="0%" stop-color="#70A837"/>

<stop  offset="100%" stop-color="#9BC93A"/>
</linearGradient>

<linearGradient id="Gradient_13" gradientUnits="userSpaceOnUse" x1="-576.1500000000001" y1="83.8" x2="1062.25" y2="83.8" spreadMethod="pad">
<stop  offset="0%" stop-color="#70A837"/>

<stop  offset="100%" stop-color="#9BC93A"/>
</linearGradient>

<linearGradient id="Gradient_14" gradientUnits="userSpaceOnUse" x1="232.5" y1="165.8" x2="232.5" y2="57.199999999999996" spreadMethod="pad">
<stop  offset="0%" stop-color="#70A837"/>

<stop  offset="100%" stop-color="#9BC93A"/>
</linearGradient>

<linearGradient id="Gradient_15" gradientUnits="userSpaceOnUse" x1="178.975" y1="116.75" x2="188.42499999999998" y2="116.75" spreadMethod="pad">
<stop  offset="0%" stop-color="#70A837"/>

<stop  offset="100%" stop-color="#9BC93A"/>
</linearGradient>

<g id="Layer2_0_FILL">
<path fill="#505F68" stroke="none" d="
M 180.45 221.1
Q 179.75 220.45 178.45 220.45 175.4 220.45 174.95 223.8
L 174.85 224.8
Q 174.85 227.55 177.65 227.55 180.7 227.55 181.15 224.2 181.25 223.85 181.25 223.15 181.25 221.85 180.45 221.1
M 178.75 225.6
Q 178.4 226.05 177.75 226.05 176.75 226.05 176.75 224.85
L 176.8 224
Q 177.2 221.95 178.35 221.95 179.35 221.95 179.35 223.15
L 179.3 224
Q 179.1 225.15 178.75 225.6
M 171.3 222.2
Q 171.4 222 171.65 220.65 170.95 220.45 169.9 220.45 168.45 220.45 167.65 221.15 166.9 221.85 166.9 222.85 166.9 224.05 168.15 224.55 169.4 225.1 169.4 225.35 169.4 225.95 168.65 225.95 167.55 225.95 166.75 225.5 166.45 225.85 166.15 227.05 167 227.55 168.25 227.55 169.65 227.55 170.45 226.9 171.25 226.25 171.25 225.15 171.25 223.95 170 223.4 168.7 222.85 168.7 222.55 168.7 221.95 169.5 221.95 170.55 221.95 171.3 222.2
M 197.25 221.2
L 197.15 221.2 197.8 217.65 196 217.8 194.3 227.45 196.1 227.45 196.95 222.35
Q 197.6 221.95 198.15 221.95 199 221.95 199 222.6
L 199 222.8 198.2 227.45 200 227.45 200.85 222.55 200.9 222
Q 200.9 220.45 199.1 220.45 198 220.45 197.25 221.2
M 190.75 219.15
L 190.55 220.6 189.75 220.6 189.45 222.1 190.25 222.1 189.7 225.1 189.65 225.75
Q 189.65 227.55 191.65 227.55 192.6 227.55 193.2 227.3
L 193.25 225.7
Q 192.8 225.9 192.2 225.9 191.5 225.9 191.5 225.45
L 191.5 225.2 192 222.1 193.7 222.1
Q 193.85 221.75 194.1 220.6
L 192.3 220.6 192.6 218.85
Q 191.55 218.95 190.75 219.15
M 186.75 219.3
Q 187.05 218.5 187.05 217.7
L 186.15 217.65
Q 183.95 217.65 183.5 220.1
L 183.4 220.6 182.6 220.6 182.35 222.1 183.1 222.1 182.2 227.45 183.95 227.45 184.85 222.1 186.25 222.1
Q 186.55 221.05 186.6 220.6
L 185.15 220.6 185.25 219.95
Q 185.4 219.25 186.05 219.25
L 186.75 219.3
M 241.4 224.5
Q 241.7 223.65 241.7 222.8 241.7 220.45 239.25 220.45 236.45 220.45 235.8 223.95
L 235.75 224.85
Q 235.75 227.55 238.55 227.55 240 227.55 240.85 227.15
L 240.75 225.5
Q 239.7 225.9 238.9 225.9 237.6 225.9 237.6 224.95
L 237.65 224.5 241.4 224.5
M 239.1 221.8
Q 239.95 221.8 239.95 222.65
L 239.85 223.35 237.85 223.35
Q 238.15 221.8 239.1 221.8
M 204.75 227.55
Q 206.15 227.55 207.1 227.15 207.1 226.9 206.95 225.5 205.9 225.9 205.05 225.9 203.75 225.9 203.75 224.95
L 203.8 224.5 207.55 224.5
Q 207.85 223.65 207.85 222.8 207.85 220.45 205.4 220.45 202.6 220.45 202 223.95
L 201.95 224.85
Q 201.95 227.55 204.75 227.55
M 205.25 221.8
Q 206.1 221.8 206.1 222.65
L 206.05 223.35 204 223.35
Q 204.35 221.8 205.25 221.8
M 220.85 220.45
Q 219.8 220.45 219.05 220.7
L 218.95 221.65 219 222.3
Q 219.65 222 220.5 222 221.35 222 221.8 222.25
L 221.6 223.45 220.5 223.5
Q 219.15 223.55 218.55 223.9 217.8 224.35 217.6 225.35
L 217.55 225.8
Q 217.55 227.55 219.45 227.55 220.55 227.55 221.35 226.75
L 221.4 226.75
Q 221.65 227.55 222.7 227.55 223.7 227.55 223.9 226.4
L 224 225.75 223.35 225.75
Q 222.95 225.75 222.95 225.5
L 223 225.3 223.7 221.25
Q 222.65 220.45 220.85 220.45
M 220.35 224.65
L 221.45 224.6 221.2 225.85
Q 220.7 226.2 220.05 226.2 219.35 226.2 219.35 225.6
L 219.35 225.4
Q 219.55 224.65 220.35 224.65
M 215.55 220.6
Q 215.05 220.45 214.35 220.45 213.1 220.45 212.3 221.15 211.55 221.9 211.55 223.15 211.55 224 212.05 224.5 211.45 225.2 211.05 226 211.1 226.5 211.4 227 210.45 227.65 210.45 228.5 210.45 230.25 213.15 230.25 214.75 230.25 215.65 229.6 216.6 228.95 216.6 227.8 216.6 225.95 214.5 225.95
L 213.05 225.95
Q 212.8 225.95 212.8 225.75 212.8 225.5 213.2 225.05 213.55 225.2 214.15 225.2 215.3 225.2 216.05 224.55 216.8 223.95 216.8 222.75 216.8 222.3 216.65 222
L 216.65 221.95 217.45 221.9 217.75 220.6 215.55 220.6
M 214.35 221.75
Q 215.15 221.75 215.15 222.6 215.15 223.9 214.05 223.9 213.25 223.9 213.25 223.1 213.25 221.75 214.35 221.75
M 214.45 227.5
Q 214.9 227.5 214.9 227.95 214.9 228.85 213.35 228.85 212.15 228.85 212.15 228.05 212.15 227.8 212.3 227.5
L 214.45 227.5
M 227.7 221.2
L 227.6 221.2 227.7 220.55
Q 227 220.55 225.95 220.65
L 224.75 227.45 226.5 227.45 227.45 222.35
Q 228.05 221.95 228.55 221.95 229.25 221.95 229.25 222.55
L 228.4 227.45 230.15 227.45 231.05 222.35
Q 231.55 221.95 232.1 221.95 232.85 221.95 232.85 222.6
L 232.85 222.8 232.05 227.45 233.8 227.45 234.65 222.55 234.7 222
Q 234.7 220.45 232.95 220.45 231.85 220.45 230.95 221.35 230.75 220.45 229.55 220.45 228.5 220.45 227.7 221.2
M 278.15 230.45
Q 278.35 228.55 278.35 227.9 278.35 222.8 273.8 222.8 271.3 222.8 269.75 224.65 268.25 226.5 268.25 229.6 268.25 231.55 269.25 232.65 270.2 233.6 271.7 233.6 273.25 233.6 274.3 232.5
L 274.45 232.5
Q 273.95 234.8 273.05 235.7 272.3 236.4 270.9 236.4 269.45 236.4 268.3 236.15 267.75 237.45 267.75 239.15 269.05 239.55 270.7 239.55 273.7 239.55 275.45 237.55 277.45 235.35 278.15 230.45
M 273.7 225.6
Q 275.25 225.6 275.25 227.55 275.25 230.95 273.2 230.95 271.45 230.95 271.45 229.15 271.45 225.6 273.7 225.6
M 244.3 226.4
Q 244.3 225.55 243.5 225.55 242.3 225.55 242.3 226.7 242.3 227.55 243.15 227.55 244.3 227.55 244.3 226.4
M 260.85 233.05
L 257 233.05 256.45 236.2 265.95 236.2
Q 266.55 234.65 266.75 233.05
L 264 233.05 265.75 223.05 262.75 223.05 258.7 223.85
Q 258.5 224.8 258.5 225.5
L 258.6 226.6 262.05 226.2 260.85 233.05
M 289.6 230.75
L 290 228.45 286.2 228.45 286.95 224.15 284.65 224.15 283.9 228.45 280.05 228.45 279.7 230.75 283.45 230.75 282.7 235.05 285.05 235.05 285.8 230.75 289.6 230.75
M 18.1 214.8
L 13.25 214.8 13.25 231.35
Q 13.25 235.15 15.95 237.85 18.65 240.55 22.5 240.55 26.3 240.55 29 237.85 31.7 235.15 31.7 231.35 31.7 227.55 29 224.85 26.3 222.15 22.5 222.15 20.15 222.15 18.1 223.25
L 18.1 214.8
M 17.6 231.35
Q 17.6 229.35 19.05 227.9 20.45 226.5 22.5 226.5 24.5 226.5 25.9 227.9 27.35 229.35 27.35 231.35 27.35 233.35 25.9 234.8 24.5 236.2 22.5 236.2 20.45 236.2 19.05 234.8 17.6 233.35 17.6 231.35
M 41.85 226.5
Q 43.25 226.5 44.45 227.25 45.6 227.95 46.2 229.15
L 49.95 226.95
Q 48.75 224.8 46.65 223.5 44.45 222.15 41.85 222.15 38.05 222.15 35.35 224.85 32.65 227.55 32.65 231.35 32.65 235.15 35.35 237.85 38.05 240.55 41.85 240.55 44.5 240.55 46.75 239.15 48.9 237.8 50.1 235.5
L 46.3 233.3
Q 45.75 234.6 44.55 235.4 43.35 236.2 41.85 236.2 39.85 236.2 38.45 234.8 37 233.35 37 231.35 37 229.35 38.45 227.9 39.85 226.5 41.85 226.5
M 59.5 224.85
Q 56.8 227.55 56.8 231.35 56.8 235.2 59.5 237.85 62.2 240.55 66 240.55 68.65 240.55 70.9 239.15 73.05 237.8 74.2 235.5
L 70.45 233.3
Q 69.9 234.6 68.7 235.4 67.5 236.2 66 236.2 64 236.2 62.55 234.8 61.15 233.4 61.15 231.35 61.15 229.35 62.55 227.9 64 226.5 66 226.5 68.95 226.5 70.35 229.15
L 74.1 226.95
Q 72.9 224.8 70.8 223.5 68.6 222.15 66 222.15 62.2 222.15 59.5 224.85
M 55.9 214.8
L 51.1 214.8 51.1 235.75
Q 51.1 237.75 52.5 239.15 53.9 240.55 55.9 240.55
L 55.9 214.8
M 101.2 222
Q 101.2 220.45 99.4 220.45 98.3 220.45 97.55 221.2
L 97.45 221.2 97.6 220.55
Q 96.85 220.55 95.75 220.65
L 94.6 227.45 96.35 227.45 97.25 222.35
Q 97.9 221.95 98.45 221.95 99.3 221.95 99.3 222.55
L 99.3 222.8 98.5 227.45 100.3 227.45 101.2 222
M 90 218.55
L 88.1 218.55 86.5 227.45 88.45 227.45 88.9 224.75 90.05 223.6 91.55 227.5 93.5 227.35
Q 92.65 224.8 91.45 222.2
L 94.95 218.65 92.85 218.5 91.6 219.75
Q 90.1 221.5 89.45 222.4
L 89.35 222.4 90 218.55
M 107.85 221.1
Q 107.15 220.45 105.85 220.45 102.85 220.45 102.3 223.8
L 102.2 224.8
Q 102.2 226.15 103 226.85 103.75 227.55 105.05 227.55 108 227.55 108.6 224.2
L 108.7 223.15
Q 108.7 221.85 107.85 221.1
M 106.75 223.15
L 106.65 224
Q 106.35 226.05 105.15 226.05 104.1 226.05 104.1 224.85
L 104.2 224
Q 104.55 221.95 105.7 221.95 106.75 221.95 106.75 223.15
M 119.5 220.65
Q 118.65 220.55 117.95 220.55
L 116.55 224.4 116.3 225.35 116.25 225.35 115.8 220.6 114.05 220.6 112.25 224.45 111.95 225.35 111.85 225.35 111.95 220.55
Q 111.3 220.55 110.25 220.65
L 110.2 222.75
Q 110.2 225.5 110.45 227.45
L 112.25 227.45 114.1 223.55
Q 114.2 223.4 114.45 222.6
L 114.55 222.6 115.05 227.45 116.9 227.45
Q 118.4 224.15 119.5 220.65
M 150.8 233.4
Q 149.5 233.4 148.7 234 147.9 234.6 147.7 235.7 147.55 236.7 148.05 237.4 148.65 238.1 150 238.1
L 151.25 238.1 151.25 238.15
Q 151.55 238.15 151.6 238.3 151.8 238.5 151.7 238.65
L 151.7 238.75
Q 151.55 239.2 151 239.2
L 147.3 239.2 147 241 150.75 241
Q 153.25 241 153.65 238.65 153.85 237.55 153.3 236.95 152.7 236.2 151.4 236.2
L 150.1 236.2
Q 149.85 236.2 149.7 236.1 149.6 235.9 149.65 235.7
L 149.65 235.6
Q 149.85 235.15 150.3 235.15
L 153.75 235.15 154 233.4 150.8 233.4
M 161.25 234.3
Q 160.5 233.4 158.75 233.4 157.1 233.4 155.95 234.4 154.85 235.4 154.55 237.25 154.25 239.05 155.1 240.05 155.95 240.95 157.45 240.95
L 160.55 240.95 160.85 239.2 157.7 239.2
Q 157.05 239.2 156.75 238.9 156.5 238.6 156.5 238.1
L 161.65 238.1 161.9 236.25
Q 161.9 235.05 161.25 234.3
M 159.85 236.3
L 159.85 236.35 156.85 236.35
Q 157.3 235.15 158.65 235.15 159.35 235.15 159.65 235.45 159.85 235.7 159.85 236.3
M 159.25 224
L 159.15 224.95
Q 159.15 227.55 161.25 227.55 162.15 227.55 162.85 226.85
L 162.9 226.85 162.85 227.45 164.55 227.45 166.3 217.65 164.5 217.8 164 220.65
Q 163.4 220.45 162.8 220.45 159.75 220.45 159.25 224
M 161.05 224.9
Q 161.05 224.3 161.15 223.95 161.55 221.95 162.8 221.95 163.3 221.95 163.75 222.15
L 163.15 225.75
Q 162.65 226 162.05 226 161.05 226 161.05 224.9
M 140.1 236.7
L 139.5 240.95 141.55 240.95 142.2 236.7
Q 142.3 236.2 142.7 235.8 143.1 235.45 143.6 235.45 144.75 235.45 144.6 236.7
L 143.9 240.95 146 240.95 146.7 236.7
Q 146.9 235.15 146.15 234.3 145.45 233.4 143.95 233.4 142.5 233.4 141.4 234.35 140.35 235.25 140.1 236.7
M 124.5 232.15
Q 123.55 232.9 123.3 234.25
L 123.25 234.85
Q 123.25 235.7 123.75 236.3 124.5 237.2 126.15 237.2
L 127.75 237.2
Q 128.45 237.2 128.75 237.45 128.9 237.6 128.9 238
L 128.9 238.25
Q 128.8 239.15 127.45 239.15
L 123.1 239.15 122.8 240.95 123.1 240.95 122.95 241 127.55 241
Q 130.5 241 131.05 238.35
L 131.15 237.45
Q 131.15 236.55 130.65 236.05 129.9 235.1 128.25 235.1
L 126.6 235.1
Q 125.9 235.1 125.65 234.9 125.5 234.7 125.5 234.3 125.5 233.4 127 233.4
L 131.3 233.4 131.6 231.4 127.05 231.4
Q 125.45 231.4 124.5 232.15
M 136.2 233.4
Q 134.5 233.4 133.4 234.4 132.25 235.4 131.95 237.25 131.65 239.05 132.5 240.05 133.35 240.95 134.85 240.95
L 137.95 240.95 138.25 239.2 135.15 239.2
Q 134.45 239.2 134.15 238.9 133.9 238.6 133.9 238.1
L 139.05 238.1 139.3 236.25
Q 139.3 235 138.65 234.3 137.9 233.4 136.2 233.4
M 137.25 236.3
L 137.25 236.35 134.25 236.35
Q 134.75 235.15 136.05 235.15 136.85 235.15 137.05 235.45 137.25 235.7 137.25 236.3
M 140.75 224.5
Q 141 223.55 141 222.8 141 220.45 138.6 220.45 135.85 220.45 135.2 223.95
L 135.1 224.85
Q 135.1 227.55 137.95 227.55 139.4 227.55 140.25 227.15 140.25 226.2 140.1 225.5 139.15 225.9 138.25 225.9 137 225.9 137 224.95
L 137.05 224.5 140.75 224.5
M 138.45 221.8
Q 139.35 221.8 139.35 222.65
L 139.2 223.35 137.2 223.35
Q 137.5 221.8 138.45 221.8
M 130.45 221.2
L 130.35 221.2 131 217.65
Q 129.95 217.65 129.2 217.8
L 127.5 227.45 129.25 227.45 130.15 222.35
Q 130.8 221.95 131.35 221.95 132.25 221.95 132.25 222.6
L 131.35 227.45 133.15 227.45 134 222.55 134.05 222
Q 134.05 220.45 132.35 220.45 131.25 220.45 130.45 221.2
M 125.45 220.6
L 125.8 218.85
Q 124.8 218.95 124 219.15
L 123.7 220.6 122.95 220.6 122.7 222.1 123.45 222.1 122.85 225.75
Q 122.85 227.55 124.85 227.55 125.75 227.55 126.4 227.3
L 126.5 226.35 126.45 225.7
Q 125.95 225.9 125.4 225.9 124.65 225.9 124.65 225.45
L 124.65 225.2 125.25 222.1 126.9 222.1
Q 127.2 221.2 127.25 220.6
L 125.45 220.6
M 150.05 221.1
Q 149.25 220.45 147.95 220.45 145.05 220.45 144.45 223.8
L 144.35 224.8
Q 144.35 227.55 147.2 227.55 150.2 227.55 150.75 224.2
L 150.85 223.15
Q 150.85 221.85 150.05 221.1
M 148.95 223.15
L 148.85 224
Q 148.45 226.05 147.35 226.05 146.3 226.05 146.3 224.85 146.3 224.35 146.4 224 146.7 221.95 147.9 221.95 148.95 221.95 148.95 223.15
M 158.85 217.65
L 157.05 217.8 156.55 220.65
Q 155.9 220.45 155.3 220.45 152.3 220.45 151.75 224
L 151.7 224.95
Q 151.7 227.55 153.8 227.55 154.7 227.55 155.35 226.85
L 155.45 226.85 155.35 227.45 157.15 227.45 158.85 217.65
M 155.3 221.95
Q 155.9 221.95 156.25 222.15
L 155.65 225.75
Q 155.15 226 154.55 226 153.6 226 153.6 224.9
L 153.7 223.95
Q 154.05 221.95 155.3 221.95 Z"/>

<path fill="#C62E40" stroke="none" d="
M 22.55 234.35
Q 23.8 234.35 24.65 233.45 25.55 232.6 25.55 231.35 25.55 230.1 24.65 229.25 23.8 228.35 22.55 228.35 21.3 228.35 20.45 229.25 19.55 230.1 19.55 231.35 19.55 232.6 20.45 233.45 21.3 234.35 22.55 234.35 Z"/>

<path fill="#91C84B" stroke="none" d="
M 63 231.35
Q 63 232.6 63.9 233.45 64.75 234.35 66 234.35 67.25 234.35 68.1 233.45 69 232.6 69 231.35 69 230.1 68.1 229.25 67.25 228.35 66 228.35 64.75 228.35 63.9 229.25 63 230.1 63 231.35
M 113.9 234.3
Q 113.2 233.4 111.7 233.4 110.4 233.4 109.35 234.35 108.65 233.4 107.25 233.4 105.8 233.4 104.75 234.3 103.7 235.2 103.45 236.65
L 102.8 240.95 104.85 240.95 105.55 236.6
Q 105.65 236.15 106.05 235.8 106.4 235.45 106.95 235.45 108.05 235.45 107.9 236.6
L 107.2 240.95 109.25 240.95 109.95 236.6
Q 110.05 236.15 110.45 235.8 110.85 235.45 111.35 235.45 112.5 235.45 112.35 236.6
L 111.65 240.95 113.7 240.95 114.45 236.65
Q 114.65 235.15 113.9 234.3
M 100 233.4
L 96.6 233.4 96.3 235.1 99.95 235.1
Q 100.4 235.1 100.4 235.35 100.45 235.5 100.35 236.2
L 98.05 236.2
Q 95.35 236.2 94.95 238.6 94.55 240.95 97.3 240.95
L 101.6 240.95 102.3 236.7
Q 102.8 233.4 100 233.4
M 100.1 237.85
L 99.9 239.2 97.7 239.2
Q 96.75 239.2 96.85 238.55 96.95 237.85 97.95 237.85
L 100.1 237.85
M 95.5 231.4
L 91.5 231.45
Q 89.25 231.45 87.7 232.65 86.2 233.95 85.9 236.2 85.55 238.4 86.65 239.7 87.75 240.95 90 240.95
L 93.95 240.95 94.85 235.1 90.6 235.1 90.25 237.2 92.4 237.2 92.1 238.9 90 238.9
Q 88.8 238.9 88.3 238.05 87.85 237.35 88 236.4
L 88.05 236
Q 88.25 234.75 89.2 234 89.95 233.4 90.9 233.4
L 95.1 233.4 95.5 231.4
M 122.4 237.25
Q 122.5 236.9 122.5 236.25 122.5 235 121.85 234.3 121.1 233.4 119.4 233.4 117.7 233.4 116.6 234.4 115.45 235.4 115.15 237.25 114.85 239.05 115.75 240.05 116.55 240.95 118.1 240.95
L 121.15 240.95 121.45 239.2 118.35 239.2
Q 117.65 239.2 117.35 238.9 117.2 238.65 117.1 238.1
L 122.3 238.1 122.4 237.25
M 120.55 236.3
L 120.55 236.35 117.45 236.35
Q 117.95 235.15 119.3 235.15 120 235.15 120.3 235.45 120.55 235.8 120.55 236.3 Z"/>

<path fill="#F47C36" stroke="none" d="
M 44.85 231.35
Q 44.85 230.1 43.95 229.25 43.1 228.35 41.85 228.35 40.6 228.35 39.75 229.25 38.85 230.1 38.85 231.35 38.85 232.6 39.75 233.45 40.6 234.35 41.85 234.35 43.1 234.35 43.95 233.45 44.85 232.6 44.85 231.35 Z"/>

<path fill="#FFFFFF" stroke="none" d="
M 118.8 144.75
L 118.95 144.15 117.1 144.15 116.25 147.85 118.2 147.85 118.35 147.2 117.3 147.2 117.55 146.3 118.45 146.3 118.6 145.6 117.65 145.6 117.85 144.75 118.8 144.75
M 94.45 121
L 88.25 121 83.2 142.85 89.45 142.85 94.45 121
M 108.8 121.9
Q 107 120.7 103.35 120.7 100.9 120.6 99.25 121.3 97.6 121.9 96.55 123.35 95.55 124.75 95.05 127.1
L 93.2 135
Q 92.95 136.05 92.85 136.75 92.75 137.5 92.75 138.2 92.75 139.45 93.2 140.35 93.7 141.35 94.75 141.9 95.75 142.5 97.1 142.85 98.5 143.2 100.1 143.2 102.55 143.2 104.3 142.5 106.1 141.75 106.95 140.5 107.4 139.7 107.85 138.6 108.2 137.5 108.6 136.05
L 110.2 128.85
Q 110.55 127.75 110.6 127 110.7 126.35 110.7 125.7 110.7 123.2 108.8 121.9
M 98.8 137.45
Q 98.9 137.25 98.95 137
L 101.3 126.7
Q 101.45 126 101.65 125.7 101.8 125.35 102.05 125.15 102.3 125 102.55 124.9 102.85 124.8 103.2 124.8 103.9 124.8 104.25 125.15 104.6 125.45 104.6 126.05 104.6 126.15 104.55 126.35 104.55 126.55 104.5 126.85
L 102.1 137.1
Q 101.95 137.8 101.8 138.2 101.65 138.5 101.4 138.7 101.2 138.85 100.9 138.95 100.6 139.05 100.3 139.05 99.55 139.05 99.2 138.7 98.8 138.4 98.8 137.8 98.8 137.7 98.8 137.45
M 121.65 145.3
L 121.7 144.75
Q 121.7 144.1 120.6 144.1 119.9 144.1 119.75 144.4 119.35 144.75 119.35 145.45 119.35 145.8 119.8 146.05
L 120.2 146.4
Q 120.45 146.55 120.45 146.7 120.45 147.3 120.1 147.3 119.8 147.3 119.8 147.1
L 119.85 146.6 119 146.6 118.9 147.2
Q 118.9 147.95 120.05 147.95 120.75 147.95 121.1 147.55 121.4 147.25 121.4 146.6 121.4 146.35 120.95 145.9
L 120.45 145.55
Q 120.2 145.45 120.2 145.25 120.2 144.7 120.6 144.7 120.85 144.7 120.85 144.95
L 120.75 145.3 121.65 145.3
M 124.25 144.75
L 124.45 144.15 122.25 144.15 122.05 144.75 122.8 144.75 122.05 147.85 122.95 147.85 123.65 144.75 124.25 144.75
M 129.2 121
L 124.05 121 120.9 135.05 119.75 121 114.05 121 109 142.85 114.15 142.85 117.25 128.95 118.4 142.85 124.2 142.85 129.2 121
M 75.35 121
L 70.3 142.85 82.05 142.85 83.05 138.7 77.35 138.7 81.45 121 75.35 121
M 60.15 121
L 54 121 48.95 142.85 55.15 142.85 60.15 121
M 51.65 121
L 43.95 121 37.95 135.45 38.4 121 30.8 121 25.7 142.85 30.85 142.85 34.25 128.2 34.25 142.85 38.15 142.85 45 127.85 41.5 142.85 46.7 142.85 51.65 121
M 68.5 121
L 62.4 121 57.35 142.85 69.15 142.85 70.1 138.7 64.45 138.7 68.5 121
M 36.1 49.1
Q 36.35 48.3 36.35 47.4 36.35 44.7 32.65 44.1
L 33.4 40.85 30.6 40.85 29.8 44.1
Q 26.85 44.2 25.7 45.6 23.9 47.65 23.9 50 23.9 52.05 25.45 53.2
L 28.55 56
Q 29.2 56.5 29.2 57.3 29.2 58.3 28.8 58.8 28.4 59.45 27.75 59.45 26.6 59.45 26.6 58.45
L 27 56.65 21.9 56.65 21.6 57.4 21.35 59.35
Q 21.35 62.4 25.45 62.8
L 24.7 66.5 27.5 66.5 28.3 62.8 29.8 62.65
Q 31.35 62.3 32.25 61.5 33.55 60.75 34.15 58.3 34.45 57.65 34.45 56.4 34.45 55 33.4 53.55
L 29.95 50.5
Q 29.05 49.85 29.05 49.1 29.05 47.55 30.35 47.55 31.5 47.55 31.5 48.3
L 31.1 50.1 35.85 50.1 36.1 49.1
M 53.6 24.25
L 49.35 24.25 47.35 32.8 49.4 32.8 50.25 29.15 52.4 29.15 52.75 27.7 50.55 27.7 51.05 25.75 53.25 25.75 53.6 24.25
M 57.3 24.25
L 54.35 24.25 52.4 32.8 54.45 32.8 55.3 29.2 55.65 29.2 56.2 32.8 58.25 32.8 57.5 29.1
Q 57.9 28.95 58.2 28.7 58.5 28.55 58.7 28.25 58.8 28 58.9 27.7 59.05 27.3 59.15 26.85 59.25 26.45 59.3 26.1 59.35 25.8 59.35 25.55 59.35 24.9 58.85 24.55 58.35 24.25 57.3 24.25
M 57.2 25.85
Q 57.35 25.9 57.35 26.1 57.35 26.2 57.35 26.4 57.3 26.5 57.3 26.75 57.2 27 57.15 27.15 57.15 27.25 57.1 27.3 56.95 27.55 56.8 27.6 56.6 27.75 56.3 27.75
L 55.65 27.75 56.1 25.75 56.8 25.75
Q 57.1 25.75 57.2 25.85
M 62.95 24.25
L 60.85 24.25 58.9 32.8 61 32.8 62.95 24.25
M 75.3 24.25
L 71.95 24.25 68.3 32.8 70.55 32.8 71.3 30.9 72.8 30.9 72.7 32.8 74.7 32.8 75.3 24.25
M 71.8 29.45
L 73.35 25.05 73 29.45 71.8 29.45
M 67.1 24.25
L 64.25 24.25 62.2 32.8 65.85 32.8
Q 66.75 32.8 67.15 32.6 67.65 32.45 67.8 31.95 68.05 31.5 68.25 30.75
L 69.15 26.5
Q 69.25 26.35 69.3 26.15 69.3 25.9 69.3 25.75 69.3 25.05 69 24.75 68.6 24.45 68.15 24.35 67.65 24.25 67.1 24.25
M 67.05 25.85
Q 67.15 25.9 67.2 26.2
L 67.15 26.3
Q 67.15 26.35 67.15 26.4
L 66.25 30.55
Q 66.1 31.05 65.85 31.2 65.7 31.4 65.15 31.4
L 64.65 31.4 65.95 25.75 66.65 25.75
Q 66.9 25.75 67.05 25.85
M 78.6 24.25
L 76.6 24.25 77.4 29.9 76.75 32.8 78.75 32.8
Q 78.85 32.3 79 31.75 79.1 31.3 79.25 30.8 79.25 30.65 79.25 30.55 79.3 30.4 79.3 30.25 79.35 30.1 79.35 30 79.65 29.5 79.95 29.1 80.25 28.6 80.55 28.1
L 82.95 24.25 80.65 24.25 78.85 27.75 78.6 24.25
M 86.7 60.25
Q 87.6 56.25 87.6 55 87.6 48.45 81.95 44.85 76.45 41.25 66.2 41.25 55.7 41.25 49.4 45.25 45.7 47.65 43.5 51.75 41.35 55.6 39.7 62.4
L 33.15 90.5
Q 31.75 96.9 31.75 100 31.75 107.4 37.25 111.25 42.9 115.1 53.5 115.1 69.9 115.1 75.4 105.5 77.85 101.5 79.5 94.6
L 81.2 87.65
Q 81.95 84.1 81.95 80.9 81.95 75.35 78.6 72.55 75.3 69.6 69 69.6 59.9 69.6 55.3 75.35
L 59.25 58.8
Q 60.3 53.8 64.9 53.8 69.25 53.8 69.25 57.15
L 69 59.1 67.85 64.1 85.9 64.1 86.7 60.25
M 52.85 85.9
Q 54.15 80.5 59 80.5 63 80.5 63 83.95
L 62.75 86.5 59.9 98.3
Q 59.15 101.4 57.85 102.7 56.6 103.95 54.15 103.95 49.8 103.95 49.8 100.35 49.8 99.35 50.3 97.4
L 52.85 85.9
M 119.1 41.25
Q 107.7 41.25 101.3 46.25 95.9 50.75 93.6 60.5
L 86.7 91.4
Q 85.15 97.8 85.15 101.25 85.15 108.2 91.05 112.05 96.8 115.75 107.55 115.75 119.1 115.75 124.6 111.4 130.1 106.9 132.65 95.5
L 139.95 63.95
Q 141 59.1 141 55.9 141 48.95 135.25 45.1 129.6 41.25 119.1 41.25
M 114.6 54.1
Q 115.9 52.8 118.45 52.8 123.05 52.8 123.05 56.25 123.05 57.95 122.55 59.6
L 113.6 98.45
Q 112.8 101.9 111.55 103.2 110.25 104.45 107.55 104.45 103.1 104.45 103.1 101 103.1 99.35 103.6 97.8
L 112.55 58.8
Q 113.3 55.35 114.6 54.1
M 85.4 24.25
L 83.55 24.25 83.15 26.1 83.8 26.1 82.7 28 83.5 28 84.95 26.1 85.4 24.25
M 99.15 24.25
L 97.1 24.25 95.75 30.25
Q 95.65 30.65 95.55 30.85 95.45 31.1 95.2 31.15 95 31.3 94.6 31.3 94.45 31.3 94.35 31.3 94.25 31.3 94.1 31.3
L 93.75 32.8 95 32.8
Q 95.55 32.8 96.05 32.75 96.5 32.6 96.85 32.4 97.15 32.05 97.4 31.5 97.5 31.3 97.6 31.05 97.65 30.8 97.7 30.5
L 99.15 24.25
M 88.7 24.15
Q 88.15 24.15 87.6 24.25 87.05 24.4 86.65 24.8 86.4 25.05 86.25 25.5 86.05 25.9 86 26.4 85.85 26.9 85.85 27.2 85.85 27.4 85.85 27.55 85.95 27.75 86 27.9 86.1 28.15 86.5 28.4 86.8 28.7 87.15 28.95 87.45 29.2 87.7 29.4 87.95 29.5 88.15 29.75 88.3 29.95 88.35 30.25 88.35 30.35 88.3 30.6 88.25 30.8 88.2 30.95 88.15 31.2 88 31.3 87.9 31.4 87.75 31.45 87.6 31.5 87.45 31.5 87.15 31.5 86.95 31.4 86.85 31.3 86.85 30.95 86.85 30.75 86.9 30.4 86.95 30.1 87.1 29.9
L 85 29.9
Q 84.9 30.2 84.85 30.55 84.75 30.9 84.75 31.3 84.75 31.85 85 32.15 85.25 32.5 85.65 32.7 86.05 32.8 86.5 32.85 86.95 32.9 87.4 32.9 87.8 32.9 88.25 32.85 88.7 32.8 89.1 32.7 89.45 32.5 89.75 32.15 89.95 31.9 90.15 31.5 90.25 31.1 90.4 30.75 90.45 30.3 90.45 29.95 90.45 29.8 90.45 29.65 90.4 29.45 90.3 29.25 90.2 29 89.95 28.85 89.7 28.6 89.55 28.45 89.4 28.35 89.15 28.15 89 28 88.7 27.8 88.45 27.6 88.25 27.5 88.05 27.3 88 27.25 87.95 27.15 87.9 27.05 87.9 26.95 87.9 26.85 87.9 26.7 87.95 26.6 87.95 26.4 88 26.2 88.05 26.05 88.05 25.95 88.2 25.8 88.35 25.65 88.5 25.6 88.7 25.6 88.9 25.6 89.1 25.75 89.25 25.85 89.25 26.05 89.25 26.3 89.15 26.5 89.1 26.75 89.05 27
L 91.05 27
Q 91.1 26.7 91.2 26.35 91.25 26.05 91.25 25.75 91.25 25.2 91 24.9 90.75 24.55 90.4 24.4 89.95 24.25 89.55 24.2 89.1 24.15 88.7 24.15
M 104.9 24.25
L 101.55 24.25 97.9 32.8 100.15 32.8 100.85 30.9 102.4 30.9 102.25 32.8 104.3 32.8 104.9 24.25
M 101.35 29.45
L 102.95 25.05 102.6 29.45 101.35 29.45
M 115.15 24.25
L 113.05 24.25 111.1 32.8 113.2 32.8 114.2 28.25 115 32.8 117.15 32.8 116.1 28.25 118.85 24.25 116.65 24.25 114.3 28.05 115.15 24.25
M 108.15 24.2
Q 107.65 24.35 107.2 24.55 106.85 24.8 106.55 25.35 106.4 25.6 106.35 25.9 106.25 26.2 106.2 26.5
L 105.4 30.05
Q 105.3 30.35 105.25 30.65 105.2 30.95 105.2 31.3 105.2 31.6 105.25 31.85 105.4 32 105.55 32.25 105.8 32.55 106.2 32.7 106.55 32.85 106.95 32.9 107.35 33 107.75 33 108.8 33 109.35 32.75 109.95 32.55 110.2 32.15 110.5 31.7 110.7 31.1 110.8 30.4 111 29.55
L 108.9 29.55
Q 108.9 29.7 108.85 29.95 108.8 30.2 108.75 30.5 108.7 30.75 108.55 30.95 108.5 31.15 108.45 31.2 108.3 31.4 108.15 31.4 108 31.45 107.8 31.45 107.6 31.45 107.45 31.35 107.25 31.2 107.25 30.95 107.25 30.85 107.25 30.8 107.35 30.65 107.35 30.55
L 108.35 26.2
Q 108.45 25.9 108.6 25.8 108.8 25.65 109.05 25.65 109.3 25.65 109.45 25.8 109.65 25.9 109.65 26.2 109.65 26.5 109.6 26.9 109.45 27.2 109.4 27.5
L 111.35 27.5
Q 111.5 27.15 111.6 26.7 111.7 26.3 111.7 25.9 111.7 25.1 111.35 24.75 110.95 24.4 110.4 24.25 109.85 24.15 109.15 24.15 108.7 24.15 108.15 24.2
M 123.75 24.4
Q 123.3 24.25 122.8 24.25
L 119.65 24.25 117.65 32.8 119.7 32.8 120.5 29.4 122.1 29.4
Q 122.8 29.4 123.25 29.2 123.7 29.1 123.9 28.65 124.1 28.25 124.3 27.55 124.35 27.3 124.4 26.95 124.55 26.6 124.6 26.3 124.65 25.9 124.65 25.6 124.65 25.05 124.4 24.75 124.1 24.45 123.75 24.4
M 122.45 25.85
Q 122.65 25.9 122.65 26.15 122.65 26.4 122.6 26.6 122.5 26.75 122.45 27 122.4 27.25 122.35 27.45 122.25 27.6 122.1 27.75 121.95 27.85 121.65 27.85
L 120.85 27.85 121.35 25.75 122.1 25.75
Q 122.35 25.75 122.45 25.85
M 136.8 24.25
L 131.8 24.25 131.4 25.75 133 25.75 131.35 32.8 133.45 32.8 135.1 25.75 136.5 25.75 136.8 24.25
M 127.25 24.25
Q 126.7 24.35 126.35 24.65 125.95 24.95 125.65 25.45 125.5 25.75 125.45 26.1 125.3 26.4 125.25 26.7
L 124.55 30
Q 124.4 30.25 124.4 30.55 124.35 30.8 124.35 31.05 124.4 31.85 124.7 32.25 125.1 32.6 125.7 32.8 126.25 33 126.9 33 127.4 33 127.9 32.9 128.35 32.8 128.8 32.6 129.2 32.4 129.45 31.9 129.65 31.65 129.7 31.35 129.85 31.05 129.9 30.75
L 130.55 27.85
Q 130.7 27.4 130.8 26.95 130.85 26.45 130.85 25.95 130.85 25.25 130.5 24.8 130.15 24.45 129.55 24.25 129 24.15 128.3 24.15 127.75 24.15 127.25 24.25
M 128.75 25.8
Q 128.85 25.9 128.85 26.2 128.85 26.45 128.8 26.7 128.75 27 128.65 27.25 128.55 27.6 128.5 28.05 128.35 28.45 128.3 28.85 128.2 29.15 128.15 29.45 128.05 29.75 127.95 30.05 127.95 30.3 127.8 30.65 127.75 30.95 127.6 31.2 127.4 31.4 127.05 31.45 126.8 31.45 126.6 31.35 126.4 31.2 126.4 30.9 126.4 30.75 126.5 30.5 126.55 30.3 126.55 30.1 126.7 29.5 126.85 28.9 127.05 28.35 127.15 27.75 127.25 27.3 127.35 26.95 127.45 26.6 127.6 26.2 127.7 25.9 127.8 25.8 128 25.65 128.3 25.65 128.55 25.65 128.75 25.8
M 251.45 179.3
L 251.85 177.5 246.75 177.5 244.6 186.85 249.7 186.85 250.15 185.05 247.65 185.05 248.15 183 250.4 183 250.85 181.2 248.55 181.2 248.95 179.3 251.45 179.3
M 256.95 179.3
L 258.95 179.3 259.35 177.5 252.75 177.5 252.3 179.3 254.3 179.3 252.55 186.85 255.2 186.85 256.95 179.3
M 229.2 177.5
L 226.55 177.5 224.4 186.85 227.05 186.85 229.2 177.5
M 233.55 179.2
Q 233.8 179.2 233.95 179.3 234.15 179.4 234.15 179.65 234.15 179.7 234.1 179.85 234.1 179.95 234.1 180.1
L 233.9 180.95 236.45 180.95 236.65 180.05
Q 236.7 179.85 236.75 179.65 236.75 179.45 236.75 179.25 236.75 178.3 236 177.8 235.2 177.3 233.7 177.3 232.8 177.3 232.15 177.5 231.5 177.7 231.1 178.1 230.7 178.45 230.5 178.95 230.25 179.45 230.05 180.25
L 229.35 183.4
Q 229.2 184 229.15 184.35 229.1 184.7 229.1 184.95 229.1 186 229.8 186.5 230.55 187 232.05 187 233.05 187 233.7 186.8 234.4 186.6 234.85 186.15 235.2 185.8 235.4 185.3 235.65 184.75 235.8 183.9
L 235.9 183.4 233.3 183.4 233.1 184.3
Q 233 184.8 232.8 185 232.65 185.2 232.3 185.2 232 185.2 231.85 185.05 231.7 184.95 231.7 184.7 231.7 184.6 231.7 184.5 231.7 184.4 231.75 184.25
L 232.7 180.2
Q 232.75 180.05 232.75 179.95 232.8 179.85 232.8 179.8 232.8 179.75 232.85 179.65 232.85 179.6 232.9 179.5 232.95 179.45 233 179.4 233 179.35 233.1 179.3 233.15 179.25 233.3 179.2 233.4 179.2 233.55 179.2
M 241.25 177.5
L 238.65 177.5 236.5 186.85 239.1 186.85 240.1 182.5 240.9 186.85 243.6 186.85 242.5 182.05 245.45 177.5 242.75 177.5 240.25 181.8 241.25 177.5
M 211.3 177.5
L 209.25 181.55 209.05 177.5 206.5 177.5 207.5 183.85 206.8 186.85 209.4 186.85 210.1 183.85 213.9 177.5 211.3 177.5
M 218.85 177.5
L 218.4 179.3 220.4 179.3 218.65 186.85 221.3 186.85 223.05 179.3 225.05 179.3 225.45 177.5 218.85 177.5
M 194.65 177.5
Q 194.4 177.5 194.05 177.5
L 191 177.5 188.85 186.85 192.15 186.85
Q 192.85 186.85 193.35 186.8 193.85 186.75 194.2 186.7 194.55 186.6 194.85 186.4 195.15 186.15 195.4 185.85 195.6 185.6 195.75 185.2 195.9 184.8 196 184.4 196.1 183.95 196.1 183.55 196.1 182.85 195.75 182.5 195.45 182.1 194.75 181.95 195.25 181.85 195.6 181.7 196 181.5 196.25 181.25 196.55 180.95 196.7 180.45 196.9 179.9 196.9 179.35 196.9 178.95 196.8 178.6 196.65 178.3 196.4 178.05 196.15 177.85 195.8 177.7 195.5 177.55 195.1 177.55 194.9 177.5 194.65 177.5
M 193.65 179.3
Q 194 179.3 194.15 179.4 194.3 179.5 194.3 179.75 194.3 179.8 194.3 179.9 194.3 179.95 194.3 180.05
L 194.15 180.55
Q 194.05 180.95 193.85 181.1 193.65 181.25 193.2 181.25
L 192.75 181.25 193.2 179.3 193.65 179.3
M 193.5 183.5
Q 193.5 183.55 193.5 183.65 193.5 183.75 193.5 183.8
L 193.35 184.35
Q 193.3 184.6 193.25 184.7 193.15 184.85 193.05 184.9 193 185 192.85 185 192.75 185.05 192.6 185.05
L 191.85 185.05 192.3 183 192.8 183
Q 193.2 183 193.35 183.1 193.5 183.2 193.5 183.5
M 201.45 177.5
L 198.8 177.5 197.35 183.8
Q 197.25 184.15 197.2 184.45 197.2 184.7 197.2 184.9 197.2 185.9 197.95 186.45 198.7 186.95 200.15 186.95 201.15 186.95 201.8 186.75 202.5 186.55 202.95 186.15 203.25 185.9 203.4 185.55 203.6 185.2 203.7 184.7 203.75 184.55 203.8 184.35 203.85 184.2 203.9 183.95
L 205.4 177.5 202.75 177.5 201.2 184.3
Q 201.1 184.75 200.9 184.95 200.75 185.1 200.4 185.1 200.1 185.1 199.95 185 199.8 184.85 199.8 184.65 199.8 184.6 199.8 184.5 199.8 184.4 199.85 184.25
L 201.45 177.5 Z"/>

<path fill="url(#Gradient_1)" stroke="none" d="
M 221.95 42.7
Q 217.55 39.85 208.3 39.85 199.9 39.85 195.55 43.2 191.4 46.4 189.4 54.25
L 188.5 57.75 202.55 57.75 203.25 54.75
Q 203.95 52.2 204.35 51.45 204.6 50.85 205.3 50.4 206.4 49.65 207.95 49.65 211.55 49.65 211.55 52.5 211.55 53 211.2 55.2 210.1 59.95 209.75 60.65 209.25 61.8 208.1 62.25 207 62.65 204.75 62.65
L 199.45 62.65 196.95 73.6 201.95 73.6
Q 204.4 73.6 205.25 74.05 206.05 74.6 206.05 76.15 206.05 79.25 204.35 84.85 203.65 86.85 202.6 87.75 201.55 88.6 199.7 88.6 196.1 88.6 196.1 85.8 196.1 85 196.5 83.45
L 197.7 78.7 183 78.7 182.15 82.3
Q 181.4 85.1 181.4 87.8 181.4 93.2 185.65 95.75 189.8 98.25 198.8 98.25 214.4 98.25 217.95 87.8 219.15 84.85 220.05 80.85 221.05 76.9 221.05 74.2 221.05 71.85 219.95 70.3 218.85 68.8 216.4 67.8 218.8 66.85 220.6 65.5 223 63.75 224.7 59.85 226.35 55.6 226.35 51.35 226.35 45.45 221.95 42.7 Z"/>

<path fill="url(#Gradient_2)" stroke="none" d="
M 273 84.35
L 273.35 84.35 273.45 83.95 272.1 83.95 272 84.35 272.4 84.35 272 86.25 272.55 86.25 273 84.35 Z"/>

<path fill="url(#Gradient_3)" stroke="none" d="
M 270.5 84.1
Q 270.3 84.3 270.3 84.75 270.3 84.9 270.55 85.15
L 270.85 85.35
Q 271 85.5 271 85.55 271 85.9 270.75 85.9 270.55 85.9 270.55 85.75
L 270.65 85.45 270.1 85.45 270 85.85
Q 270 86.3 270.7 86.3 271.15 86.3 271.35 86.05 271.55 85.9 271.55 85.45 271.55 85.3 271.3 85.05
L 271 84.85 270.85 84.65
Q 270.85 84.3 271.05 84.3
L 271.25 84.4 271.15 84.65 271.7 84.65 271.75 84.35
Q 271.75 83.9 271.05 83.9 270.65 83.9 270.5 84.1 Z"/>

<path fill="url(#Gradient_4)" stroke="none" d="
M 269.95 84.35
L 270.05 83.95 268.9 83.95 268.35 86.25 269.6 86.25 269.7 85.85 269.05 85.85 269.15 85.25 269.75 85.25 269.8 84.85 269.25 84.85 269.35 84.35 269.95 84.35 Z"/>

<path fill="url(#Gradient_5)" stroke="none" d="
M 283.3 83.95
L 282.5 83.95 282 86.25 282.95 86.25
Q 283.3 86.25 283.45 86.15 283.5 86.05 283.6 85.7
L 283.9 84.35
Q 283.9 83.95 283.3 83.95
M 283 84.35
L 283.2 84.35
Q 283.35 84.35 283.35 84.45
L 283.3 84.5 283.05 85.65
Q 283.05 85.85 282.8 85.85
L 282.65 85.85 283 84.35 Z"/>

<path fill="url(#Gradient_6)" stroke="none" d="
M 280.85 83.95
L 280.35 86.25 281.55 86.25 281.65 85.85 281 85.85 281.15 85.25 281.7 85.25 281.8 84.85 281.2 84.85 281.35 84.35 281.95 84.35 282.05 83.95 280.85 83.95 Z"/>

<path fill="url(#Gradient_7)" stroke="none" d="
M 280.45 84.35
L 280.55 83.95 279.2 83.95 279.1 84.35 279.5 84.35 279.05 86.25 279.65 86.25 280.05 84.35 280.45 84.35 Z"/>

<path fill="url(#Gradient_8)" stroke="none" d="
M 278.15 85.75
L 278.1 86.25 278.65 86.25 278.8 83.95 277.9 83.95 276.9 86.25 277.5 86.25 277.7 85.75 278.15 85.75
M 278.2 85.35
L 277.85 85.35 278.3 84.15 278.2 85.35 Z"/>

<path fill="url(#Gradient_9)" stroke="none" d="
M 274.35 83.95
L 273.8 83.95 273.25 86.25 273.8 86.25 274.35 83.95 Z"/>

<path fill="url(#Gradient_10)" stroke="none" d="
M 275.65 83.95
L 274.9 83.95 274.35 86.25 274.9 86.25 275.25 84.55 275.2 86.25 275.7 86.25 276.45 84.55 276 86.25 276.55 86.25 277.1 83.95 276.3 83.95 275.6 85.55 275.65 83.95 Z"/>

<path fill="url(#Gradient_11)" stroke="none" d="
M 283.35 59.2
L 280 65.85 279.05 59.2 273.7 59.2 275.7 69 268.5 81.7 274.3 81.7 278.3 73.2 279.15 81.7 284.45 81.7 282.6 69.9 289.2 59.2 283.35 59.2 Z"/>

<path fill="url(#Gradient_12)" stroke="none" d="
M 264.15 42.85
Q 259.5 39.8 251.2 39.8 241.9 39.8 237 43.7 234.7 45.6 233.3 48.15 231.9 50.75 230.95 54.9
L 225.3 79.1
Q 224.05 84.65 224.05 86.85 224.05 92.35 228.75 95.3 233.4 98.2 241.95 98.2 251.2 98.2 255.6 94.75 260 91.25 262.05 82.35
L 267.85 57.55
Q 268.75 53.7 268.75 51.25 268.75 45.85 264.15 42.85
M 253.4 49.6
Q 254.45 50.3 254.45 51.55 254.45 52.7 254 54.25
L 246.8 84.7
Q 246.3 87.4 245.25 88.4 244.2 89.45 242.05 89.45 240.3 89.45 239.35 88.7 238.4 87.95 238.4 86.65 238.4 85.65 238.8 84.1
L 245.95 53.55
Q 246.55 50.85 247.6 49.85 248.6 48.85 250.65 48.85 252.35 48.85 253.4 49.6 Z"/>
</g>

<g id="Layer2_1_FILL">
<path fill="url(#Gradient_13)" stroke="none" d="
M 282.25 130.9
L 282.8 130.9 282.9 130.4 281.2 130.4 281.1 130.9 281.7 130.9 281.2 132.95 281.75 132.95 282.25 130.9
M 275.7 130.1
Q 274.35 130.1 273.5 130.35 272.65 130.65 272.1 131.25 271.7 131.75 271.45 132.5 271.2 133.2 271.2 133.95 271.2 134.65 271.5 135.25 271.8 135.85 272.4 136.5
L 274.2 138.3
Q 274.55 138.7 274.7 138.8 274.8 138.95 274.85 139.1 274.9 139.2 274.95 139.3 274.95 139.45 274.95 139.6 274.95 140.25 274.7 140.6 274.45 140.95 273.95 140.95 273.55 140.95 273.35 140.8 273.1 140.6 273.1 140.25 273.1 140.1 273.1 140 273.15 139.85 273.15 139.7
L 273.4 138.75 269.75 138.75
Q 269.6 139.3 269.5 139.7 269.45 140.15 269.45 140.6 269.45 142 270.6 142.75 271.75 143.5 273.9 143.5 275.2 143.5 276.2 143.2 277.2 142.85 277.75 142.25 278.2 141.75 278.45 140.95 278.7 140.2 278.7 139.3 278.7 138.65 278.45 138.05 278.15 137.45 277.45 136.75
L 275.25 134.45
Q 275.05 134.2 274.9 134 274.8 133.8 274.8 133.55 274.8 133.1 275.05 132.85 275.25 132.6 275.7 132.6 276.1 132.6 276.3 132.8 276.5 133 276.5 133.3 276.5 133.45 276.45 133.7
L 276.25 134.65 279.7 134.65
Q 279.9 134.1 279.95 133.7 280 133.3 280 133 280 131.6 278.9 130.85 277.8 130.1 275.7 130.1
M 258.85 143.35
L 261.95 143.35 263.8 135.05 264.45 143.35 267.95 143.35 270.95 130.25 267.9 130.25 266 138.65 265.3 130.25 261.9 130.25 258.85 143.35
M 250.15 130.25
L 246.45 130.25 243.4 143.35 247.1 143.35 250.15 130.25
M 259.85 133.05
Q 259.85 131.55 258.7 130.8 257.6 130.05 255.4 130.05 253.95 130 252.95 130.4 251.95 130.8 251.35 131.65 250.75 132.5 250.45 133.9
L 249.35 138.65
Q 249.2 139.25 249.15 139.7 249.05 140.15 249.05 140.55 249.05 141.3 249.35 141.85 249.65 142.45 250.25 142.8 250.9 143.15 251.7 143.35 252.55 143.55 253.5 143.55 254.95 143.55 256 143.1 257.05 142.7 257.6 141.9 257.85 141.45 258.1 140.8 258.35 140.15 258.55 139.25
L 259.55 134.95
Q 259.7 134.25 259.8 133.85 259.85 133.45 259.85 133.05
M 255.95 132.7
Q 256.2 132.9 256.2 133.25 256.2 133.35 256.15 133.45 256.15 133.55 256.1 133.75
L 254.7 139.9
Q 254.6 140.35 254.5 140.55 254.4 140.75 254.25 140.85 254.1 140.95 253.95 141 253.8 141.05 253.6 141.05 253.15 141.05 252.95 140.85 252.7 140.65 252.7 140.3 252.7 140.25 252.7 140.1 252.75 140 252.8 139.8
L 254.2 133.7
Q 254.3 133.25 254.4 133.05 254.5 132.85 254.65 132.7 254.8 132.6 254.95 132.55 255.15 132.5 255.35 132.5 255.75 132.5 255.95 132.7
M 284.25 132.95
L 284.75 132.95 285.35 130.4 284.6 130.4 283.85 132.05 283.9 130.4 283.1 130.4 282.5 132.95 283 132.95 283.5 130.9 283.45 132.95 283.85 132.95 284.7 130.95 284.25 132.95
M 198.5 130.25
L 194.05 130.25 188.1 143.35 191.9 143.35 193 140.4 195.2 140.4 195 143.35 198.55 143.35 198.5 130.25
M 195.4 138.05
L 193.85 138.05 195.8 132.8 195.4 138.05
M 180 134.55
L 180 143.35 182.35 143.35 186.45 134.35 184.4 143.35 187.5 143.35 190.45 130.25 185.8 130.25 182.25 138.9 182.5 130.25 177.95 130.25 174.9 143.35 177.95 143.35 180 134.55
M 234.95 143.35
L 235.55 140.85 232.15 140.85 234.6 130.25 230.95 130.25 227.9 143.35 234.95 143.35
M 229.6 130.25
L 225.9 130.25 222.85 143.35 226.55 143.35 229.6 130.25
M 242.35 130.25
L 238.7 130.25 235.65 143.35 242.7 143.35 243.3 140.85 239.9 140.85 242.35 130.25
M 208.9 143.35
L 211.95 143.35 214 134.55 214 143.35 216.35 143.35 220.45 134.35 218.4 143.35 221.5 143.35 224.45 130.25 219.8 130.25 216.25 138.9 216.5 130.25 211.95 130.25 208.9 143.35
M 211.3 130.25
L 207.55 130.25 205.3 135.1 205.3 130.25 201.7 130.25 202.5 136.5 198.65 143.35 202.4 143.35 204.65 138.55 204.65 143.35 208.25 143.35 207.65 136.5 211.3 130.25 Z"/>

<path fill="url(#Gradient_14)" stroke="none" d="
M 253.2 107.05
L 247.75 107.05 243.2 126.5 248.7 126.5 253.2 107.05
M 279.5 107.05
L 276.75 119.6 275.7 107.05 270.6 107.05 266.15 126.5 270.7 126.5 273.45 114.15 274.45 126.5 279.6 126.5 284.1 107.05 279.5 107.05
M 265.75 120.45
L 267.25 114.05
Q 267.6 112.15 267.6 111.3 267.6 106.8 261.05 106.8 257.8 106.8 256.1 108.1 254.45 109.4 253.7 112.55
L 252.1 119.55
Q 251.65 121.25 251.65 122.4 251.65 124.75 253.8 125.9 255.5 126.8 258.2 126.8 262.15 126.8 263.95 124.75 265.05 123.5 265.75 120.45
M 259.8 110.95
Q 260.15 110.45 260.95 110.45 262.2 110.45 262.2 111.55 262.2 111.95 262.1 112.25
L 260 121.4
Q 259.75 122.45 259.35 122.85 259.05 123.15 258.4 123.15 257.05 123.15 257.05 122.05 257.05 121.65 257.2 121.35
L 259.15 112.7
Q 259.4 111.4 259.8 110.95
M 188.45 107.05
L 183.5 107.05
Q 182.85 108.2 182.1 108.9 181.3 109.55 180 109.95
L 179.2 113.45
Q 181.3 112.95 182.35 112.2
L 179 126.5 183.95 126.5 188.45 107.05
M 212.85 126.5
L 218.3 126.5 222.8 107.05 217.3 107.05 212.85 126.5
M 215.25 107.05
L 208.35 107.05 203.05 119.9 203.45 107.05 196.65 107.05 192.2 126.5 196.7 126.5 199.7 113.45 199.7 126.5 203.2 126.5 209.3 113.2 206.2 126.5 210.8 126.5 215.25 107.05
M 230.2 107.05
L 224.75 107.05 220.25 126.5 230.75 126.5 231.55 122.85 226.55 122.85 230.2 107.05
M 241.65 107.05
L 236.2 107.05 231.75 126.5 242.2 126.5 243.05 122.85 238 122.85 241.65 107.05 Z"/>
</g>

<g id="Layer2_1_MEMBER_0_FILL">
<path fill="url(#Gradient_15)" stroke="none" d="
M 5.3 3.35
L 5.4 3
Q 5.5 2.7 5.5 2.4 5.5 1.35 4.15 1.2
L 4.4 0 3.35 0 3.1 1.15
Q 2.1 1.2 1.55 1.75 0.95 2.45 0.95 3.35 0.95 4.1 1.45 4.55
L 2.6 5.55
Q 2.85 5.75 2.85 6.05 2.85 6.8 2.3 6.8 1.9 6.8 1.9 6.45
L 1.95 6.15 2.05 5.8 0.15 5.8 0.1 6.05
Q 0 6.35 0 6.8 0 7.9 1.5 8.05
L 1.2 9.45 2.2 9.45 2.55 8.05
Q 4.3 7.9 4.7 6.4
L 4.8 5.7
Q 4.8 4.95 3.95 4.25
L 3.1 3.55
Q 2.8 3.25 2.8 3 2.8 2.4 3.3 2.4 3.65 2.4 3.65 2.7
L 3.65 3.05 3.55 3.35 5.3 3.35 Z"/>
</g>
</defs>

<g transform="matrix( 1, 0, 0, 1, 0,0) ">
<use xlink:href="#Layer2_0_FILL"/>
</g>

<g transform="matrix( 1, 0, 0, 1, 0,0) ">
<use xlink:href="#Layer2_1_FILL"/>
</g>

<g transform="matrix( 1.092315673828125, 0, 0, 1.092315673828125, 172.25,106.8) ">
<use xlink:href="#Layer2_1_MEMBER_0_FILL"/>
</g>
</svg>
