
<svg xmlns="http://www.w3.org/2000/svg" version="1.1" xmlns:xlink="http://www.w3.org/1999/xlink" preserveAspectRatio="none" x="0px" y="0px" width="300px" height="250px" viewBox="0 0 300 250">
<defs>
<g id="Layer1_0_FILL">
<path fill="#FFFFFF" stroke="none" d="
M 199.1 179.35
L 199.1 177.75 204.95 177.75 204.95 175 195.85 175 195.85 186.9 205.1 186.9 205.1 184.15 199.1 184.15 199.1 182.1 202.65 182.1 202.65 179.35 199.1 179.35
M 190.8 178.25
Q 190.8 178.75 190.8 179.35 190.8 179.95 190.8 180.5 190.85 181.05 190.9 181.3 190.75 181.05 190.4 180.55 190.1 180 189.7 179.45 189.3 178.9 189.05 178.5
L 186.4 175 183.5 175 183.5 186.9 186.65 186.9 186.65 183.25
Q 186.65 182.75 186.65 182.15 186.65 181.55 186.6 181 186.6 180.45 186.55 180.2 186.7 180.45 187.05 181 187.4 181.5 187.75 182.05 188.15 182.6 188.4 182.95
L 191.25 186.9 193.95 186.9 193.95 175 190.8 175 190.8 178.25
M 181.5 175
L 178.15 175 178.15 186.9 181.5 186.9 181.5 175
M 171.45 175
L 168.1 175 168.1 186.9 176.7 186.9 176.7 184.05 171.45 184.05 171.45 175
M 163.5 186.9
L 166.2 186.9 166.2 175 163.05 175 163.05 178.25
Q 163.05 178.75 163.05 179.35 163.05 179.95 163.05 180.5 163.1 181.05 163.15 181.3 163 181.05 162.65 180.55 162.35 180 161.95 179.45 161.55 178.9 161.3 178.5
L 158.65 175 155.75 175 155.75 186.9 158.9 186.9 158.9 183.25
Q 158.9 182.75 158.9 182.15 158.9 181.55 158.85 181 158.85 180.45 158.8 180.2 158.95 180.45 159.3 181 159.65 181.5 160 182.05 160.4 182.6 160.65 182.95
L 163.5 186.9
M 154.4 180.95
Q 154.35 178.95 153.65 177.6 153 176.2 151.75 175.5 150.5 174.8 148.9 174.8 147.25 174.8 146 175.5 144.8 176.25 144.1 177.6 143.4 179 143.35 180.95 143.4 182.95 144.05 184.3 144.75 185.7 146 186.4 147.25 187.1 148.85 187.1 150.5 187.1 151.7 186.4 152.95 185.65 153.65 184.3 154.35 182.9 154.4 180.95
M 147.3 178.5
Q 147.85 177.7 148.85 177.7 149.85 177.7 150.4 178.5 150.95 179.35 150.95 180.95 150.95 182.6 150.4 183.4 149.9 184.2 148.9 184.2 147.9 184.2 147.35 183.4 146.8 182.55 146.8 180.95 146.8 179.3 147.3 178.5
M 133.35 182.45
L 137.75 175 134 175 133.05 176.8
Q 132.6 177.75 132.25 178.55 131.9 179.35 131.7 179.9 131.55 179.35 131.2 178.55 130.85 177.75 130.35 176.8
L 129.45 175 125.6 175 130 182.5 130 186.9 133.35 186.9 133.35 182.45
M 114.3 181.8
Q 114.3 183.7 114.95 184.85 115.65 186.05 116.8 186.55 117.95 187.1 119.5 187.1 121 187.1 122.15 186.55 123.35 186.05 124.05 184.85 124.7 183.7 124.75 181.8
L 124.75 175 121.35 175 121.35 181.8
Q 121.35 182.95 120.95 183.55 120.5 184.2 119.55 184.2 118.55 184.2 118.1 183.55 117.65 182.95 117.65 181.8
L 117.65 175 114.3 175 114.3 181.8
M 112.55 178.1
Q 112.6 176.6 111.6 175.8 110.6 175 108.4 175
L 102.65 175 102.65 186.9 108.35 186.9
Q 110.6 186.9 111.75 185.9 112.85 184.9 112.85 183.05 112.85 182.05 112.4 181.4 111.95 180.75 111.15 180.45 111.75 180.1 112.15 179.55 112.55 179.05 112.55 178.1
M 109.35 178.55
Q 109.35 178.95 109.1 179.2 108.85 179.45 108.3 179.45
L 105.8 179.45 105.8 177.6 108.3 177.6
Q 108.9 177.6 109.1 177.85 109.35 178.15 109.35 178.55
M 105.8 184.3
L 105.8 182 108.45 182
Q 109 182 109.3 182.3 109.6 182.6 109.6 183.1 109.6 183.65 109.3 183.95 109.05 184.3 108.4 184.3
L 105.8 184.3 Z"/>
</g>
</defs>

<g transform="matrix( 1, 0, 0, 1, 0,0) ">
<use xlink:href="#Layer1_0_FILL"/>
</g>
</svg>
