
<svg xmlns="http://www.w3.org/2000/svg" version="1.1" xmlns:xlink="http://www.w3.org/1999/xlink" preserveAspectRatio="none" x="0px" y="0px" width="300px" height="250px" viewBox="0 0 300 250">
<defs>
<g id="Layer0_0_FILL">
<path fill="#FFFFFF" stroke="none" d="
M 74.75 34.1
Q 73.75 33.95 72.6 33.95
L 66.8 33.95 62.75 51.3 70.1 51.3
Q 71.85 51.3 72.85 50.85 73.75 50.5 74.15 49.55 74.65 48.65 75 47.05
L 76.9 38.5
Q 77 38.1 77.05 37.75 77.15 37.35 77.15 36.9 77.15 35.55 76.45 34.9 75.75 34.3 74.75 34.1
M 71.7 36.9
Q 72.2 36.85 72.5 37.05 72.85 37.25 72.85 37.85 72.85 37.95 72.85 38.1 72.85 38.15 72.75 38.3
L 70.9 46.7
Q 70.7 47.75 70.2 48.1 69.7 48.45 68.65 48.35
L 67.6 48.35 70.25 36.9 71.7 36.9
M 133.95 61
Q 133 61.2 132.15 61.7 131.3 62.25 130.75 63.35 130.5 63.9 130.25 64.45 130.15 65.1 130 65.65
L 128.35 72.95
Q 128.2 73.55 128.05 74.2 127.9 74.75 127.9 75.35 127.9 76 128.1 76.45 128.35 76.95 128.7 77.35 129.25 78 130 78.25 130.7 78.6 131.5 78.7 132.35 78.85 133.2 78.85 135.25 78.85 136.4 78.4 137.65 78 138.2 77.1 138.8 76.25 139.1 74.95 139.45 73.7 139.85 71.9
L 135.55 71.9
Q 135.5 72.15 135.4 72.65 135.25 73.15 135.15 73.7 135 74.25 134.85 74.75 134.7 75.15 134.55 75.3 134.3 75.55 134 75.7 133.65 75.8 133.35 75.8 132.85 75.8 132.5 75.5 132.2 75.3 132.2 74.75 132.2 74.55 132.2 74.3 132.3 74.1 132.35 73.9
L 134.35 65
Q 134.5 64.55 134.85 64.25 135.25 64.05 135.75 64.05 136.3 64 136.75 64.25 137.05 64.45 137.05 65.1 137.05 65.7 136.85 66.4 136.75 67.1 136.5 67.75
L 140.55 67.75
Q 140.75 66.9 141.05 66.05 141.25 65.25 141.25 64.4 141.15 62.85 140.45 62.1 139.7 61.35 138.55 61.05 137.35 60.85 136.1 60.85 135 60.85 133.95 61
M 150.45 71
L 151.1 68.05 146.85 68.05 147.75 64.1 152.2 64.1 152.9 61.15 144.2 61.15 140.2 78.5 149.35 78.5 150.05 75.45 145.1 75.45 146.15 71 150.45 71
M 84 61.05
Q 82.8 60.85 81.55 60.85 80.45 60.85 79.4 61 78.45 61.2 77.6 61.7 76.8 62.25 76.25 63.35 75.95 63.9 75.75 64.45 75.6 65.1 75.45 65.65
L 73.8 72.95
Q 73.65 73.55 73.5 74.2 73.4 74.75 73.4 75.35 73.4 76 73.6 76.45 73.8 76.95 74.15 77.35 74.7 78 75.45 78.25 76.15 78.6 77 78.7 77.8 78.85 78.65 78.85 80.75 78.85 81.85 78.4 83.1 78 83.65 77.1 84.25 76.25 84.55 74.95 84.9 73.7 85.3 71.9
L 81 71.9
Q 80.95 72.15 80.9 72.65 80.75 73.15 80.6 73.7 80.45 74.25 80.3 74.75 80.2 75.15 80.05 75.3 79.75 75.55 79.5 75.7 79.15 75.8 78.8 75.8 78.3 75.8 77.95 75.5 77.7 75.3 77.7 74.75 77.7 74.55 77.7 74.3 77.75 74.1 77.8 73.9
L 79.85 65
Q 79.95 64.55 80.3 64.25 80.75 64.05 81.2 64.05 81.8 64 82.2 64.25 82.55 64.45 82.55 65.1 82.55 65.7 82.35 66.4 82.2 67.1 82 67.75
L 86 67.75
Q 86.2 66.9 86.5 66.05 86.7 65.25 86.7 64.4 86.65 62.85 85.95 62.1 85.2 61.35 84 61.05
M 101 61.15
L 96.75 61.15 95.15 68.2 92.3 68.2 93.9 61.15 89.7 61.15 85.65 78.5 89.9 78.5 91.65 71.2 94.45 71.2 92.8 78.5 97.05 78.5 101 61.15
M 113.05 61.15
L 106.35 61.15 98.85 78.5 103.35 78.5 104.8 74.65 108.05 74.65 107.7 78.5 111.8 78.5 113.05 61.15
M 109.1 62.75
L 108.35 71.7 105.9 71.7 109.1 62.75
M 121.3 61.15
L 117.3 61.15 113.3 78.5 117.15 78.5 119.3 67.8
Q 119.5 70.5 119.85 73.15 120.15 75.8 120.5 78.5
L 124.6 78.5 128.55 61.15 124.7 61.15
Q 124.15 63.85 123.6 66.5 123 69.2 122.55 71.9 122.3 69.2 122 66.55 121.65 63.85 121.3 61.15
M 106.15 41.5
L 107.7 41.5 110.7 37.7 111.55 33.95 107.85 33.95 106.95 37.7 108.35 37.7 106.15 41.5
M 83.05 33.85
Q 82 34.1 81.15 34.65 80.3 35.25 79.75 36.3 79.5 36.9 79.35 37.6 79.15 38.25 79 38.85
L 77.4 45.6
Q 77.25 46.15 77.2 46.65 77.15 47.2 77.15 47.75 77.2 49.25 77.9 50.1 78.65 51 79.85 51.3 81 51.65 82.35 51.65 83.35 51.65 84.35 51.5 85.3 51.35 86.15 50.85 87 50.4 87.55 49.4 87.9 48.85 88.1 48.3 88.25 47.7 88.35 47.05
L 89.85 41.25
Q 90.05 40.25 90.25 39.35 90.45 38.4 90.45 37.4 90.4 35.9 89.6 35.05 88.85 34.2 87.65 33.95 86.5 33.65 85.2 33.65 84.05 33.65 83.05 33.85
M 85.2 36.8
Q 85.65 36.8 86 37.05 86.3 37.35 86.35 37.85 86.3 38.4 86.2 38.95 86.1 39.5 85.95 40 85.75 40.8 85.5 41.65 85.3 42.4 85.1 43.25 84.95 43.85 84.85 44.5 84.6 45.05 84.5 45.65 84.35 46.3 84.2 46.9 84 47.55 83.65 48 83.3 48.5 82.6 48.5 82.05 48.5 81.65 48.3 81.3 48.1 81.3 47.45 81.3 47.05 81.35 46.65 81.5 46.2 81.65 45.8 81.9 44.55 82.2 43.4 82.55 42.2 82.8 40.95 83.05 40.2 83.25 39.4 83.45 38.6 83.65 37.85 83.85 37.2 84.2 37 84.55 36.8 85.2 36.8
M 97.85 33.95
L 93.85 33.95 89.85 51.3 93.7 51.3 95.85 40.6
Q 96.05 43.3 96.4 45.95 96.7 48.6 97.05 51.3
L 101.15 51.3 105.1 33.95 101.25 33.95
Q 100.7 36.65 100.15 39.3 99.55 42 99.1 44.7 98.85 42 98.55 39.35 98.2 36.65 97.85 33.95
M 154.3 33.95
L 150.05 33.95 146 51.3 150.25 51.3 154.3 33.95
M 136.25 46.15
Q 136.45 43.1 136.5 40.05 136.6 37 136.75 33.95
L 130.95 33.95 126.85 51.3 130.85 51.3 133.45 38.4 133.4 51.3 136.85 51.3 142.7 38.4 139.35 51.3 143.3 51.3 147.25 33.95 141.5 33.95
Q 140.2 37 138.9 40.05 137.55 43.1 136.25 46.15
M 122.35 36.9
L 123.05 33.95 112.8 33.95 112.1 36.9 115.2 36.9 111.95 51.3 116.2 51.3 119.45 36.9 122.35 36.9
M 216.15 61.15
L 211.95 61.15 207.9 78.5 212.15 78.5 216.15 61.15
M 230.1 61.15
L 226.3 61.15
Q 225.75 63.85 225.2 66.5 224.55 69.2 224.15 71.9 223.85 69.2 223.6 66.55 223.25 63.85 222.9 61.15
L 218.85 61.15 214.85 78.5 218.75 78.5 220.9 67.8
Q 221.1 70.5 221.45 73.15 221.7 75.8 222.05 78.5
L 226.15 78.5 230.1 61.15
M 166.85 64.1
L 169.75 64.1 170.45 61.15 160.2 61.15 159.5 64.1 162.6 64.1 159.35 78.5 163.55 78.5 166.85 64.1
M 174.75 61.05
Q 173.7 61.3 172.85 61.85 172.05 62.45 171.5 63.5 171.2 64.1 171.05 64.8 170.85 65.45 170.7 66.05
L 169.15 72.8
Q 169 73.35 168.9 73.85 168.85 74.4 168.85 74.95 168.9 76.45 169.6 77.3 170.35 78.2 171.55 78.5 172.75 78.85 174.05 78.85 175.1 78.85 176.05 78.7 177.05 78.55 177.85 78.05 178.7 77.6 179.25 76.6 179.6 76.05 179.8 75.5 179.95 74.85 180.1 74.25
L 181.55 68.4
Q 181.75 67.45 181.95 66.55 182.15 65.6 182.15 64.6 182.1 63.1 181.35 62.25 180.55 61.4 179.4 61.15 178.2 60.85 176.9 60.85 175.8 60.85 174.75 61.05
M 177.95 66.15
Q 177.8 66.7 177.65 67.15 177.45 68 177.25 68.85 177.05 69.6 176.85 70.45 176.7 71.05 176.55 71.7 176.35 72.25 176.2 72.85 176.05 73.5 175.9 74.1 175.7 74.75 175.35 75.2 175 75.7 174.35 75.7 173.75 75.7 173.35 75.5 173 75.3 173 74.65 173 74.25 173.1 73.85 173.2 73.4 173.35 73 173.65 71.75 173.9 70.55 174.25 69.4 174.55 68.15 174.75 67.4 174.95 66.6 175.15 65.8 175.35 65 175.6 64.4 175.9 64.2 176.25 64 176.9 64 177.4 64 177.75 64.25 178 64.55 178.05 65 178 65.6 177.95 66.15
M 193.5 72.3
Q 193.2 72.85 193 73.5 192.8 74.05 192.65 74.65 193 72.8 193.35 70.9 193.6 69 193.8 67.1
L 194.65 61.15 190.55 61.15 189.05 78.5 194.4 78.5 196.9 72.45
Q 197.65 70.8 198.25 69.05 198.95 67.3 199.5 65.5 199.25 68.75 199.1 72.05 199.05 75.2 198.9 78.5
L 204.15 78.5 210.45 61.15 206.3 61.15 203.35 70.1
Q 203 71.2 202.7 72.25 202.45 73.35 202.2 74.45
L 203 61.15 197.9 61.15 193.5 72.3
M 200.75 33.95
L 196.05 33.95 192.5 41 191.95 33.95 187.85 33.95 189.45 45.3 188.05 51.3 192.25 51.3
Q 192.45 50.25 192.7 49.2 192.9 48.25 193.2 47.2 193.2 47 193.25 46.7 193.35 46.35 193.4 46.1 193.5 45.8 193.55 45.65 194.05 44.6 194.65 43.65 195.3 42.7 195.9 41.7
L 200.75 33.95
M 164.75 34.2
Q 164 33.85 163.1 33.75 162.2 33.65 161.35 33.65 160.25 33.65 159.15 33.85 158 34.15 157.2 35 156.8 35.55 156.45 36.45 156.1 37.35 155.8 38.3 155.6 39.2 155.6 39.9 155.6 40.3 155.65 40.65 155.75 41 155.95 41.35 156.15 41.8 156.85 42.4 157.45 42.95 158.15 43.45 158.95 44 159.35 44.3 159.85 44.6 160.25 45.05 160.65 45.45 160.65 46.1 160.65 46.35 160.6 46.8 160.45 47.2 160.3 47.6 160.2 48 159.95 48.25 159.75 48.5 159.4 48.6 159.15 48.7 158.8 48.7 158.25 48.7 157.9 48.45 157.55 48.15 157.55 47.55 157.55 47.05 157.75 46.45 157.9 45.8 158 45.3
L 153.85 45.3
Q 153.65 46 153.5 46.7 153.4 47.45 153.3 48.15 153.4 49.25 153.85 49.95 154.35 50.65 155.2 51 155.95 51.35 156.9 51.4 157.8 51.55 158.7 51.55 159.55 51.55 160.45 51.4 161.35 51.35 162.2 51 162.95 50.65 163.55 49.95 164 49.5 164.25 48.65 164.6 47.9 164.8 47 164.95 46.15 164.95 45.55 164.95 45.2 164.9 44.75 164.9 44.4 164.7 44.15 164.4 43.6 163.9 43.15 163.5 42.75 163 42.4 162.8 42.2 162.35 41.9 161.9 41.55 161.35 41.15 160.85 40.8 160.45 40.45 160.1 40.1 159.95 40 159.85 39.75 159.75 39.55 159.7 39.35 159.7 39.15 159.7 38.95 159.75 38.6 159.85 38.25 159.95 37.9 160.05 37.55 160.1 37.35 160.4 37 160.65 36.8 160.95 36.65 161.35 36.65 161.85 36.65 162.2 36.85 162.45 37.05 162.55 37.55 162.45 38.1 162.35 38.5 162.25 39 162.1 39.4
L 166.15 39.4
Q 166.3 38.8 166.4 38.15 166.55 37.55 166.55 36.9 166.55 35.8 166.05 35.2 165.6 34.5 164.75 34.2
M 174.35 36.65
Q 174.8 36.65 175.15 36.85 175.45 37.05 175.5 37.55 175.45 38.1 175.3 38.5 175.25 39 175.1 39.4
L 179.1 39.4
Q 179.25 38.8 179.4 38.15 179.55 37.55 179.55 36.9 179.55 35.8 179.05 35.2 178.55 34.5 177.75 34.2 176.95 33.85 176.05 33.75 175.15 33.65 174.35 33.65 173.2 33.65 172.1 33.85 171 34.15 170.15 35 169.75 35.55 169.4 36.45 169.05 37.35 168.8 38.3 168.55 39.2 168.55 39.9 168.55 40.3 168.65 40.65 168.7 41 168.9 41.35 169.15 41.8 169.8 42.4 170.45 42.95 171.15 43.45 171.9 44 172.3 44.3 172.8 44.6 173.2 45.05 173.65 45.45 173.65 46.1 173.65 46.35 173.55 46.8 173.45 47.2 173.3 47.6 173.15 48 172.95 48.25 172.75 48.5 172.4 48.6 172.1 48.7 171.75 48.7 171.2 48.7 170.85 48.45 170.5 48.15 170.5 47.55 170.5 47.05 170.7 46.45 170.85 45.8 171 45.3
L 166.85 45.3
Q 166.65 46 166.5 46.7 166.35 47.45 166.3 48.15 166.35 49.25 166.85 49.95 167.3 50.65 168.15 51 168.9 51.35 169.9 51.4 170.8 51.55 171.7 51.55 172.5 51.55 173.45 51.4 174.35 51.35 175.15 51 175.9 50.65 176.55 49.95 176.95 49.5 177.25 48.65 177.6 47.9 177.8 47 177.95 46.15 177.95 45.55 177.95 45.2 177.85 44.75 177.85 44.4 177.65 44.15 177.4 43.6 176.9 43.15 176.5 42.75 176 42.4 175.8 42.2 175.3 41.9 174.9 41.55 174.35 41.15 173.85 40.8 173.45 40.45 173.1 40.1 172.95 40 172.8 39.75 172.75 39.55 172.65 39.35 172.65 39.15 172.65 38.95 172.75 38.6 172.8 38.25 172.95 37.9 173 37.55 173.1 37.35 173.35 37 173.65 36.8 173.9 36.65 174.35 36.65
M 239.25 36.6
Q 239.25 35.2 238.3 34.55 237.3 33.95 235.15 33.95
L 229.2 33.95 225.2 51.3 229.4 51.3 231.1 44 231.7 44 232.9 51.3 237.1 51.3 235.6 43.65
Q 236.4 43.45 237 43.05 237.6 42.6 237.9 42 238.15 41.5 238.45 40.8 238.7 40.05 238.9 39.15 239.15 38.3 239.2 37.7 239.25 37 239.25 36.6
M 235.3 37.7
Q 235.3 37.9 235.25 38.25 235.15 38.5 235.05 39 234.95 39.5 234.9 39.75 234.85 40 234.75 40.2 234.55 40.6 234.2 40.75 233.8 40.95 233.15 40.95
L 231.85 40.95 232.75 36.9 234.15 36.9
Q 234.75 36.9 235.05 37.15 235.3 37.25 235.3 37.7
M 204.9 33.85
Q 203.9 34.1 203.05 34.65 202.2 35.25 201.65 36.3 201.4 36.9 201.25 37.6 201.05 38.25 200.9 38.85
L 199.3 45.6
Q 199.15 46.15 199.1 46.65 199.05 47.2 199.05 47.75 199.1 49.25 199.8 50.1 200.55 51 201.75 51.3 202.9 51.65 204.25 51.65 205.25 51.65 206.25 51.5 207.2 51.35 208.05 50.85 208.9 50.4 209.45 49.4 209.8 48.85 210 48.3 210.15 47.7 210.25 47.05
L 211.7 41.25
Q 211.95 40.25 212.15 39.35 212.35 38.4 212.35 37.4 212.3 35.9 211.5 35.05 210.75 34.2 209.55 33.95 208.4 33.65 207.1 33.65 205.95 33.65 204.9 33.85
M 206.1 37
Q 206.45 36.8 207.1 36.8 207.55 36.8 207.9 37.05 208.2 37.35 208.25 37.85 208.2 38.4 208.1 38.95 208 39.5 207.85 40 207.65 40.8 207.4 41.65 207.2 42.4 207 43.25 206.85 43.85 206.75 44.5 206.5 45.05 206.4 45.65 206.25 46.3 206.1 46.9 205.9 47.55 205.55 48 205.2 48.5 204.5 48.5 203.95 48.5 203.55 48.3 203.2 48.1 203.2 47.45 203.2 47.05 203.25 46.65 203.4 46.2 203.55 45.8 203.8 44.55 204.1 43.4 204.45 42.2 204.7 40.95 204.9 40.2 205.15 39.4 205.35 38.6 205.55 37.85 205.75 37.2 206.1 37
M 219.65 33.95
L 215.45 33.95 213.05 44.05
Q 212.85 44.95 212.65 45.95 212.5 46.85 212.4 47.75 212.5 49.2 213.25 50.05 213.95 50.85 215.1 51.2 216.3 51.55 217.6 51.55 218.8 51.55 219.85 51.35 220.9 51.1 221.7 50.45 222.55 49.85 223.1 48.65 223.4 48.1 223.5 47.55 223.65 46.9 223.8 46.3
L 226.65 33.95 222.55 33.95 219.65 46.3
Q 219.55 46.85 219.35 47.25 219.2 47.75 218.85 48 218.5 48.3 217.9 48.3 217.4 48.3 217.05 48.1 216.65 47.8 216.65 47.25 216.65 47.05 216.7 46.8 216.7 46.55 216.8 46.3
L 219.65 33.95 Z"/>
</g>
</defs>

<g transform="matrix( 1, 0, 0, 1, 0,0) ">
<use xlink:href="#Layer0_0_FILL"/>
</g>
</svg>
