
<svg xmlns="http://www.w3.org/2000/svg" version="1.1" xmlns:xlink="http://www.w3.org/1999/xlink" preserveAspectRatio="none" x="0px" y="0px" width="160px" height="600px" viewBox="0 0 160 600">
<defs>
<image id="flash0_ai_Layer_1__Group_" x="0" y="0" width="7" height="8" xlink:href="data:image/png;base64,iVBORw0KGgoAAAANSUhEUgAAAAcAAAAICAYAAAA1BOUGAAAApUlEQVQImT2NsQ3CQBAE5+4f
UtyB3YEbIIAMMkqgBCQkYjICCEwFlEFAgAQNQAnuwIQI/o7A2ButdqRZATjc5osQpVKVHMDM
68/7s5D9fTYZDsK1G4FMVUZmXmtUrQAs+fObbGluKwBVyaMGKQE0SDkMraFL7EpKdnSk6Yl7
o2b+AhBkInjWsfX4XEVzWynh1Orbi3+2ArC7zooYKXrjNzWb6eXxAx0NPV61bMP8AAAAAElF
TkSuQmCC"/>

<image id="flash0_ai_Layer_1__Group__0" x="0" y="0" width="7" height="8" xlink:href="data:image/png;base64,iVBORw0KGgoAAAANSUhEUgAAAAcAAAAICAYAAAA1BOUGAAAApUlEQVQImT2NsQ3CQBAE5+4f
UtyB3YEbIIAMMkqgBCQkYjICCEwFlEFAgAQNQAnuwIQI/o7A2ButdqRZATjc5osQpVKVHMDM
68/7s5D9fTYZDsK1G4FMVUZmXmtUrQAs+fObbGluKwBVyaMGKQE0SDkMraFL7EpKdnSk6Yl7
o2b+AhBkInjWsfX4XEVzWynh1Orbi3+2ArC7zooYKXrjNzWb6eXxAx0NPV61bMP8AAAAAElF
TkSuQmCC"/>

<g id="Layer0_0_MEMBER_0_MEMBER_0_MEMBER_0_MEMBER_0_FILL">
<path fill="#505F68" stroke="none" d="
M 70.45 585.8
L 70.45 585.35
Q 70.6 585 71.05 585
L 74.3 585 74.55 583.35 71.55 583.35
Q 68.9 583.35 68.55 585.5 68.4 586.3 68.95 587.1 69.5 587.75 70.7 587.75
L 71.85 587.75
Q 72.25 587.75 72.3 587.9
L 72.35 588.3 72.3 588.3 72.3 588.35
Q 72.25 588.8 71.7 588.8
L 68.2 588.8 67.95 590.45 71.45 590.45
Q 73.8 590.45 74.1 588.3 74.35 587.25 73.8 586.65 73.35 586 72.05 586
L 70.8 586 70.45 585.8
M 67.55 586.4
Q 67.9 585.1 67.2 584.15 66.45 583.35 65.05 583.35 63.6 583.35 62.7 584.2 61.75 585 61.45 586.4
L 60.85 590.45 62.85 590.45 63.45 586.4
Q 63.65 585.25 64.7 585.25 65.85 585.25 65.7 586.4
L 65.05 590.45 66.95 590.45 67.55 586.4
M 47.85 584.2
Q 47.85 583.35 49.2 583.35
L 53.2 583.35 53.55 581.45 49.3 581.45
Q 46.25 581.45 45.8 584.1
L 45.7 584.7
Q 45.7 585.4 46.1 586.05 47 586.85 48.4 586.85
L 49.9 586.85
Q 50.5 586.85 50.85 587.15
L 50.95 587.65 50.95 587.85
Q 50.9 588.75 49.6 588.75
L 45.55 588.75 45.3 590.45 49.65 590.45
Q 52.5 590.45 52.95 587.95
L 53.05 587.7 53.1 587.15
Q 53.1 586.3 52.6 585.8 51.95 584.95 50.35 584.95
L 48.85 584.95
Q 48.2 584.95 47.95 584.7
L 47.85 584.2 Z"/>
</g>

<g id="Layer0_0_MEMBER_0_MEMBER_0_MEMBER_0_MEMBER_1_FILL">
<path fill="#91C84B" stroke="none" d="
M 20.5 584.95
L 23.9 584.95
Q 24.35 584.95 24.35 585.15
L 24.25 586 22.1 586
Q 19.5 586 19.15 588.2 18.95 590.45 21.35 590.45
L 25.5 590.45 26.1 586.4
Q 26.55 583.35 23.9 583.35
L 20.75 583.35 20.5 584.95
M 22 587.45
L 24 587.45 23.85 588.8 21.75 588.8
Q 20.85 588.8 21 588.1 21.05 587.45 22 587.45
M 28.35 584.2
Q 27.4 585 27.15 586.4
L 26.5 590.45 28.4 590.45 29.1 586.35
Q 29.25 585.25 30.4 585.25 31.55 585.25 31.35 586.35
L 30.65 590.45 32.6 590.45 33.3 586.35
Q 33.4 585.25 34.6 585.25 35.6 585.25 35.55 586.35
L 34.85 590.45 36.8 590.45 37.45 586.4
Q 37.7 584.95 36.95 584.15 36.2 583.35 34.85 583.35 33.65 583.35 32.65 584.2 32 583.35 30.75 583.35 29.35 583.35 28.35 584.2
M 19.65 581.45
L 16 581.45
Q 13.8 581.45 12.5 582.6 11.05 583.85 10.75 585.9 10.35 588.05 11.45 589.2 12.45 590.45 14.55 590.45
L 18.25 590.45 19.1 584.95 15.1 584.95 14.75 586.85 16.85 586.85 16.55 588.45 14.55 588.45
Q 13.5 588.45 13 587.65 12.55 586.85 12.75 586.15
L 12.75 585.75
Q 12.9 584.6 13.8 583.9 14.5 583.35 15.3 583.35
L 19.35 583.35 19.65 581.45 Z"/>
</g>

<g id="Layer0_0_MEMBER_1_MEMBER_0_MEMBER_0_MEMBER_0_MEMBER_0_FILL">
<path fill="#91C84B" stroke="none" d="
M 40.2 588.45
Q 40 588.3 40 587.75
L 44.8 587.75 45 586.05
Q 45 584.8 44.45 584.15 43.7 583.3 42.15 583.3 40.5 583.3 39.5 584.3 38.45 585.2 38.2 586.9 37.85 588.5 38.7 589.55 39.45 590.45 40.9 590.45
L 43.8 590.45 44 588.8 41.15 588.8
Q 40.5 588.8 40.2 588.45
M 43.15 586.05
L 43.15 586.1 40.25 586.1
Q 40.75 585 42 585 42.65 585 42.9 585.25 43.15 585.5 43.15 586.05 Z"/>
</g>

<g id="Layer0_0_MEMBER_5_MEMBER_0_MEMBER_0_MEMBER_0_FILL">
<path fill="#505F68" stroke="none" d="
M 69.35 486.95
L 69.35 486.5 73.7 486.5
Q 74.05 485.1 74.05 484.45 74.05 481.75 71.3 481.75 68.05 481.75 67.3 485.8
L 67.2 486.85
Q 67.2 489.9 70.45 489.9 72.05 489.9 73.1 489.45
L 72.95 487.45
Q 72 488 70.85 488 70 488 69.7 487.7 69.35 487.5 69.35 486.95
M 72.05 484.25
L 71.95 485.1 69.6 485.1
Q 70 483.3 71.05 483.3 72.05 483.3 72.05 484.25
M 58.45 489.75
L 60.45 489.75 61.55 484
Q 62.25 483.5 62.9 483.5 63.9 483.5 63.9 484.2
L 63.9 484.45 62.9 489.75 65.05 489.75 66.05 483.65
Q 66.05 481.75 64.05 481.75 62.75 481.75 61.85 482.65
L 61.8 482.65 62.45 478.6 60.45 478.75 58.45 489.75
M 54.15 481.9
L 53.2 481.9 52.9 483.7 53.85 483.7 53.2 487.1 53.15 487.8
Q 53.15 489.9 55.35 489.9 56.5 489.9 57.15 489.55
L 57.3 487.75
Q 56.55 488 56.05 488 55.15 488 55.15 487.4
L 55.2 487.25 55.8 483.7 57.8 483.7
Q 58.15 482.55 58.15 481.9
L 56.1 481.9 56.45 480
Q 55.45 480 54.45 480.3
L 54.15 481.9
M 38.6 484.4
Q 38.6 487.95 38.85 489.75
L 40.9 489.75 43.1 485.35 43.4 484.2 43.55 484.2 43.55 485.45 44.15 489.75 46.2 489.75
Q 48.2 485.5 49.3 482 48.6 481.9 47.4 481.9
L 45.6 487.35 45.45 487.35 44.9 481.9 43.05 481.9 40.9 486.35 40.6 487.35 40.4 487.35 40.6 481.9
Q 39.4 481.9 38.6 482
L 38.6 484.4
M 29.5 485.65
L 29.4 486.85
Q 29.4 488.3 30.35 489.15 31.2 489.9 32.6 489.9 36.15 489.9 36.7 486.05
L 36.85 484.9
Q 36.85 481.75 33.55 481.75 30.2 481.75 29.5 485.65
M 31.6 486.85
L 31.65 485.85
Q 32.1 483.45 33.4 483.45 34.6 483.45 34.6 484.85
L 34.55 485.85
Q 34.35 487.15 33.85 487.65 33.5 488.15 32.8 488.15 31.6 488.15 31.6 486.85
M 24.1 481.9
Q 22.8 481.9 22 482
L 20.6 489.75 22.65 489.75 23.65 484
Q 24.35 483.5 25.1 483.5 26 483.5 26 484.2
L 26 484.45 25.1 489.75 27.1 489.75 28.1 484.2 28.15 483.65
Q 28.15 481.75 26.1 481.75 24.9 481.75 24 482.65
L 23.9 482.65 24.1 481.9
M 18.6 479.55
L 17.25 481.05
Q 15.7 482.5 14.7 484.05
L 14.55 484.05 15.3 479.65 13.2 479.65 11.35 489.75 13.55 489.75 14.2 486.7 15.35 485.45 17.1 489.85
Q 18.55 489.85 19.4 489.65 18.35 486.6 17 483.8
L 21 479.8
Q 19.75 479.55 18.6 479.55
M 107.2 481.75
Q 105.6 481.75 104.6 482.6 103.7 483.35 103.7 484.5 103.7 485.9 105.2 486.5 106.7 487.1 106.7 487.35 106.7 488.05 105.8 488.05 104.5 488.05 103.6 487.45 103.2 488.25 102.95 489.35 104.05 489.9 105.45 489.9 106.95 489.9 107.85 489.15 108.8 488.35 108.8 487.2 108.8 485.9 107.3 485.2 105.85 484.5 105.85 484.2 105.85 483.5 106.8 483.5 107.9 483.5 108.85 483.8
L 109.3 482
Q 108.3 481.75 107.2 481.75
M 85.2 486.05
L 85.3 484.9
Q 85.3 481.75 82.05 481.75 78.55 481.75 77.95 485.65
L 77.85 486.85
Q 77.85 488.35 78.8 489.15 79.65 489.9 81.1 489.9 84.6 489.9 85.2 486.05
M 81.95 483.45
Q 83.1 483.45 83.1 484.85
L 83.05 485.85
Q 82.85 487.2 82.45 487.65 82 488.15 81.3 488.15 80.05 488.15 80.05 486.85
L 80.2 485.85
Q 80.65 483.45 81.95 483.45
M 101.05 478.75
L 100.55 481.95
Q 100 481.75 99.05 481.75 95.55 481.75 95.05 485.85
L 94.95 486.95
Q 94.95 489.9 97.3 489.9 98.25 489.9 99.1 489.1
L 99.2 489.1 99.1 489.75 101.1 489.75 103.05 478.6 101.05 478.75
M 97.2 485.8
Q 97.55 483.5 99.05 483.5 99.6 483.5 100.2 483.75
L 99.45 487.8
Q 98.95 488.1 98.2 488.1 97.05 488.1 97.05 486.9
L 97.2 485.8
M 92.45 478.75
L 91.85 481.95
Q 91.45 481.75 90.45 481.75 87 481.75 86.35 485.85
L 86.3 486.95
Q 86.3 489.9 88.7 489.9 89.7 489.9 90.45 489.1
L 90.55 489.1 90.45 489.75 92.55 489.75 94.55 478.6 92.45 478.75
M 90.8 487.8
Q 90.45 488.1 89.6 488.1 88.45 488.1 88.45 486.9
L 88.6 485.8
Q 89.05 483.5 90.45 483.5 90.95 483.5 91.55 483.75
L 90.8 487.8 Z"/>
</g>

<g id="Layer0_0_MEMBER_6_MEMBER_0_MEMBER_0_MEMBER_0_FILL">
<path fill="#505F68" stroke="none" d="
M 37.3 493.2
L 35.15 493.35 33.3 504.35 35.3 504.35 36.3 498.6
Q 37 498.1 37.65 498.1 38.65 498.1 38.65 498.8
L 38.65 499.05 37.7 504.35 39.7 504.35 40.8 498.25
Q 40.8 496.35 38.8 496.35 37.5 496.35 36.6 497.25
L 36.45 497.25 37.3 493.2
M 89.45 504.5
Q 90.7 504.5 90.7 503.2 90.7 502.2 89.8 502.2 88.45 502.2 88.45 503.6 88.45 504.5 89.45 504.5
M 18.1 500.65
L 18.15 499.5
Q 18.15 496.35 15 496.35 11.6 496.35 10.85 500.25
L 10.8 501.45
Q 10.8 502.95 11.75 503.75 12.6 504.5 14.05 504.5 17.4 504.5 18.1 500.65
M 16.05 499.45
L 15.95 500.45
Q 15.5 502.75 14.2 502.75 13 502.75 13 501.45
L 13.05 500.45
Q 13.5 498.05 14.8 498.05 16.05 498.05 16.05 499.45
M 48.45 501.1
Q 48.85 499.6 48.85 499.05 48.85 496.35 45.95 496.35 42.7 496.35 42.1 500.4
L 41.95 501.45
Q 41.95 504.5 45.15 504.5 46.8 504.5 47.85 504.05 47.85 502.65 47.7 502.05 46.75 502.6 45.55 502.6 44.1 502.6 44.1 501.55
L 44.2 501.1 48.45 501.1
M 46.85 498.85
Q 46.85 499.2 46.65 499.7
L 44.4 499.7
Q 44.8 497.9 45.85 497.9 46.85 497.9 46.85 498.85
M 59.85 498
L 60.2 496.5 56.3 496.35
Q 54.9 496.35 53.95 497.2 53.1 498 53.1 499.45 53.1 500.6 53.65 501
L 52.45 502.7 52.9 503.9
Q 51.8 504.55 51.8 505.55 51.8 507.6 54.85 507.6 58.85 507.6 58.85 504.75 58.85 502.65 56.45 502.65
L 54.8 502.65
Q 54.55 502.65 54.55 502.4 54.55 502.15 54.9 501.65 55.35 501.85 56.1 501.85 57.3 501.85 58.15 501.15 59.1 500.35 59.1 499.05 59.1 498.55 58.9 498.15
L 58.9 498.05 59.85 498
M 57.15 498.8
Q 57.15 500.3 55.9 500.3 55.1 500.3 55.1 499.4 55.1 497.9 56.3 497.9 57.15 497.9 57.15 498.8
M 53.8 505.1
L 53.95 504.45 56.45 504.45
Q 56.9 504.45 56.9 505 56.9 505.95 55.15 505.95 53.8 505.95 53.8 505.1
M 63.35 499.85
Q 61.85 499.95 61.1 500.3 60.3 500.85 60.05 501.95
L 60.05 502.5
Q 60.05 504.5 62.15 504.5 63.4 504.5 64.3 503.6
L 64.35 503.6
Q 64.65 504.5 65.8 504.5 67 504.5 67.3 503.1
L 67.45 502.5 66.6 502.5
Q 66.2 502.5 66.2 502.15
L 66.2 501.85 67.05 497.3
Q 65.95 496.35 63.8 496.35 62.7 496.35 61.7 496.6
L 61.6 497.7 61.65 498.5
Q 62.35 498.15 63.35 498.15 64.35 498.15 64.85 498.45
L 64.6 499.8 63.35 499.85
M 62.8 502.95
Q 62.1 502.95 62.1 502.25
L 62.1 501.95
Q 62.25 501.25 63.1 501.2
L 64.4 501.15 64.1 502.55
Q 63.6 502.95 62.8 502.95
M 80.95 500.4
L 80.85 501.45
Q 80.85 504.5 84.1 504.5 85.75 504.5 86.8 504.05 86.8 503.05 86.55 502.05 85.6 502.6 84.45 502.6 83.05 502.6 83.05 501.55
L 83.05 501.1 87.35 501.1
Q 87.6 500.1 87.6 499.05 87.6 496.35 84.95 496.35 81.65 496.35 80.95 500.4
M 85.7 498.85
Q 85.7 499.35 85.55 499.7
L 83.3 499.7
Q 83.7 497.9 84.7 497.9 85.7 497.9 85.7 498.85
M 79.6 498.25
Q 79.6 496.35 77.7 496.35 76.45 496.35 75.3 497.4 75.1 496.35 73.8 496.35 72.5 496.35 71.6 497.25
L 71.55 497.25 71.7 496.5
Q 70.5 496.5 69.6 496.6
L 68.3 504.35 70.3 504.35 71.3 498.6
Q 72 498.1 72.55 498.1 73.35 498.1 73.35 498.75
L 73.35 499.05 72.45 504.35 74.45 504.35 75.45 498.6
Q 76 498.1 76.7 498.1 77.55 498.1 77.55 498.8
L 77.55 499.05 76.6 504.35 78.7 504.35 79.6 498.25
M 24.85 493.3
Q 24.65 493.2 23.85 493.2 21.3 493.2 20.75 496
L 20.65 496.5 19.75 496.5 19.4 498.3 20.35 498.3 19.25 504.35 21.35 504.35 22.35 498.3 23.85 498.3 24.35 496.5 22.65 496.5 22.75 495.85
Q 22.9 495 23.65 495
L 24.5 495.1
Q 24.7 494.6 24.85 493.3
M 31.25 494.6
Q 30.4 494.6 29.1 494.9
L 28.85 496.5 28 496.5 27.6 498.3 28.6 498.3 27.9 501.7 27.85 502.4
Q 27.85 504.5 30.15 504.5 31.25 504.5 31.9 504.15
L 32.1 503.1 32 502.35
Q 31.35 502.6 30.85 502.6 30 502.6 30 502
L 30 501.85 30.6 498.3 32.5 498.3
Q 32.8 497.75 32.9 496.5
L 30.85 496.5 31.25 494.6 Z"/>
</g>

<g id="Layer0_0_MEMBER_7_MEMBER_0_MEMBER_0_MEMBER_0_FILL">
<path fill="#505F68" stroke="none" d="
M 17.45 528.85
Q 15.75 528.85 14.2 529.7
L 14.2 523.45 10.65 523.45 10.65 535.65
Q 10.65 538.45 12.6 540.45 14.65 542.4 17.45 542.4 20.25 542.4 22.2 540.45 24.2 538.35 24.2 535.65 24.2 532.95 22.2 530.85 20.3 528.85 17.45 528.85
M 13.85 535.65
Q 13.85 534.2 14.9 533.15 15.95 532.05 17.45 532.05 18.9 532.05 19.95 533.15 21 534.2 21 535.65 21 537.1 19.95 538.2 18.85 539.2 17.45 539.2 16 539.2 14.9 538.2 13.85 537.1 13.85 535.65 Z"/>
</g>

<g id="Layer0_0_MEMBER_8_MEMBER_0_MEMBER_0_MEMBER_0_FILL">
<path fill="#505F68" stroke="none" d="
M 41.95 542.4
L 41.95 523.45 38.45 523.45 38.45 538.85
Q 38.45 540.35 39.5 541.4 40.5 542.4 41.95 542.4 Z"/>
</g>

<g id="Layer0_0_MEMBER_9_MEMBER_0_MEMBER_0_MEMBER_0_FILL">
<path fill="#C62E40" stroke="none" d="
M 19 537.25
Q 19.65 536.5 19.65 535.65 19.65 534.85 19 534.1 18.35 533.45 17.45 533.45 16.5 533.45 15.85 534.1 15.2 534.85 15.2 535.65 15.2 536.5 15.85 537.25 16.55 537.85 17.45 537.85 18.35 537.85 19 537.25 Z"/>
</g>

<g id="Layer0_0_MEMBER_10_MEMBER_0_MEMBER_0_MEMBER_0_FILL">
<path fill="#F47C36" stroke="none" d="
M 33.2 537.25
Q 33.85 536.6 33.85 535.65 33.85 534.75 33.2 534.1 32.55 533.45 31.65 533.45 30.7 533.45 30.05 534.1 29.45 534.8 29.45 535.65 29.45 536.6 30.05 537.25 30.75 537.85 31.65 537.85 32.55 537.85 33.2 537.25 Z"/>
</g>

<g id="Layer0_0_MEMBER_11_MEMBER_0_MEMBER_0_MEMBER_0_FILL">
<path fill="#91C84B" stroke="none" d="
M 50.95 537.25
Q 51.6 536.5 51.6 535.65 51.6 534.85 50.95 534.1 50.35 533.45 49.4 533.45 48.45 533.45 47.85 534.1 47.2 534.85 47.2 535.65 47.2 536.5 47.85 537.25 48.45 537.85 49.4 537.85 50.35 537.85 50.95 537.25 Z"/>
</g>

<g id="Layer0_0_MEMBER_12_MEMBER_0_MEMBER_0_MEMBER_0_MEMBER_0_FILL">
<path fill="#505F68" stroke="none" d="
M 35.15 529.85
Q 33.45 528.85 31.6 528.85 28.85 528.85 26.85 530.85 24.85 532.95 24.85 535.65 24.85 538.35 26.85 540.45 28.8 542.4 31.6 542.4 33.6 542.4 35.2 541.4 36.8 540.35 37.65 538.7
L 34.9 537.1
Q 34.5 538 33.6 538.65 32.7 539.2 31.6 539.2 30.1 539.2 29.1 538.2 28.05 537.1 28.05 535.65 28.05 534.2 29.1 533.15 30.15 532.05 31.6 532.05 32.65 532.05 33.5 532.6 34.3 533.1 34.8 534.05
L 37.55 532.4
Q 36.75 530.85 35.15 529.85 Z"/>
</g>

<g id="Layer0_0_MEMBER_13_MEMBER_0_MEMBER_0_MEMBER_0_MEMBER_0_FILL">
<path fill="#505F68" stroke="none" d="
M 49.4 528.85
Q 46.65 528.85 44.65 530.85 42.65 532.95 42.65 535.65 42.65 538.35 44.65 540.45 46.6 542.4 49.4 542.4 51.4 542.4 53 541.4 54.6 540.35 55.45 538.7
L 52.7 537.1
Q 52.3 538 51.4 538.65 50.5 539.2 49.4 539.2 47.9 539.2 46.9 538.2 45.85 537.1 45.85 535.65 45.85 534.2 46.9 533.15 47.95 532.05 49.4 532.05 50.45 532.05 51.3 532.6 52.1 533.1 52.6 534.05
L 55.35 532.4
Q 54.55 530.85 52.95 529.85 51.25 528.85 49.4 528.85 Z"/>
</g>

<g id="Layer0_0_MEMBER_14_MEMBER_0_MEMBER_0_MEMBER_0_FILL">
<path fill="#505F68" stroke="none" d="
M 126.35 530.6
L 126.2 531.9 126.3 532.7 128.95 532.4 128 537.65 125 537.65 124.6 540.05 131.9 540.05
Q 132.25 539.3 132.5 537.65
L 130.4 537.65 131.75 529.95 129.45 529.95 126.35 530.6 Z"/>
</g>

<g id="Layer0_0_MEMBER_15_MEMBER_0_MEMBER_0_MEMBER_0_FILL">
<path fill="#505F68" stroke="none" d="
M 137.95 529.8
Q 135.9 529.8 134.8 531.2 133.65 532.65 133.65 535 133.65 536.5 134.45 537.3 135.15 538.05 136.3 538.05 137.5 538.05 138.3 537.2
L 138.45 537.2
Q 138.1 538.95 137.35 539.7 136.7 540.25 135.7 540.25 134.55 540.25 133.7 540 133.25 541.05 133.25 542.3 134.15 542.6 135.55 542.6 140.3 542.6 141.2 535.7
L 141.35 533.75
Q 141.35 529.8 137.95 529.8
M 139 533.45
Q 139 536.05 137.45 536.05 136.1 536.05 136.1 534.7 136.1 531.95 137.85 531.95 139 531.95 139 533.45 Z"/>
</g>

<g id="Layer0_0_MEMBER_16_MEMBER_0_MEMBER_0_MEMBER_0_FILL">
<path fill="#505F68" stroke="none" d="
M 148 530.8
L 146.2 530.8 145.65 534.1 142.7 534.1 142.4 535.9 145.3 535.9 144.75 539.25 146.55 539.25 147.1 535.9 150 535.9 150.3 534.1 147.45 534.1 148 530.8 Z"/>
</g>

<path id="Layer0_0_MEMBER_4_MEMBER_0_MEMBER_0_1_STROKES" stroke="#505F68" stroke-width="1" stroke-linejoin="round" stroke-linecap="round" fill="none" d="
M 11.55 514.45
L 148.55 514.45"/>
</defs>

<g transform="matrix( 1, 0, 0, 1, 0.6,-0.55) ">
<use xlink:href="#Layer0_0_MEMBER_0_MEMBER_0_MEMBER_0_MEMBER_0_FILL"/>
</g>

<g transform="matrix( 1, 0, 0, 1, 0.6,-0.55) ">
<use xlink:href="#Layer0_0_MEMBER_0_MEMBER_0_MEMBER_0_MEMBER_1_FILL"/>
</g>

<g transform="matrix( 1, 0, 0, 1, 0.6,-0.55) ">
<use xlink:href="#Layer0_0_MEMBER_1_MEMBER_0_MEMBER_0_MEMBER_0_MEMBER_0_FILL"/>
</g>

<g transform="matrix( 1, 0, 0, 1, 54.4,582.75) ">
<use xlink:href="#flash0_ai_Layer_1__Group_"/>
</g>

<g transform="matrix( 1, 0, 0, 1, 75.55,582.75) ">
<use xlink:href="#flash0_ai_Layer_1__Group__0"/>
</g>

<g transform="matrix( 1, 0, 0, 1, 0.6,-0.55) ">
<use xlink:href="#Layer0_0_MEMBER_4_MEMBER_0_MEMBER_0_1_STROKES"/>
</g>

<g transform="matrix( 1, 0, 0, 1, 0.6,-0.55) ">
<use xlink:href="#Layer0_0_MEMBER_5_MEMBER_0_MEMBER_0_MEMBER_0_FILL"/>
</g>

<g transform="matrix( 1, 0, 0, 1, 0.6,-0.55) ">
<use xlink:href="#Layer0_0_MEMBER_6_MEMBER_0_MEMBER_0_MEMBER_0_FILL"/>
</g>

<g transform="matrix( 1, 0, 0, 1, 0.6,-0.55) ">
<use xlink:href="#Layer0_0_MEMBER_7_MEMBER_0_MEMBER_0_MEMBER_0_FILL"/>
</g>

<g transform="matrix( 1, 0, 0, 1, 0.6,-0.55) ">
<use xlink:href="#Layer0_0_MEMBER_8_MEMBER_0_MEMBER_0_MEMBER_0_FILL"/>
</g>

<g transform="matrix( 1, 0, 0, 1, 0.6,-0.55) ">
<use xlink:href="#Layer0_0_MEMBER_9_MEMBER_0_MEMBER_0_MEMBER_0_FILL"/>
</g>

<g transform="matrix( 1, 0, 0, 1, 0.6,-0.55) ">
<use xlink:href="#Layer0_0_MEMBER_10_MEMBER_0_MEMBER_0_MEMBER_0_FILL"/>
</g>

<g transform="matrix( 1, 0, 0, 1, 0.6,-0.55) ">
<use xlink:href="#Layer0_0_MEMBER_11_MEMBER_0_MEMBER_0_MEMBER_0_FILL"/>
</g>

<g transform="matrix( 1, 0, 0, 1, 0.6,-0.55) ">
<use xlink:href="#Layer0_0_MEMBER_12_MEMBER_0_MEMBER_0_MEMBER_0_MEMBER_0_FILL"/>
</g>

<g transform="matrix( 1, 0, 0, 1, 0.6,-0.55) ">
<use xlink:href="#Layer0_0_MEMBER_13_MEMBER_0_MEMBER_0_MEMBER_0_MEMBER_0_FILL"/>
</g>

<g transform="matrix( 1, 0, 0, 1, 0.6,-0.55) ">
<use xlink:href="#Layer0_0_MEMBER_14_MEMBER_0_MEMBER_0_MEMBER_0_FILL"/>
</g>

<g transform="matrix( 1, 0, 0, 1, 0.6,-0.55) ">
<use xlink:href="#Layer0_0_MEMBER_15_MEMBER_0_MEMBER_0_MEMBER_0_FILL"/>
</g>

<g transform="matrix( 1, 0, 0, 1, 0.6,-0.55) ">
<use xlink:href="#Layer0_0_MEMBER_16_MEMBER_0_MEMBER_0_MEMBER_0_FILL"/>
</g>
</svg>
