
<svg xmlns="http://www.w3.org/2000/svg" version="1.1" xmlns:xlink="http://www.w3.org/1999/xlink" preserveAspectRatio="none" x="0px" y="0px" width="300px" height="250px" viewBox="0 0 300 250">
<defs>
<g id="Layer1_0_MEMBER_0_MEMBER_0_MEMBER_0_FILL">
<path fill="#FFFFFF" stroke="none" d="
M 103.55 129.7
Q 104.1 128.85 105.3 128.85 106.65 128.85 107.3 130.15
L 109.3 129.35
Q 108.1 126.7 105.4 126.7 103.35 126.7 102.05 128.2 100.75 129.65 100.75 132.1 100.75 134.55 102 135.95 103.2 137.4 105.3 137.4 107 137.4 108.3 136.35 109.4 135.25 109.4 133.25
L 109.4 131.9 105.75 131.9 105.75 133.85 107.4 133.85
Q 107.1 135.4 105.3 135.4 104.2 135.4 103.55 134.45 102.9 133.6 102.9 132.1 102.9 130.65 103.55 129.7
M 119.9 126.95
L 117.9 126.95 117.9 132.7
Q 117.9 134 117.3 134.65 116.8 135.4 115.75 135.4 114.75 135.4 114.15 134.65 113.65 133.95 113.65 132.65
L 113.65 126.95 111.55 126.95 111.55 132.7
Q 111.55 134.95 112.75 136.15 113.85 137.4 115.75 137.4 117.7 137.4 118.8 136.15 119.9 135 119.9 132.65
L 119.9 126.95
M 92.4 107.85
Q 92.4 106.65 91.65 105.95 90.95 105.4 89.15 104.95 87.75 104.65 87.75 104.2 87.75 103.7 88.65 103.7 90.05 103.7 91.05 104.5
L 92.3 102.6
Q 91.35 102 90.05 101.7
L 90.05 100.45 87.55 100.45 87.55 101.7
Q 85.3 102.25 85.3 104.35 85.3 105.6 86.05 106.2 86.75 106.85 88.4 107.2 89.9 107.6 89.9 107.95 89.9 108.6 88.8 108.6 87.6 108.6 86.15 107.7
L 85 109.5
Q 86.05 110.3 87.55 110.45
L 87.55 111.75 90.05 111.75 90.05 110.45
Q 92.4 110.05 92.4 107.85
M 101.75 118.95
L 101.75 101.2 97.65 101.2
Q 97.2 102.5 96.4 102.95 95.7 103.55 93.9 103.6
L 93.9 106.7 96.9 106.7 96.9 118.95 101.75 118.95
M 153.05 143.1
L 151 143.1 151 153.4 153.05 153.4 153.05 143.1
M 148.65 146.4
Q 148.65 144.8 147.6 143.9 146.65 143.1 145.1 143.1
L 140.3 143.1 140.3 153.4 142.35 153.4 142.35 149.7 144.4 149.7 146.25 153.4 148.65 153.4 146.65 149.4
Q 148.65 148.65 148.65 146.4
M 142.35 147.75
L 142.35 145.1 145.05 145.1
Q 146.55 145.1 146.55 146.4 146.55 147.75 145.05 147.75
L 142.35 147.75
M 145.65 134.9
L 149.5 134.9 150.3 137.2 152.6 137.2 148.65 126.95 146.6 126.95 142.65 137.2 144.85 137.2 145.65 134.9
M 147.6 129.5
L 148.75 132.95 146.4 132.95 147.6 129.5
M 138.35 146.4
Q 138.35 144.85 137.25 143.9 136.3 143.1 134.75 143.1
L 130.25 143.1 130.25 153.4 132.3 153.4 132.3 149.75 134.6 149.75
Q 136.3 149.75 137.25 148.95 138.35 148.1 138.35 146.4
M 132.3 145.1
L 134.6 145.1
Q 136.15 145.1 136.15 146.4 136.15 147.75 134.65 147.75
L 132.3 147.75 132.3 145.1
M 124.3 134.9
L 128.1 134.9 128.85 137.2 131.15 137.2 127.25 126.95 125.25 126.95 121.25 137.2 123.5 137.2 124.3 134.9
M 127.4 132.95
L 125.05 132.95 126.15 129.5 127.4 132.95
M 140.4 127.7
Q 139.45 126.95 137.85 126.95
L 133.1 126.95 133.1 137.2 135.15 137.2 135.15 133.5 137.25 133.5 139.1 137.2 141.5 137.2 139.5 133.2
Q 141.5 132.45 141.5 130.15 141.5 128.65 140.4 127.7
M 139.35 130.2
Q 139.35 131.6 137.85 131.6
L 135.15 131.6 135.15 128.9 137.85 128.9
Q 139.35 128.9 139.35 130.2
M 136.1 118.95
L 136.1 101.2 131.1 101.2 131.1 118.95 136.1 118.95
M 127.4 101.2
L 122.9 101.2 120.8 105.95
Q 118.85 110.1 118.55 111.25 118.2 109.8 116.3 105.95
L 114.15 101.2 109.65 101.2 109.65 118.95 114.3 118.95 114.15 110
Q 114.8 111.75 116.25 114.6
L 118.55 119.5 120.8 114.6
Q 122.25 111.75 122.9 110
L 122.8 118.95 127.4 118.95 127.4 101.2
M 144.8 114.7
L 144.8 101.2 139.85 101.2 139.85 118.95 152.6 118.95 152.6 114.7 144.8 114.7
M 191.65 128.9
L 191.65 126.95 184.5 126.95 184.5 137.2 191.85 137.2 191.85 135.2 186.55 135.2 186.55 132.7 189.55 132.7 189.55 130.7 186.55 130.7 186.55 128.9 191.65 128.9
M 197.35 126.95
L 194.1 126.95 194.1 137.2 197.15 137.2
Q 199.4 137.2 200.8 136 202.5 134.6 202.5 132.1 202.5 126.95 197.35 126.95
M 196.1 135.25
L 196.1 128.9 197.25 128.9
Q 200.35 128.9 200.35 132.1 200.35 135.25 197.15 135.25
L 196.1 135.25
M 162.85 137.2
L 162.85 126.95 160.85 126.95 160.85 133.5 156.4 126.95 154.5 126.95 154.5 137.2 156.55 137.2 156.5 130.4 161.05 137.2 162.85 137.2
M 171.1 146.9
L 168.1 146.9 168.1 145.15 173.15 145.15 173.15 143.1 166.05 143.1 166.05 153.4 173.4 153.4 173.4 151.4 168.1 151.4 168.1 148.9 171.1 148.9 171.1 146.9
M 163.6 144.9
L 163.6 143.1 155.8 143.1 155.8 144.95 161.1 144.9 155.55 151.6 155.55 153.4 163.65 153.4 163.65 151.5 158.05 151.6 163.6 144.9
M 172.85 128.9
L 172.85 126.95 164.85 126.95 164.85 128.9 167.85 128.9 167.85 137.2 169.85 137.2 169.85 128.9 172.85 128.9
M 182.05 128.9
L 182.05 126.95 174.85 126.95 174.85 137.2 182.3 137.2 182.3 135.2 176.9 135.2 176.9 132.7 179.9 132.7 179.9 130.7 176.9 130.7 176.9 128.9 182.05 128.9
M 171.1 118.95
L 176.1 118.95 176.1 101.2 171.1 101.2 171.1 118.95
M 168.15 118.95
L 168.15 114.7 160.35 114.7 160.35 101.2 155.35 101.2 155.35 118.95 168.15 118.95
M 195.4 110.1
Q 195.4 105.75 193.15 103.35 191 100.95 187.3 100.95 183.6 100.95 181.35 103.35 179.1 105.85 179.1 110.1 179.1 114.45 181.35 116.85 183.5 119.2 187.25 119.2 190.9 119.2 193.1 116.85 195.4 114.4 195.4 110.1
M 184.1 110.1
Q 184.1 105.2 187.25 105.2 188.6 105.2 189.55 106.45 190.35 107.75 190.35 110.1 190.35 114.95 187.3 114.95 185.8 114.95 184.9 113.7 184.1 112.35 184.1 110.1
M 206.55 106.45
L 202.6 101.2 198.35 101.2 198.35 118.95 203 118.95 203 113.5
Q 203 110.6 202.85 108.95 203.95 110.85 205.6 113.1
L 209.85 118.95 213.8 118.95 213.8 101.2 209.1 101.2 209.1 106
Q 209.1 109.85 209.25 110.6 208.65 109.5 206.55 106.45 Z"/>
</g>

<g id="Layer1_1_MEMBER_0_MEMBER_0_MEMBER_0_FILL">
<path fill="#FFFFFF" stroke="none" d="
M 246.05 156.15
Q 245.9 156.45 245.8 156.85
L 245.6 157.4 243.85 151.6 242.1 151.6 244.85 159.45 246.35 159.45 249.1 151.6 247.4 151.6 246.05 156.15
M 265.85 165.45
L 264.5 165.45 263.45 170.2
Q 263.35 170.35 263.35 170.6
L 263.25 170.2 263.2 169.25 262.5 165.45 260.85 165.45 262.5 173.35 263.95 173.35 264.95 169.25
Q 264.95 168.9 265.1 168.6
L 265.2 167.95 265.25 168.6 265.5 169.25 266.45 173.35 267.95 173.35 269.6 165.45 268 165.45 267.25 169.25 267.2 170.2 267.1 170.6 267 170.2 266.95 169.7 265.85 165.45
M 270.6 151.6
L 269.1 154 268.85 154.6 268.6 154.95 268.35 154.6 268.1 153.95 266.6 151.6 264.85 151.6 267.75 156.4 267.75 159.45 269.35 159.45 269.35 156.35 272.35 151.6 270.6 151.6
M 257.6 165.45
L 256.1 165.45 253.1 173.35 254.75 173.35 255.35 171.6 258.25 171.6 258.85 173.35 260.6 173.35 257.6 165.45
M 257 168
Q 257.1 168.5 257.25 168.65
L 257.75 170.1 255.85 170.1 256.35 168.65
Q 256.5 168.5 256.6 168 256.75 167.8 256.85 167.4 256.85 167.7 257 168
M 251.85 166.6
Q 251.45 166.1 250.85 165.7 250.1 165.45 249.55 165.45
L 245.85 165.45 245.85 173.35 247.35 173.35 247.35 170.5 249 170.5 250.35 173.35 252.15 173.35 250.65 170.25
Q 251.4 170.05 251.85 169.4 252.15 168.9 252.15 167.95 252.15 167.15 251.85 166.6
M 250.3 167.25
Q 250.6 167.5 250.6 168 250.6 168.55 250.3 168.75 250.05 169 249.5 169
L 247.35 169 247.35 166.95 249.5 166.95
Q 249.8 166.95 250.3 167.25
M 256.1 153.15
L 256.1 151.6 250.6 151.6 250.6 159.45 256.25 159.45 256.25 157.9 252.15 157.9 252.15 156 254.4 156 254.4 154.45 252.15 154.45 252.15 153.15 256.1 153.15
M 264.25 154.1
Q 264.25 153.2 263.85 152.65 263.55 152.15 262.95 151.9 262.35 151.6 261.6 151.6
L 257.95 151.6 257.95 159.45 259.5 159.45 259.5 156.65 261.1 156.65 262.5 159.45 264.25 159.45 262.75 156.4
Q 263.55 156.1 263.85 155.5 264.25 155.05 264.25 154.1
M 262.35 153.4
Q 262.6 153.6 262.6 154.15 262.6 154.65 262.35 154.9 262 155.15 261.5 155.15
L 259.5 155.15 259.5 153.15 261.5 153.15
Q 262.1 153.15 262.35 153.4
M 242.35 165.85
Q 241.4 165.45 240.35 165.45
L 237.85 165.45 237.85 173.35 240.25 173.35
Q 240.85 173.35 241.65 173.15 242.4 172.85 243 172.4 243.5 172.05 243.85 171.15 244.25 170.35 244.25 169.4 244.25 168.05 243.75 167.15 243.2 166.25 242.35 165.85
M 239.4 166.95
L 240.3 166.95
Q 241.45 166.95 242.1 167.6 242.6 168.1 242.6 169.4 242.6 170.2 242.35 170.65 242.15 171.2 241.6 171.45 240.95 171.85 240.25 171.85
L 239.4 171.85 239.4 166.95
M 240.85 153.15
L 240.85 151.6 235.35 151.6 235.35 159.45 241.05 159.45 241.05 157.9 237 157.9 237 156 239.25 156 239.25 154.45 237 154.45 237 153.15 240.85 153.15 Z"/>
</g>

<g id="Layer0_0_FILL">
<path fill="#FFFFFF" stroke="none" d="
M 83.45 65.85
Q 81.9 65.45 81.45 65.2 80.95 64.9 80.95 64.3 80.95 63.2 82.7 63.2 84.35 63.2 85.55 64.5
L 87.35 62.75
Q 85.5 60.75 82.8 60.75 80.9 60.75 79.65 61.75 78.35 62.75 78.35 64.45 78.35 66.15 79.45 67.05 80.3 67.75 82.25 68.15 83.95 68.55 84.55 68.9 85.05 69.25 85.05 69.85 85.05 71.25 82.85 71.25 80.95 71.25 79.65 69.8
L 77.85 71.4
Q 78.55 72.45 79.85 73.1 81.15 73.7 82.7 73.7 85.2 73.7 86.45 72.6 87.65 71.55 87.65 69.7 87.65 67.85 86.3 66.9 85.4 66.3 83.45 65.85
M 75.35 60.95
L 72.85 60.95 72.85 68
Q 72.85 69.5 72.15 70.4 71.45 71.25 70.25 71.25 69.05 71.25 68.4 70.35 67.7 69.45 67.7 67.95
L 67.7 60.95 65.2 60.95 65.2 68
Q 65.2 70.7 66.6 72.2 67.95 73.7 70.25 73.7 72.65 73.7 74 72.2 75.35 70.7 75.35 67.95
L 75.35 60.95
M 63.65 73.5
L 63.65 71 57.4 71 57.4 60.95 54.9 60.95 54.9 73.5 63.65 73.5
M 48.2 60.95
L 42.75 60.95 42.75 73.5 45.25 73.5 45.25 69.05 48 69.05
Q 50.05 69.05 51.25 68.1 52.55 67.05 52.55 64.95 52.55 63 51.3 61.95 50.1 60.95 48.2 60.95
M 48.15 63.4
Q 49.95 63.4 49.95 65 49.95 66.6 48.15 66.6
L 45.25 66.6 45.25 63.4 48.15 63.4 Z"/>
</g>
</defs>

<g transform="matrix( 1, 0, 0, 1, 0,0) ">
<use xlink:href="#Layer1_0_MEMBER_0_MEMBER_0_MEMBER_0_FILL"/>
</g>

<g transform="matrix( 1, 0, 0, 1, 0,0) ">
<use xlink:href="#Layer1_1_MEMBER_0_MEMBER_0_MEMBER_0_FILL"/>
</g>

<g transform="matrix( 1, 0, 0, 1, 0,0) ">
<use xlink:href="#Layer0_0_FILL"/>
</g>
</svg>
