
<svg xmlns="http://www.w3.org/2000/svg" version="1.1" xmlns:xlink="http://www.w3.org/1999/xlink" preserveAspectRatio="none" x="0px" y="0px" width="300px" height="250px" viewBox="0 0 300 250">
<defs>
<g id="Layer2_0_FILL">
<path fill="#FFFFFF" stroke="none" d="
M 252.05 166.4
L 254.8 166.4 254.8 164.05 246.6 164.05 246.6 166.4 249.35 166.4 249.35 173.85 252.05 173.85 252.05 166.4
M 240.85 167.65
L 240.85 166.35 245.65 166.35 245.65 164.05 238.15 164.05 238.15 173.85 245.75 173.85 245.75 171.55 240.85 171.55 240.85 169.9 243.75 169.9 243.75 167.65 240.85 167.65
M 231.15 164.05
L 228.4 164.05 228.4 173.85 231.15 173.85 231.15 170.9 232.15 169.7 234.2 173.85 237.45 173.85 234.15 167.5 237.1 164.05 233.8 164.05 233 165.05
Q 232.7 165.45 232.35 165.9 231.95 166.4 231.65 166.85 231.35 167.3 231.15 167.6 231.15 167.1 231.15 166.45 231.15 165.8 231.15 165.2
L 231.15 164.05
M 225.35 164.25
Q 224.55 163.9 223.35 163.9 222.05 163.9 221.05 164.5 220.05 165.1 219.45 166.25 218.9 167.35 218.9 168.95 218.9 170.4 219.4 171.55 219.9 172.7 220.9 173.35 221.9 174 223.35 174 224.5 174 225.3 173.65 226.1 173.3 226.6 172.7 227.1 172.15 227.45 171.45
L 225.15 170.25
Q 224.9 170.7 224.65 171.05 224.4 171.35 224.1 171.5 223.8 171.65 223.4 171.65 222.8 171.65 222.45 171.3 222.05 170.9 221.9 170.3 221.75 169.7 221.75 168.95 221.75 168.15 221.9 167.55 222.05 166.95 222.45 166.6 222.8 166.25 223.35 166.25 223.8 166.25 224.1 166.45 224.4 166.6 224.55 166.95 224.75 167.3 224.95 167.75
L 227.4 166.75
Q 227.1 165.85 226.6 165.2 226.1 164.55 225.35 164.25
M 217.75 164.05
L 214.95 164.05 214.95 173.85 217.75 173.85 217.75 164.05
M 205.6 166.4
L 208.35 166.4 208.35 173.85 211.05 173.85 211.05 166.4 213.8 166.4 213.8 164.05 205.6 164.05 205.6 166.4
M 241.8 149.35
L 241.05 150.85
Q 240.65 151.6 240.35 152.25 240.1 152.95 239.95 153.35 239.8 152.95 239.5 152.25 239.2 151.6 238.8 150.85
L 238.05 149.35 234.95 149.35 238.55 155.55 238.55 159.15 241.3 159.15 241.3 155.5 244.9 149.35 241.8 149.35
M 234.3 154.95
L 234.3 149.35 231.5 149.35 231.5 154.95
Q 231.5 155.9 231.15 156.4 230.8 156.9 230 156.9 229.2 156.9 228.85 156.4 228.45 155.9 228.45 154.95
L 228.45 149.35 225.7 149.35 225.7 154.95
Q 225.7 156.5 226.25 157.5 226.8 158.45 227.75 158.85 228.7 159.3 229.95 159.3 231.2 159.3 232.15 158.85 233.15 158.45 233.7 157.5 234.25 156.5 234.3 154.95
M 223.65 158.3
Q 224.6 157.5 224.6 156 224.55 155.15 224.2 154.6 223.85 154.1 223.2 153.8 223.7 153.55 224 153.1 224.35 152.7 224.35 151.9 224.35 150.65 223.55 150 222.75 149.35 220.9 149.35
L 216.2 149.35 216.2 159.15 220.9 159.15
Q 222.75 159.15 223.65 158.3
M 218.8 151.5
L 220.85 151.5
Q 221.3 151.5 221.5 151.7 221.7 151.9 221.7 152.25 221.7 152.6 221.5 152.8 221.3 153.05 220.85 153.05
L 218.8 153.05 218.8 151.5
M 221.65 155.35
Q 221.9 155.6 221.9 156.05 221.9 156.45 221.7 156.75 221.45 157 220.95 157
L 218.8 157 218.8 155.1 220.95 155.1
Q 221.45 155.1 221.65 155.35 Z"/>
</g>
</defs>

<g transform="matrix( 1, 0, 0, 1, 0,0) ">
<use xlink:href="#Layer2_0_FILL"/>
</g>
</svg>
